%YAML 1.1
%TAG !u! tag:unity3d.com,2011:
--- !u!1 &133062
GameObject:
  m_ObjectHideFlags: 0
  m_PrefabParentObject: {fileID: 0}
  m_PrefabInternal: {fileID: 100100000}
  serializedVersion: 4
  m_Component:
  - 4: {fileID: 418964}
  - 114: {fileID: 11411170}
  m_Layer: 0
  m_Name: Rewired Input Manager
  m_TagString: Untagged
  m_Icon: {fileID: 0}
  m_NavMeshLayer: 0
  m_StaticEditorFlags: 0
  m_IsActive: 1
--- !u!4 &418964
Transform:
  m_ObjectHideFlags: 1
  m_PrefabParentObject: {fileID: 0}
  m_PrefabInternal: {fileID: 100100000}
  m_GameObject: {fileID: 133062}
  m_LocalRotation: {x: 0, y: 0, z: 0, w: 1}
  m_LocalPosition: {x: 0, y: 0, z: 0}
  m_LocalScale: {x: 1, y: 1, z: 1}
  m_Children: []
  m_Father: {fileID: 0}
  m_RootOrder: 0
--- !u!114 &11411170
MonoBehaviour:
  m_ObjectHideFlags: 1
  m_PrefabParentObject: {fileID: 0}
  m_PrefabInternal: {fileID: 100100000}
  m_GameObject: {fileID: 133062}
  m_Enabled: 1
  m_EditorHideFlags: 0
  m_Script: {fileID: 11500000, guid: 581b3e3c96df0ef42aef16b63b27b87f, type: 3}
  m_Name: 
  m_EditorClassIdentifier: 
  _dontDestroyOnLoad: 1
  _userData:
    configVars:
      updateLoop: 1
      alwaysUseUnityInput: 0
      windowsStandalonePrimaryInputSource: 0
      osx_primaryInputSource: 0
      linux_primaryInputSource: 0
      xboxOne_primaryInputSource: 0
      useXInput: 1
      useNativeMouse: 1
      useEnhancedDeviceSupport: 1
      windowsStandalone_useSteamRawInputControllerWorkaround: 1
      android_supportUnknownGamepads: 0
      useSteamControllerSupport: 1
      maxJoysticksPerPlayer: 3
      autoAssignJoysticks: 1
      assignJoysticksToPlayingPlayersOnly: 1
      distributeJoysticksEvenly: 0
      reassignJoystickToPreviousOwnerOnReconnect: 1
      defaultJoystickAxis2DDeadZoneType: 1
    players:
    - _id: 9999999
      _name: System
      _descriptiveName: System
      _startPlaying: 1
      _defaultJoystickMaps: []
      _defaultMouseMaps: []
      _defaultKeyboardMaps: []
      _defaultCustomControllerMaps: []
      _startingCustomControllers: []
      _assignMouseOnStart: 1
      _excludeFromControllerAutoAssignment: 1
    - _id: 1
      _name: Player0
      _descriptiveName: Main Player
      _startPlaying: 1
      _defaultJoystickMaps: []
      _defaultMouseMaps: []
      _defaultKeyboardMaps: []
      _defaultCustomControllerMaps:
      - _enabled: 1
        _categoryId: 0
        _layoutId: 0
      _startingCustomControllers:
      - _sourceId: 0
        _tag: main
      - _sourceId: 1
        _tag: main
      _assignMouseOnStart: 1
      _excludeFromControllerAutoAssignment: 0
    actions:
    - _id: 0
      _name: MoveHorizontal
      _type: 0
      _descriptiveName: 
      _positiveDescriptiveName: Right
      _negativeDescriptiveName: Left
      _behaviorId: 0
      _userAssignable: 1
      _categoryId: 0
    - _id: 1
      _name: MoveVertical
      _type: 0
      _descriptiveName: 
      _positiveDescriptiveName: Up
      _negativeDescriptiveName: Down
      _behaviorId: 0
      _userAssignable: 1
      _categoryId: 0
    - _id: 2
      _name: AimHorizontal
      _type: 0
      _descriptiveName: 
      _positiveDescriptiveName: Right
      _negativeDescriptiveName: Left
      _behaviorId: 0
      _userAssignable: 1
      _categoryId: 0
    - _id: 3
      _name: AimVertical
      _type: 0
      _descriptiveName: 
      _positiveDescriptiveName: Up
      _negativeDescriptiveName: Down
      _behaviorId: 0
      _userAssignable: 1
      _categoryId: 0
    actionCategories:
    - _name: Default
      _descriptiveName: Default
      _tag: 
      _id: 0
      _userAssignable: 1
    actionCategoryMap:
      list:
      - categoryId: 0
        actionIds: 00000000010000000200000003000000
    inputBehaviors:
    - _id: 0
      _name: Default
      _joystickAxisSensitivity: 1
      _digitalAxisSnap: 1
      _digitalAxisInstantReverse: 0
      _digitalAxisGravity: 3
      _digitalAxisSensitivity: 3
      _mouseXYAxisMode: 0
      _mouseOtherAxisMode: 0
      _mouseXYAxisSensitivity: 1
      _mouseXYAxisDeltaCalc: 0
      _mouseOtherAxisSensitivity: 1
      _customControllerAxisSensitivity: 1
      _buttonDoublePressSpeed: 0.3
      _buttonDeadZone: 0.5
      _buttonDownBuffer: 0
    mapCategories:
    - _name: Default
      _descriptiveName: Default
      _tag: 
      _id: 0
      _userAssignable: 1
      _checkConflictsWithAllCategories: 1
      _checkConflictsCategoryIds: 
    joystickLayouts:
    - _name: Default
      _descriptiveName: Default
      _id: 0
    keyboardLayouts:
    - _name: Default
      _descriptiveName: Default
      _id: 0
    mouseLayouts:
    - _name: Default
      _descriptiveName: Default
      _id: 0
    customControllerLayouts:
    - _name: Default
      _descriptiveName: Default
      _id: 0
    joystickMaps: []
    keyboardMaps: []
    mouseMaps: []
    customControllerMaps:
    - id: 0
      categoryId: 0
      layoutId: 0
      name: 
      hardwareGuidString: 
      customControllerUid: 0
      actionElementMaps:
      - _actionCategoryId: 0
        _actionId: 0
        _elementType: 0
        _elementIdentifierId: 0
        _axisRange: 0
        _invert: 0
        _axisContribution: 0
        _keyboardKeyCode: 0
        _modifierKey1: 0
        _modifierKey2: 0
        _modifierKey3: 0
      - _actionCategoryId: 0
        _actionId: 1
        _elementType: 0
        _elementIdentifierId: 1
        _axisRange: 0
        _invert: 0
        _axisContribution: 0
        _keyboardKeyCode: 0
        _modifierKey1: 0
        _modifierKey2: 0
        _modifierKey3: 0
      - _actionCategoryId: 0
        _actionId: 2
        _elementType: 0
        _elementIdentifierId: 4
        _axisRange: 0
        _invert: 0
        _axisContribution: 0
        _keyboardKeyCode: 0
        _modifierKey1: 0
        _modifierKey2: 0
        _modifierKey3: 0
      - _actionCategoryId: 0
        _actionId: 3
        _elementType: 0
        _elementIdentifierId: 5
        _axisRange: 0
        _invert: 0
        _axisContribution: 0
        _keyboardKeyCode: 0
        _modifierKey1: 0
        _modifierKey2: 0
        _modifierKey3: 0
    customControllers:
    - _name: TouchControls
      _descriptiveName: Touch Controls
      _id: 0
      _elementIdentifiers:
      - _id: 0
        _name: MoveX
        _elementType: 0
        _compoundElementType: 0
      - _id: 1
        _name: MoveY
        _elementType: 0
        _compoundElementType: 0
      - _id: 4
        _name: AimX
        _elementType: 0
        _compoundElementType: 0
      - _id: 5
        _name: AimY
        _elementType: 0
        _compoundElementType: 0
      _axes:
      - elementIdentifierId: 0
        name: MoveX
        range: 0
        invert: 0
        deadZone: 0
        zero: 0
        min: -1
        max: 1
        doNotCalibrateRange: 0
      - elementIdentifierId: 1
        name: MoveY
        range: 0
        invert: 0
        deadZone: 0
        zero: 0
        min: -1
        max: 1
        doNotCalibrateRange: 0
      - elementIdentifierId: 4
        name: AimX
        range: 0
        invert: 0
        deadZone: 0
        zero: 0
        min: -1
        max: 1
        doNotCalibrateRange: 0
      - elementIdentifierId: 5
        name: AimY
        range: 0
        invert: 0
        deadZone: 0
        zero: 0
        min: -1
        max: 1
        doNotCalibrateRange: 0
      _buttons: []
      _elementIdentifierIdCounter: 6
    playerIdCounter: 2
    actionIdCounter: 4
    actionCategoryIdCounter: 1
    inputBehaviorIdCounter: 1
    mapCategoryIdCounter: 1
    joystickLayoutIdCounter: 1
    keyboardLayoutIdCounter: 1
    mouseLayoutIdCounter: 1
    customControllerLayoutIdCounter: 2
    joystickMapIdCounter: 0
    keyboardMapIdCounter: 0
    mouseMapIdCounter: 0
    customControllerMapIdCounter: 2
    customControllerIdCounter: 2
  _controllerDataFiles: {fileID: 11400000, guid: d21d2b20df8369642b76aafbb2576ba7,
    type: 2}
--- !u!1001 &100100000
Prefab:
  m_ObjectHideFlags: 1
  serializedVersion: 2
  m_Modification:
    m_TransformParent: {fileID: 0}
    m_Modifications:
    - target: {fileID: 0}
      propertyPath: _userData.actions.Array.size
      value: 4
      objectReference: {fileID: 0}
    - target: {fileID: 0}
      propertyPath: _userData.players.Array.size
      value: 2
      objectReference: {fileID: 0}
    - target: {fileID: 0}
      propertyPath: _userData.customControllers.Array.size
      value: 1
      objectReference: {fileID: 0}
    - target: {fileID: 0}
      propertyPath: _userData.customControllerMaps.Array.size
      value: 1
      objectReference: {fileID: 0}
    - target: {fileID: 0}
      propertyPath: _userData.customControllerLayouts.Array.size
      value: 1
      objectReference: {fileID: 0}
    - target: {fileID: 0}
      propertyPath: _userData.customControllers.Array.data[0]._axes.Array.size
      value: 4
      objectReference: {fileID: 0}
    - target: {fileID: 0}
      propertyPath: _userData.customControllers.Array.data[1]._axes.Array.size
      value: 2
      objectReference: {fileID: 0}
    - target: {fileID: 0}
      propertyPath: _userData.actionCategoryMap.list.Array.data[0].actionIds.Array.size
      value: 4
      objectReference: {fileID: 0}
    - target: {fileID: 0}
      propertyPath: _userData.players.Array.data[0]._startingCustomControllers.Array.size
      value: 0
      objectReference: {fileID: 0}
    - target: {fileID: 0}
      propertyPath: _userData.players.Array.data[1]._startingCustomControllers.Array.size
      value: 2
      objectReference: {fileID: 0}
    - target: {fileID: 0}
      propertyPath: _userData.players.Array.data[0]._defaultCustomControllerMaps.Array.size
      value: 0
      objectReference: {fileID: 0}
    - target: {fileID: 0}
      propertyPath: _userData.players.Array.data[1]._defaultCustomControllerMaps.Array.size
      value: 1
      objectReference: {fileID: 0}
    - target: {fileID: 0}
      propertyPath: _userData.customControllers.Array.data[0]._elementIdentifiers.Array.size
      value: 4
      objectReference: {fileID: 0}
    - target: {fileID: 0}
      propertyPath: _userData.customControllers.Array.data[1]._elementIdentifiers.Array.size
      value: 2
      objectReference: {fileID: 0}
    - target: {fileID: 0}
      propertyPath: _userData.customControllerMaps.Array.data[0].actionElementMaps.Array.size
      value: 4
      objectReference: {fileID: 0}
    - target: {fileID: 0}
      propertyPath: _userData.customControllerMaps.Array.data[1].actionElementMaps.Array.size
      value: 2
      objectReference: {fileID: 0}
    - target: {fileID: 0}
      propertyPath: _userData.players.Array.data[0]._descriptiveName
      value: System
      objectReference: {fileID: 0}
    - target: {fileID: 0}
      propertyPath: _userData.actionIdCounter
      value: 4
      objectReference: {fileID: 0}
    - target: {fileID: 0}
      propertyPath: _userData.actions.Array.data[0]._name
      value: MoveHorizontal
      objectReference: {fileID: 0}
    - target: {fileID: 0}
      propertyPath: _userData.actions.Array.data[0]._type
      value: 0
      objectReference: {fileID: 0}
    - target: {fileID: 0}
      propertyPath: _userData.actions.Array.data[0]._positiveDescriptiveName
      value: Right
      objectReference: {fileID: 0}
    - target: {fileID: 0}
      propertyPath: _userData.actions.Array.data[0]._negativeDescriptiveName
      value: Left
      objectReference: {fileID: 0}
    - target: {fileID: 0}
      propertyPath: _userData.actions.Array.data[0]._userAssignable
      value: 1
      objectReference: {fileID: 0}
    - target: {fileID: 0}
      propertyPath: _userData.actions.Array.data[1]._name
      value: MoveVertical
      objectReference: {fileID: 0}
    - target: {fileID: 0}
      propertyPath: _userData.actions.Array.data[1]._descriptiveName
      value: 
      objectReference: {fileID: 0}
    - target: {fileID: 0}
      propertyPath: _userData.actions.Array.data[1]._positiveDescriptiveName
      value: Up
      objectReference: {fileID: 0}
    - target: {fileID: 0}
      propertyPath: _userData.actions.Array.data[1]._negativeDescriptiveName
      value: Down
      objectReference: {fileID: 0}
    - target: {fileID: 0}
      propertyPath: _userData.actions.Array.data[0]._descriptiveName
      value: 
      objectReference: {fileID: 0}
    - target: {fileID: 0}
      propertyPath: _userData.actions.Array.data[2]._name
      value: AimHorizontal
      objectReference: {fileID: 0}
    - target: {fileID: 0}
      propertyPath: _userData.actions.Array.data[2]._descriptiveName
      value: 
      objectReference: {fileID: 0}
    - target: {fileID: 0}
      propertyPath: _userData.actions.Array.data[2]._type
      value: 0
      objectReference: {fileID: 0}
    - target: {fileID: 0}
      propertyPath: _userData.actions.Array.data[2]._positiveDescriptiveName
      value: Right
      objectReference: {fileID: 0}
    - target: {fileID: 0}
      propertyPath: _userData.actions.Array.data[2]._negativeDescriptiveName
      value: Left
      objectReference: {fileID: 0}
    - target: {fileID: 0}
      propertyPath: _userData.actions.Array.data[3]._name
      value: AimVertical
      objectReference: {fileID: 0}
    - target: {fileID: 0}
      propertyPath: _userData.actions.Array.data[3]._descriptiveName
      value: 
      objectReference: {fileID: 0}
    - target: {fileID: 0}
      propertyPath: _userData.actions.Array.data[3]._type
      value: 0
      objectReference: {fileID: 0}
    - target: {fileID: 0}
      propertyPath: _userData.actions.Array.data[3]._positiveDescriptiveName
      value: Up
      objectReference: {fileID: 0}
    - target: {fileID: 0}
      propertyPath: _userData.actions.Array.data[3]._negativeDescriptiveName
      value: Down
      objectReference: {fileID: 0}
    - target: {fileID: 0}
      propertyPath: _userData.customControllerIdCounter
      value: 2
      objectReference: {fileID: 0}
    - target: {fileID: 0}
      propertyPath: _userData.customControllers.Array.data[0]._name
      value: TouchControls
      objectReference: {fileID: 0}
    - target: {fileID: 0}
      propertyPath: _userData.customControllers.Array.data[0]._descriptiveName
      value: Touch Controls
      objectReference: {fileID: 0}
    - target: {fileID: 0}
      propertyPath: _userData.customControllers.Array.data[0]._elementIdentifierIdCounter
      value: 6
      objectReference: {fileID: 0}
    - target: {fileID: 0}
      propertyPath: _userData.customControllers.Array.data[0]._elementIdentifiers.Array.data[0]._name
      value: MoveX
      objectReference: {fileID: 0}
    - target: {fileID: 0}
      propertyPath: _userData.customControllers.Array.data[0]._axes.Array.data[0].name
      value: MoveX
      objectReference: {fileID: 0}
    - target: {fileID: 0}
      propertyPath: _userData.customControllers.Array.data[0]._elementIdentifiers.Array.data[1]._name
      value: MoveY
      objectReference: {fileID: 0}
    - target: {fileID: 0}
      propertyPath: _userData.customControllers.Array.data[0]._axes.Array.data[1].name
      value: MoveY
      objectReference: {fileID: 0}
    - target: {fileID: 0}
      propertyPath: _userData.customControllers.Array.data[0]._elementIdentifiers.Array.data[2]._name
      value: AimX
      objectReference: {fileID: 0}
    - target: {fileID: 0}
      propertyPath: _userData.customControllers.Array.data[0]._axes.Array.data[2].name
      value: AimX
      objectReference: {fileID: 0}
    - target: {fileID: 0}
      propertyPath: _userData.customControllers.Array.data[0]._elementIdentifiers.Array.data[3]._name
      value: AimY
      objectReference: {fileID: 0}
    - target: {fileID: 0}
      propertyPath: _userData.customControllers.Array.data[0]._axes.Array.data[3].name
      value: AimY
      objectReference: {fileID: 0}
    - target: {fileID: 0}
      propertyPath: _userData.customControllerMapIdCounter
      value: 2
      objectReference: {fileID: 0}
    - target: {fileID: 0}
      propertyPath: _userData.customControllerMaps.Array.data[0].actionElementMaps.Array.data[0]._elementType
      value: 0
      objectReference: {fileID: 0}
    - target: {fileID: 0}
      propertyPath: _userData.customControllerMaps.Array.data[0].actionElementMaps.Array.data[0]._elementIdentifierId
      value: 0
      objectReference: {fileID: 0}
    - target: {fileID: 0}
      propertyPath: _userData.customControllerMaps.Array.data[0].actionElementMaps.Array.data[0]._actionId
      value: 0
      objectReference: {fileID: 0}
    - target: {fileID: 0}
      propertyPath: _userData.customControllerMaps.Array.data[0].actionElementMaps.Array.data[1]._elementType
      value: 0
      objectReference: {fileID: 0}
    - target: {fileID: 0}
      propertyPath: _userData.customControllerMaps.Array.data[0].actionElementMaps.Array.data[1]._elementIdentifierId
      value: 1
      objectReference: {fileID: 0}
    - target: {fileID: 0}
      propertyPath: _userData.customControllerMaps.Array.data[0].actionElementMaps.Array.data[1]._actionId
      value: 1
      objectReference: {fileID: 0}
    - target: {fileID: 0}
      propertyPath: _userData.customControllerMaps.Array.data[0].actionElementMaps.Array.data[2]._elementType
      value: 0
      objectReference: {fileID: 0}
    - target: {fileID: 0}
      propertyPath: _userData.customControllerMaps.Array.data[0].actionElementMaps.Array.data[2]._elementIdentifierId
      value: 4
      objectReference: {fileID: 0}
    - target: {fileID: 0}
      propertyPath: _userData.customControllerMaps.Array.data[0].actionElementMaps.Array.data[2]._actionId
      value: 2
      objectReference: {fileID: 0}
    - target: {fileID: 0}
      propertyPath: _userData.customControllerMaps.Array.data[0].actionElementMaps.Array.data[3]._elementType
      value: 0
      objectReference: {fileID: 0}
    - target: {fileID: 0}
      propertyPath: _userData.customControllerMaps.Array.data[0].actionElementMaps.Array.data[3]._elementIdentifierId
      value: 5
      objectReference: {fileID: 0}
    - target: {fileID: 0}
      propertyPath: _userData.customControllerMaps.Array.data[0].actionElementMaps.Array.data[3]._actionId
      value: 3
      objectReference: {fileID: 0}
    - target: {fileID: 0}
      propertyPath: _userData.players.Array.data[0]._startingCustomControllers.Array.data[0]._sourceId
      value: 0
      objectReference: {fileID: 0}
    - target: {fileID: 0}
      propertyPath: _userData.players.Array.data[0]._startingCustomControllers.Array.data[0]._tag
      value: main
      objectReference: {fileID: 0}
    - target: {fileID: 0}
      propertyPath: _userData.players.Array.data[0]._defaultCustomControllerMaps.Array.data[0]._enabled
      value: 1
      objectReference: {fileID: 0}
    - target: {fileID: 0}
      propertyPath: _userData.playerIdCounter
      value: 2
      objectReference: {fileID: 0}
    - target: {fileID: 0}
      propertyPath: _userData.players.Array.data[1]._startingCustomControllers.Array.data[0]._sourceId
      value: 0
      objectReference: {fileID: 0}
    - target: {fileID: 0}
      propertyPath: _userData.players.Array.data[1]._startingCustomControllers.Array.data[0]._tag
      value: main
      objectReference: {fileID: 0}
    - target: {fileID: 0}
      propertyPath: _userData.players.Array.data[1]._descriptiveName
      value: Main Player
      objectReference: {fileID: 0}
    - target: {fileID: 0}
      propertyPath: _userData.customControllerLayoutIdCounter
      value: 2
      objectReference: {fileID: 0}
    - target: {fileID: 0}
      propertyPath: _userData.customControllerLayouts.Array.data[1]._name
      value: Layout0
      objectReference: {fileID: 0}
    - target: {fileID: 0}
      propertyPath: _userData.customControllerLayouts.Array.data[1]._descriptiveName
      value: Layout0
      objectReference: {fileID: 0}
    - target: {fileID: 0}
      propertyPath: _userData.customControllerLayouts.Array.data[1]._id
      value: 1
      objectReference: {fileID: 0}
    - target: {fileID: 0}
      propertyPath: _userData.configVars.maxJoysticksPerPlayer
      value: 3
      objectReference: {fileID: 0}
    - target: {fileID: 0}
      propertyPath: _userData.configVars.distributeJoysticksEvenly
      value: 0
      objectReference: {fileID: 0}
    - target: {fileID: 0}
      propertyPath: _userData.configVars.assignJoysticksToPlayingPlayersOnly
      value: 1
      objectReference: {fileID: 0}
    - target: {fileID: 0}
      propertyPath: _userData.customControllers.Array.data[0]._elementIdentifiers.Array.data[2]._id
      value: 3
      objectReference: {fileID: 0}
    - target: {fileID: 0}
      propertyPath: _userData.customControllers.Array.data[0]._elementIdentifiers.Array.data[3]._id
      value: 3
      objectReference: {fileID: 0}
    - target: {fileID: 0}
      propertyPath: _userData.customControllers.Array.data[0]._axes.Array.data[2].elementIdentifierId
      value: 3
      objectReference: {fileID: 0}
    - target: {fileID: 0}
      propertyPath: _userData.customControllers.Array.data[0]._axes.Array.data[3].elementIdentifierId
      value: 3
      objectReference: {fileID: 0}
    - target: {fileID: 0}
      propertyPath: _userData.customControllers.Array.data[0]._axes.Array.data[3].min
      value: -1
      objectReference: {fileID: 0}
    - target: {fileID: 0}
      propertyPath: _userData.customControllers.Array.data[0]._axes.Array.data[3].max
      value: 1
      objectReference: {fileID: 0}
    - target: {fileID: 0}
      propertyPath: _userData.customControllers.Array.data[0]._axes.Array.data[2].min
      value: -1
      objectReference: {fileID: 0}
    - target: {fileID: 0}
      propertyPath: _userData.customControllers.Array.data[0]._axes.Array.data[2].max
      value: 1
      objectReference: {fileID: 0}
    - target: {fileID: 0}
      propertyPath: _userData.customControllers.Array.data[1]._name
      value: AimController
      objectReference: {fileID: 0}
    - target: {fileID: 0}
      propertyPath: _userData.customControllers.Array.data[1]._elementIdentifierIdCounter
      value: 2
      objectReference: {fileID: 0}
    - target: {fileID: 0}
      propertyPath: _userData.customControllers.Array.data[1]._elementIdentifiers.Array.data[0]._name
      value: AimX
      objectReference: {fileID: 0}
    - target: {fileID: 0}
      propertyPath: _userData.customControllers.Array.data[1]._axes.Array.data[0].name
      value: AimX
      objectReference: {fileID: 0}
    - target: {fileID: 0}
      propertyPath: _userData.customControllers.Array.data[1]._elementIdentifiers.Array.data[1]._name
      value: AimY
      objectReference: {fileID: 0}
    - target: {fileID: 0}
      propertyPath: _userData.customControllers.Array.data[1]._axes.Array.data[1].name
      value: AimY
      objectReference: {fileID: 0}
    - target: {fileID: 0}
      propertyPath: _userData.players.Array.data[1]._startingCustomControllers.Array.data[1]._sourceId
      value: 1
      objectReference: {fileID: 0}
    - target: {fileID: 0}
      propertyPath: _userData.customControllerMaps.Array.data[1].actionElementMaps.Array.data[0]._actionId
      value: 2
      objectReference: {fileID: 0}
    - target: {fileID: 0}
      propertyPath: _userData.customControllerMaps.Array.data[1].actionElementMaps.Array.data[1]._actionId
      value: 3
      objectReference: {fileID: 0}
    - target: {fileID: 0}
      propertyPath: _userData.customControllerMaps.Array.data[1].id
      value: 1
      objectReference: {fileID: 0}
    - target: {fileID: 0}
      propertyPath: _userData.customControllerMaps.Array.data[1].customControllerUid
      value: 1
      objectReference: {fileID: 0}
    - target: {fileID: 0}
      propertyPath: _userData.customControllerMaps.Array.data[1].actionElementMaps.Array.data[1]._elementIdentifierId
      value: 1
      objectReference: {fileID: 0}
    - target: {fileID: 0}
      propertyPath: _userData.customControllers.Array.data[1]._descriptiveName
      value: CustomController0
      objectReference: {fileID: 0}
    - target: {fileID: 0}
      propertyPath: _userData.customControllers.Array.data[1]._id
      value: 1
      objectReference: {fileID: 0}
    - target: {fileID: 0}
      propertyPath: _userData.customControllers.Array.data[1]._elementIdentifiers.Array.data[1]._id
      value: 1
      objectReference: {fileID: 0}
    - target: {fileID: 0}
      propertyPath: _userData.customControllers.Array.data[1]._axes.Array.data[0].min
      value: -1
      objectReference: {fileID: 0}
    - target: {fileID: 0}
      propertyPath: _userData.customControllers.Array.data[1]._axes.Array.data[0].max
      value: 1
      objectReference: {fileID: 0}
    - target: {fileID: 0}
      propertyPath: _userData.customControllers.Array.data[1]._axes.Array.data[1].elementIdentifierId
      value: 1
      objectReference: {fileID: 0}
    - target: {fileID: 0}
      propertyPath: _userData.customControllers.Array.data[1]._axes.Array.data[1].min
      value: -1
      objectReference: {fileID: 0}
    - target: {fileID: 0}
      propertyPath: _userData.customControllers.Array.data[1]._axes.Array.data[1].max
      value: 1
      objectReference: {fileID: 0}
    m_RemovedComponents: []
  m_ParentPrefab: {fileID: 0}
  m_RootGameObject: {fileID: 133062}
  m_IsPrefabParent: 1
