# OBJ written from D:\Modoproj\Unity_Stuff\Japanese Lanterns Pack\bench_2.obj
# Units	meters

o bench_2
v -1.30015 0.60146 -0.403302
v 1.30015 0.60146 -0.403302
v 1.30015 0.60146 0.403394
v -1.30015 0.60146 0.403394
v -1.30015 0.76974 -0.403302
v 1.30015 0.76974 -0.403302
v 1.30015 0.76974 0.403394
v -1.30015 0.76974 0.403394
v -1.118 0 -0.28635
v -0.812 0 -0.28635
v -0.812 0 0.28635
v -1.118 0 0.28635
v -1.118 0.605 -0.28635
v -0.812 0.605 -0.28635
v -0.812 0.605 0.28635
v -1.118 0.605 0.28635
v 0.832 0 -0.28635
v 1.138 0 -0.28635
v 1.138 0 0.28635
v 0.832 0 0.28635
v 0.832 0.605 -0.28635
v 1.138 0.605 -0.28635
v 1.138 0.605 0.28635
v 0.832 0.605 0.28635
v -0.72933 0.600948 -0.406193
v -0.72933 0.601137 0.405208
v -0.72933 0.770392 -0.406973
v -0.72933 0.769831 0.4039
v 0.189463 0.600981 -0.406004
v 0.189463 0.601123 0.405291
v 0.189463 0.770229 -0.406057
v 0.189463 0.769936 0.404491
vn 1 0 0
vn -1 0 0
vn 0 -1 0
vn 0 0 -1
vn 0 0 1
vn -0.000360125 -1 0.000160778
vn -0.000731241 -1 0.000117255
vn -0.000359936 -1 0.0001608
vn -0.00257262 -0.00238531 -0.999994
vn -0.00574772 -0.00231029 -0.999981
vn -0.00257247 -0.00238531 -0.999994
vn -0.00119883 0.00506334 0.999986
vn -0.00203058 0.00388111 0.99999
vn -0.00119874 0.00506347 0.999986
vn -0.000308679 1 0.000436746
vn -0.00064957 1 0.000346651
vn -0.000309104 1 0.000436634
vn 0.000188696 -1 0.000145916
vn 0.000188638 -1 0.000145935
vn 0.000367356 -1 8.75621e-005
vn 0.00152875 -0.00130884 -0.999998
vn 0.0015287 -0.0013089 -0.999998
vn 0.00245696 -0.000157077 -0.999997
vn 0.000490083 0.0043094 0.999991
vn 0.000490019 0.00430954 0.999991
vn 0.00134741 0.00237335 0.999996
vn 0.000169446 1 0.000354045
vn 0.000169585 1 0.000353873
vn 0.000308168 1 0.000181178
vt 0.928303 0.267821
vt 0.928303 0.02
vt 0.98 0.0200001
vt 0.98 0.267822
vt 0.928303 0.522461
vt 0.928303 0.27464
vt 0.98 0.27464
vt 0.98 0.522461
vt 0.828548 0.403273
vt 0.922552 0.403273
vt 0.922552 0.579209
vt 0.828548 0.579209
vt 0.828548 0.02
vt 0.922552 0.02
vt 0.922553 0.205859
vt 0.828548 0.205859
vt 0.820723 0.780768
vt 0.644787 0.780768
vt 0.644787 0.594909
vt 0.820723 0.594909
vt 0.738792 0.972405
vt 0.644787 0.972404
vt 0.644787 0.786545
vt 0.738792 0.786545
vt 0.644787 0.403273
vt 0.820723 0.403273
vt 0.820723 0.589132
vt 0.644787 0.589132
vt 0.828548 0.587033
vt 0.922552 0.587033
vt 0.922553 0.76297
vt 0.828548 0.76297
vt 0.922552 0.397496
vt 0.828548 0.397496
vt 0.828548 0.211636
vt 0.922552 0.211636
vt 0.820723 0.20586
vt 0.644787 0.205859
vt 0.644787 0.0200001
vt 0.820723 0.02
vt 0.744543 0.786545
vt 0.838548 0.786545
vt 0.838548 0.972404
vt 0.744543 0.972404
vt 0.820723 0.397496
vt 0.644787 0.397496
vt 0.644787 0.211636
vt 0.820723 0.211636
vt 0.0200255 0.19536
vt 0.0205826 0.0200001
vt 0.268404 0.02
vt 0.269292 0.19536
vt 0.52928 0.195365
vt 0.529437 0.02
vt 0.581135 0.02
vt 0.581335 0.195364
vt 0.587033 0.195365
vt 0.587061 0.02
vt 0.638759 0.02
vt 0.638859 0.195362
vt 0.27464 0.195359
vt 0.275923 0.02
vt 0.523744 0.0202193
vt 0.523744 0.195579
vt 0.02 0.477618
vt 0.269234 0.477618
vt 0.268404 0.818827
vt 0.0205826 0.818827
vt 0.529305 0.477625
vt 0.581299 0.477619
vt 0.581202 0.818827
vt 0.529506 0.818835
vt 0.587036 0.477629
vt 0.638897 0.477618
vt 0.638888 0.818821
vt 0.587193 0.818835
vt 0.274672 0.477617
vt 0.523676 0.477837
vt 0.523038 0.819046
vt 0.275216 0.818827
mtllib bench_2.mtl
usemtl 2
g Default
f 6/1/1 7/2/1 3/3/1 2/4/1
f 8/5/2 5/6/2 1/7/2 4/8/2
f 9/9/3 10/10/3 11/11/3 12/12/3
f 13/13/4 14/14/4 10/15/4 9/16/4
f 14/17/1 15/18/1 11/19/1 10/20/1
f 15/21/5 16/22/5 12/23/5 11/24/5
f 16/25/2 13/26/2 9/27/2 12/28/2
f 17/29/3 18/30/3 19/31/3 20/32/3
f 21/33/4 22/34/4 18/35/4 17/36/4
f 22/37/1 23/38/1 19/39/1 18/40/1
f 23/41/5 24/42/5 20/43/5 19/44/5
f 24/45/2 21/46/2 17/47/2 20/48/2
f 26/49/6 4/50/7 1/51/7 25/52/8
f 25/53/9 1/54/10 5/55/10 27/56/11
f 28/57/12 8/58/13 4/59/13 26/60/14
f 27/61/15 5/62/16 8/63/16 28/64/17
f 30/65/18 26/49/6 25/52/8 29/66/19
f 29/66/19 2/67/20 3/68/20 30/65/18
f 29/69/21 25/53/9 27/56/11 31/70/22
f 31/70/22 6/71/23 2/72/23 29/69/21
f 32/73/24 28/57/12 26/60/14 30/74/25
f 30/74/25 3/75/26 7/76/26 32/73/24
f 31/77/27 27/61/15 28/64/17 32/78/28
f 32/78/28 7/79/29 6/80/29 31/77/27
