# OBJ written from D:\Modoproj\Unity_Stuff\Japanese Lanterns Pack\bowl.obj
# Units	meters

o bowl
v 0 0.125317 -0.3485
v 0 0.0153272 -0.23851
v -0.133365 0.125317 -0.321972
v -0.0912738 0.0153272 -0.220355
v -0.246427 0.125317 -0.246427
v -0.168652 0.0153272 -0.168652
v -0.321972 0.125317 -0.133365
v -0.220355 0.0153272 -0.0912738
v -0.3485 0.125317 0
v -0.23851 0.0153272 0
v -0.321972 0.125317 0.133365
v -0.220355 0.0153272 0.0912738
v -0.246427 0.125317 0.246427
v -0.168652 0.0153272 0.168652
v -0.133365 0.125317 0.321972
v -0.0912738 0.0153272 0.220355
v 0 0.125317 0.3485
v 0 0.0153272 0.23851
v 0.133365 0.125317 0.321972
v 0.0912738 0.0153272 0.220355
v 0.246427 0.125317 0.246427
v 0.168652 0.0153272 0.168652
v 0.321972 0.125317 0.133365
v 0.220355 0.0153272 0.0912738
v 0.3485 0.125317 0
v 0.23851 0.0153272 0
v 0.321972 0.125317 -0.133365
v 0.220355 0.0153272 -0.0912738
v 0.246427 0.125317 -0.246427
v 0.168652 0.0153272 -0.168652
v 0.133365 0.125317 -0.321972
v 0.0912738 0.0153272 -0.220355
v 0 0.253837 -0.3485
v -0.133365 0.253837 -0.321972
v -0.246427 0.253837 -0.246427
v -0.321972 0.253837 -0.133365
v -0.3485 0.253837 0
v -0.321972 0.253837 0.133365
v -0.246427 0.253837 0.246427
v -0.133365 0.253837 0.321972
v 0 0.253837 0.3485
v 0.133365 0.253837 0.321972
v 0.246427 0.253837 0.246427
v 0.321972 0.253837 0.133365
v 0.3485 0.253837 0
v 0.321972 0.253837 -0.133365
v 0.246427 0.253837 -0.246427
v 0.133365 0.253837 -0.321972
v 0.280602 0.355455 -2.94903e-018
v 0.259242 0.355455 -0.107381
v 0.316285 0.331612 -1.17961e-017
v 0.292209 0.331612 -0.121037
v 0.340127 0.295929 -1.47451e-017
v 0.314237 0.295929 -0.130161
v -0.107381 0.355455 0.259242
v 0 0.355455 0.280601
v -0.121037 0.331612 0.292209
v 0 0.331612 0.316285
v -0.130161 0.295929 0.314237
v 0 0.295929 0.340127
v 0.198415 0.0236997 0.198415
v 0.107381 0.0236997 0.259242
v 0.223647 0.0475426 0.223647
v 0.121037 0.0475426 0.292209
v 0.240506 0.0832259 0.240506
v 0.130161 0.0832259 0.314237
v -0.280602 0.0236997 -2.94903e-018
v -0.259242 0.0236997 -0.107381
v -0.316285 0.0475426 -1.17961e-017
v -0.292209 0.0475426 -0.121037
v -0.340127 0.0832259 -1.47451e-017
v -0.314237 0.0832259 -0.130161
v 0.107381 0.355455 -0.259242
v 0 0.355455 -0.280601
v 0.121037 0.331612 -0.292209
v 0 0.331612 -0.316285
v 0.130161 0.295929 -0.314237
v 0 0.295929 -0.340127
v -0.259242 0.355455 -0.107381
v -0.280602 0.355455 -2.94903e-018
v -0.292209 0.331612 -0.121037
v -0.316285 0.331612 -1.17961e-017
v -0.314237 0.295929 -0.130161
v -0.340127 0.295929 -1.47451e-017
v -0.198415 0.355455 0.198415
v -0.223647 0.331612 0.223647
v -0.240506 0.295929 0.240506
v 0.259242 0.0236997 0.107381
v 0.292209 0.0475426 0.121037
v 0.314237 0.0832259 0.130161
v -0.107381 0.355455 -0.259242
v -0.121037 0.331612 -0.292209
v -0.130161 0.295929 -0.314237
v -0.259242 0.0236997 0.107381
v -0.292209 0.0475426 0.121037
v -0.314237 0.0832259 0.130161
v 0.259242 0.355455 0.107381
v 0.292209 0.331612 0.121037
v 0.314237 0.295929 0.130161
v -0.259242 0.355455 0.107381
v -0.292209 0.331612 0.121037
v -0.314237 0.295929 0.130161
v 0.280602 0.0236997 2.94903e-018
v 0.316285 0.0475426 1.17961e-017
v 0.340127 0.0832259 1.47451e-017
v 0.198415 0.355455 -0.198415
v 0.223647 0.331612 -0.223647
v 0.240506 0.295929 -0.240506
v -0.198415 0.0236997 0.198415
v -0.223647 0.0475426 0.223647
v -0.240506 0.0832259 0.240506
v 0.259242 0.0236997 -0.107381
v 0.292209 0.0475426 -0.121037
v 0.314237 0.0832259 -0.130161
v -0.198415 0.355455 -0.198415
v -0.223647 0.331612 -0.223647
v -0.240506 0.295929 -0.240506
v 0.198415 0.355455 0.198415
v 0.223647 0.331612 0.223647
v 0.240506 0.295929 0.240506
v -0.107381 0.0236997 0.259242
v -0.121037 0.0475426 0.292209
v -0.130161 0.0832259 0.314237
v -0.107381 0.0236997 -0.259242
v 0 0.0236997 -0.280601
v -0.121037 0.0475426 -0.292209
v 0 0.0475426 -0.316285
v -0.130161 0.0832259 -0.314237
v 0 0.0832259 -0.340127
v 0.198415 0.0236997 -0.198415
v 0.223647 0.0475426 -0.223647
v 0.240506 0.0832259 -0.240506
v 0.107381 0.355455 0.259242
v 0.121037 0.331612 0.292209
v 0.130161 0.295929 0.314237
v 0.107381 0.0236997 -0.259242
v 0.121037 0.0475426 -0.292209
v 0.130161 0.0832259 -0.314237
v 0 0.0236997 0.280601
v 0 0.0475426 0.316285
v 0 0.0832259 0.340127
v -0.198415 0.0236997 -0.198415
v -0.223647 0.0475426 -0.223647
v -0.240506 0.0832259 -0.240506
v 0 0.359416 -0.260686
v -0.0997601 0.359416 -0.240842
v -0.184332 0.359416 -0.184333
v -0.240842 0.359416 -0.09976
v -0.260686 0.359416 -1.55368e-018
v -0.240842 0.359416 0.09976
v -0.184332 0.359416 0.184333
v -0.0997601 0.359416 0.240842
v 0 0.359416 0.260686
v 0.0997601 0.359416 0.240842
v 0.184332 0.359416 0.184333
v 0.240842 0.359416 0.09976
v 0.260686 0.359416 -1.55368e-018
v 0.240842 0.359416 -0.09976
v 0.184332 0.359416 -0.184333
v 0.0997601 0.359416 -0.240842
v 0 0.353891 -0.265899
v -0.101755 0.353891 -0.245659
v -0.188019 0.353891 -0.188019
v -0.245659 0.353891 -0.101755
v -0.265899 0.353891 -1.58475e-018
v -0.245659 0.353891 0.101755
v -0.188019 0.353891 0.188019
v -0.101755 0.353891 0.245659
v 0 0.353891 0.265899
v 0.101755 0.353891 0.245659
v 0.188019 0.353891 0.188019
v 0.245659 0.353891 0.101755
v 0.265899 0.353891 -1.58475e-018
v 0.245659 0.353891 -0.101755
v 0.188019 0.353891 -0.188019
v 0.101755 0.353891 -0.245659
v -0.232452 0.0957657 0
v -0.214758 0.0957657 0.0889554
v -0.164368 0.0957657 0.164368
v -0.0889554 0.0957657 0.214757
v 0 0.0957657 0.232452
v 0.0889554 0.0957657 0.214757
v 0.164368 0.0957657 0.164368
v 0.214758 0.0957657 0.0889554
v 0.232452 0.0957657 0
v 0.214758 0.0957657 -0.0889554
v 0.164368 0.0957657 -0.164368
v 0.0889554 0.0957657 -0.214757
v 0 0.0957657 -0.232452
v -0.0889554 0.0957657 -0.214757
v -0.164368 0.0957657 -0.164368
v -0.214758 0.0957657 -0.0889554
v 0.236857 0.364673 -0.0981091
v 0.181282 0.364673 -0.181282
v 0.164311 0.344141 -0.164311
v 0.214683 0.344141 -0.0889244
v 0 0.364673 -0.256372
v -0.098109 0.364673 -0.236857
v -0.0889244 0.344141 -0.214683
v 0 0.344141 -0.232371
v -0.236857 0.364673 -0.0981091
v -0.256372 0.364673 -1.55368e-018
v -0.232371 0.344141 0
v -0.214683 0.344141 -0.0889244
v -0.181282 0.364673 0.181282
v -0.098109 0.364673 0.236857
v -0.0889244 0.344141 0.214683
v -0.164311 0.344141 0.164311
v 0.098109 0.364673 0.236857
v 0.181282 0.364673 0.181282
v 0.164311 0.344141 0.164311
v 0.0889244 0.344141 0.214683
v 0.256372 0.364673 -1.55368e-018
v 0.232371 0.344141 0
v -0.181282 0.364673 -0.181282
v -0.164311 0.344141 -0.164311
v -0.236857 0.364673 0.0981091
v -0.214683 0.344141 0.0889244
v 0 0.364673 0.256372
v 0 0.344141 0.232371
v 0.236857 0.364673 0.0981091
v 0.214683 0.344141 0.0889244
v 0.098109 0.364673 -0.236857
v 0.0889244 0.344141 -0.214683
vn 0.434896 0.882278 -0.18014
vn 0.470729 0.882278 0
vn 0.725817 0.687888 -7.80968e-008
vn 0.670568 0.687887 -0.277759
vn 0.929238 0.369482 -8.38793e-008
vn 0.858504 0.369482 -0.355604
vn 0.998863 0.0476772 -1.31303e-008
vn 0.922829 0.0476776 -0.382249
vn -1.42531e-008 0.882278 0.470728
vn -0.18014 0.882278 0.434896
vn -0.277758 0.687888 0.670567
vn 9.66912e-008 0.687888 0.725817
vn -0.355604 0.369483 0.858503
vn 6.64045e-008 0.369483 0.929238
vn -0.382248 0.047678 0.922829
vn -6.56516e-009 0.047678 0.998863
vn 0.00227428 -0.999982 0.0054906
vn 0.00420233 -0.999982 0.00420233
vn 0.294114 -0.909392 0.294115
vn 0.159174 -0.909391 0.38428
vn 0.51323 -0.687887 0.513231
vn 0.277759 -0.687887 0.670568
vn 0.65707 -0.369483 0.65707
vn 0.355604 -0.369483 0.858503
vn 0.706302 -0.0476783 0.706303
vn 0.382248 -0.0476783 0.922829
vn -0.00549062 -0.999982 -0.0022743
vn -0.00594302 -0.999982 1.73236e-009
vn -0.415939 -0.909392 1.44426e-008
vn -0.384278 -0.909392 -0.159174
vn -0.725818 -0.687887 -7.43779e-009
vn -0.670568 -0.687888 -0.277759
vn -0.929238 -0.369482 -2.44648e-008
vn -0.858504 -0.369482 -0.355604
vn -0.998863 -0.0476782 -1.31303e-008
vn -0.922829 -0.0476776 -0.382249
vn -1.74925e-008 0.882278 -0.470728
vn 0.180141 0.882278 -0.434897
vn 0.277759 0.687887 -0.670568
vn 1.04129e-007 0.687888 -0.725817
vn 0.355604 0.369483 -0.858503
vn 9.43642e-008 0.369483 -0.929237
vn 0.382248 0.0476783 -0.922829
vn 6.56516e-009 0.047678 -0.998863
vn -0.470727 0.882279 0
vn -0.434895 0.882279 -0.18014
vn -0.670567 0.687888 -0.277758
vn -0.725818 0.687887 3.7189e-008
vn -0.858503 0.369483 -0.355604
vn -0.929238 0.369482 8.38792e-008
vn -0.922829 0.047678 -0.382249
vn -0.998863 0.0476781 2.62607e-008
vn -0.332855 0.882278 0.332856
vn -0.51323 0.687888 0.513231
vn -0.65707 0.369482 0.65707
vn -0.706302 0.0476776 0.706303
vn 0.0054906 -0.999982 0.00227429
vn 0.384279 -0.909392 0.159174
vn 0.670568 -0.687887 0.277759
vn 0.858504 -0.369482 0.355604
vn 0.922829 -0.0476776 0.382249
vn -0.18014 0.882278 -0.434897
vn -0.277758 0.687888 -0.670567
vn -0.355604 0.369483 -0.858503
vn -0.382248 0.0476779 -0.922829
vn -0.00549062 -0.999982 0.00227429
vn -0.384278 -0.909392 0.159173
vn -0.670567 -0.687888 0.277759
vn -0.858503 -0.369483 0.355604
vn -0.922829 -0.047678 0.382249
vn 0.434896 0.882278 0.18014
vn 0.670567 0.687889 0.277758
vn 0.858503 0.369483 0.355604
vn 0.922829 0.0476776 0.382249
vn -0.434895 0.882279 0.18014
vn -0.670567 0.687888 0.277759
vn -0.858504 0.369482 0.355604
vn -0.922829 0.0476776 0.382249
vn 0.00594298 -0.999982 -9.80493e-010
vn 0.415941 -0.909392 -1.23794e-008
vn 0.725817 -0.687888 4.83456e-008
vn 0.929238 -0.369482 2.79598e-008
vn 0.998863 -0.0476772 -6.56516e-009
vn 0.332855 0.882278 -0.332856
vn 0.51323 0.687887 -0.513231
vn 0.65707 0.369483 -0.65707
vn 0.706302 0.0476783 -0.706303
vn -0.00420233 -0.999982 0.00420233
vn -0.294114 -0.909392 0.294115
vn -0.51323 -0.687888 0.51323
vn -0.65707 -0.369483 0.65707
vn -0.706302 -0.0476776 0.706303
vn 0.00549062 -0.999982 -0.0022743
vn 0.384279 -0.909392 -0.159174
vn 0.670567 -0.687889 -0.277758
vn 0.858503 -0.369483 -0.355604
vn 0.922829 -0.0476776 -0.382249
vn -0.332855 0.882278 -0.332855
vn -0.51323 0.687888 -0.51323
vn -0.65707 0.369483 -0.65707
vn -0.706302 0.0476776 -0.706303
vn 0.332855 0.882278 0.332856
vn 0.51323 0.687888 0.513231
vn 0.65707 0.369483 0.65707
vn 0.706302 0.0476782 0.706303
vn -0.00227428 -0.999982 0.0054906
vn -0.159174 -0.909392 0.384279
vn -0.277758 -0.687888 0.670567
vn -0.355604 -0.369483 0.858503
vn -0.382248 -0.0476779 0.922829
vn -9.436e-010 -0.999982 -0.00594298
vn -0.00227428 -0.999982 -0.0054906
vn -0.159174 -0.909392 -0.384279
vn -1.23794e-008 -0.909392 -0.41594
vn -0.277758 -0.687888 -0.670567
vn 1.04129e-007 -0.687888 -0.725817
vn -0.355604 -0.369483 -0.858504
vn 8.03844e-008 -0.369483 -0.929238
vn -0.382248 -0.047678 -0.922829
vn -6.56517e-009 -0.047678 -0.998863
vn 0.00420235 -0.999982 -0.00420235
vn 0.294114 -0.909392 -0.294115
vn 0.51323 -0.687888 -0.513231
vn 0.65707 -0.369484 -0.65707
vn 0.706302 -0.0476782 -0.706303
vn 0.18014 0.882278 0.434897
vn 0.277759 0.687887 0.670568
vn 0.355604 0.369482 0.858504
vn 0.382248 0.0476781 0.922829
vn 0.00227429 -0.999982 -0.0054906
vn 0.159174 -0.909392 -0.384279
vn 0.277759 -0.687886 -0.670569
vn 0.355604 -0.369482 -0.858504
vn 0.382248 -0.0476782 -0.922829
vn 0 -0.999982 0.00594298
vn -2.06323e-009 -0.909392 0.415941
vn 8.92534e-008 -0.687888 0.725817
vn 8.38793e-008 -0.369483 0.929237
vn 6.56517e-009 -0.047678 0.998863
vn -0.00420234 -0.999982 -0.00420234
vn -0.294114 -0.909392 -0.294115
vn -0.51323 -0.687887 -0.513231
vn -0.65707 -0.369482 -0.65707
vn -0.706302 -0.0476776 -0.706303
vn 0.195091 0.980785 0
vn 0.180241 0.980785 -0.0746588
vn -0.0746578 0.980785 0.180239
vn -6.67077e-008 0.980786 0.195089
vn 0.0746581 0.980785 -0.180239
vn -6.67077e-008 0.980786 -0.195089
vn -0.18024 0.980785 -0.0746584
vn -0.195091 0.980785 0
vn -0.13795 0.980785 0.13795
vn -0.0746578 0.980785 -0.180239
vn 0.180241 0.980785 0.0746588
vn -0.18024 0.980785 0.0746584
vn 0.137951 0.980785 -0.137951
vn -0.13795 0.980785 -0.13795
vn 0.137951 0.980785 0.137951
vn 0.0746581 0.980785 0.180239
vn 0 1 1.40749e-008
vn 0 1 1.40749e-008
vn 0 1 1.40749e-008
vn 0 1 1.40749e-008
vn 0.529857 0.662194 -0.529859
vn 0.692295 0.662192 -0.286757
vn 0.692294 0.662192 -0.286758
vn 0.529859 0.662194 -0.529858
vn -0.600565 0.759894 0.248763
vn -0.459654 0.759892 0.459654
vn -0.459654 0.759893 0.459654
vn -0.600565 0.759894 0.248764
vn -0.286758 0.66219 -0.692297
vn -5.35697e-008 0.662188 -0.749337
vn -5.61779e-008 0.662188 -0.749337
vn -0.286759 0.662189 -0.692296
vn -1.31656e-007 0.759895 0.650046
vn 0.248762 0.759894 0.600565
vn 0.248763 0.759894 0.600565
vn -1.20332e-007 0.759895 0.650046
vn -0.749333 0.662193 1.24996e-007
vn -0.692293 0.662194 -0.286757
vn -0.692293 0.662194 -0.286758
vn -0.749333 0.662193 1.26401e-007
vn 0.600565 0.759894 0.248763
vn 0.650046 0.759895 -2.7717e-007
vn 0.650046 0.759895 -2.80773e-007
vn 0.600565 0.759894 0.248763
vn -0.286758 0.66219 0.692296
vn -0.529857 0.662194 0.529859
vn -0.529859 0.662194 0.529858
vn -0.286759 0.66219 0.692296
vn 0.459653 0.759893 -0.459654
vn 0.248762 0.759894 -0.600565
vn 0.248763 0.759894 -0.600565
vn 0.459654 0.759893 -0.459653
vn 0.529856 0.662195 0.529859
vn 0.286758 0.66219 0.692296
vn 0.286759 0.66219 0.692296
vn 0.529858 0.662195 0.529858
vn -0.248762 0.759895 -0.600564
vn -0.459654 0.759892 -0.459654
vn -0.459655 0.759892 -0.459654
vn -0.248762 0.759895 -0.600564
vn 0.749335 0.662191 -6.01172e-007
vn 0.749335 0.662191 -6.03914e-007
vn -0.650045 0.759896 2.7717e-008
vn -0.650045 0.759896 2.86503e-008
vn -0.529858 0.662193 -0.52986
vn -0.529859 0.662193 -0.529858
vn 0.459654 0.759892 0.459654
vn 0.459654 0.759892 0.459654
vn -0.692293 0.662194 0.286757
vn -0.692292 0.662194 0.286757
vn 0.600565 0.759894 -0.248763
vn 0.600565 0.759894 -0.248763
vn -2.49992e-007 0.66219 0.749336
vn -2.45778e-007 0.662189 0.749336
vn 6.92928e-009 0.759895 -0.650045
vn 0 0.759895 -0.650045
vn 0.692291 0.662196 0.286756
vn 0.692291 0.662196 0.286757
vn -0.600566 0.759893 -0.248764
vn -0.600566 0.759893 -0.248764
vn 0.286759 0.66219 -0.692296
vn 0.286759 0.66219 -0.692296
vn -0.248762 0.759894 0.600565
vn -0.248762 0.759894 0.600565
vn -0.707107 -0.000325807 0.707107
vn -0.707107 -0.000325807 0.707107
vn -0.923879 -0.00032547 0.382684
vn -0.923879 -0.00032547 0.382684
vn -0.382684 -0.000326061 0.923879
vn -0.382684 -0.000326061 0.923879
vn 0 -0.000326229 1
vn 0 -0.000326229 1
vn 0.382684 -0.000325639 0.923879
vn 0.382684 -0.000325639 0.923879
vn 0.707107 -0.000325807 0.707107
vn 0.707107 -0.000325807 0.707107
vn 0.923879 -0.000326482 0.382684
vn 0.923879 -0.000326482 0.382684
vn 1 -0.000326482 -6.70961e-009
vn 1 -0.000326483 -6.71015e-009
vn 0.923879 -0.000326482 -0.382684
vn 0.923879 -0.000326482 -0.382684
vn 0.707107 -0.000325807 -0.707107
vn 0.707107 -0.000325807 -0.707107
vn 0.382684 -0.000325639 -0.923879
vn 0.382684 -0.000325639 -0.923879
vn 0 -0.000326229 -1
vn 0 -0.000326229 -1
vn -0.382684 -0.000326061 -0.923879
vn -0.382684 -0.000326061 -0.923879
vn -0.707107 -0.000325807 -0.707107
vn -0.707107 -0.000325807 -0.707107
vn -0.923879 -0.00032547 -0.382684
vn -0.923879 -0.00032547 -0.382684
vn -1 -0.000325133 6.70961e-009
vn -1 -0.000325133 6.71015e-009
vt 0.50589 0.862224
vt 0.492195 0.837681
vt 0.501152 0.831437
vt 0.515768 0.858157
vt 0.509972 0.825379
vt 0.52552 0.85422
vt 0.51898 0.819254
vt 0.535511 0.850252
vt 0.392723 0.775576
vt 0.361324 0.772057
vt 0.361668 0.759964
vt 0.395125 0.763917
vt 0.362055 0.748252
vt 0.397515 0.75263
vt 0.362496 0.736452
vt 0.399977 0.741262
vt 0.198812 0.92739
vt 0.227437 0.922
vt 0.23093 0.934403
vt 0.199954 0.940029
vt 0.234145 0.946051
vt 0.200949 0.951884
vt 0.237217 0.95739
vt 0.201856 0.963412
vt 0.240273 0.96887
vt 0.202718 0.97507
vt 0.0635222 0.858999
vt 0.0766757 0.880084
vt 0.0678283 0.887012
vt 0.0535521 0.863537
vt 0.0593347 0.893535
vt 0.0439553 0.867807
vt 0.0509266 0.899911
vt 0.0344238 0.871978
vt 0.0423011 0.906398
vt 0.0246023 0.876218
vt 0.509859 0.942193
vt 0.514979 0.915547
vt 0.525345 0.916247
vt 0.519962 0.945848
vt 0.535579 0.916867
vt 0.530252 0.948781
vt 0.546018 0.917439
vt 0.540726 0.950851
vt 0.267785 0.794737
vt 0.240538 0.813226
vt 0.232511 0.803524
vt 0.261754 0.783784
vt 0.224716 0.794052
vt 0.255923 0.773125
vt 0.216852 0.784436
vt 0.250065 0.762336
vt 0.329314 0.77403
vt 0.327531 0.761899
vt 0.32585 0.750137
vt 0.3242 0.738277
vt 0.254946 0.911339
vt 0.260749 0.923014
vt 0.266154 0.933999
vt 0.271373 0.944717
vt 0.27661 0.955587
vt 0.199028 0.86447
vt 0.187493 0.896108
vt 0.174386 0.893557
vt 0.187604 0.858707
vt 0.161537 0.890082
vt 0.176433 0.852909
vt 0.149043 0.885521
vt 0.165135 0.846883
vt 0.0948611 0.898198
vt 0.0875451 0.907143
vt 0.0805314 0.91555
vt 0.0735988 0.923748
vt 0.0664981 0.932065
vt 0.473153 0.815987
vt 0.480834 0.807866
vt 0.488385 0.799993
vt 0.496086 0.792047
vt 0.297763 0.781603
vt 0.293835 0.769845
vt 0.290063 0.758429
vt 0.286297 0.746898
vt 0.280193 0.895597
vt 0.288191 0.906034
vt 0.29569 0.915886
vt 0.302972 0.925525
vt 0.310315 0.93533
vt 0.513542 0.888563
vt 0.523872 0.886843
vt 0.534049 0.885189
vt 0.544446 0.883539
vt 0.117167 0.912523
vt 0.111693 0.923064
vt 0.106437 0.932956
vt 0.101237 0.942585
vt 0.0959087 0.952334
vt 0.302014 0.875162
vt 0.311995 0.883843
vt 0.321407 0.892074
vt 0.330589 0.900163
vt 0.339888 0.908427
vt 0.21721 0.836669
vt 0.207371 0.82868
vt 0.197778 0.820836
vt 0.18807 0.812832
vt 0.449613 0.797985
vt 0.455735 0.788325
vt 0.461754 0.778967
vt 0.467892 0.769534
vt 0.142613 0.922436
vt 0.139208 0.934132
vt 0.135913 0.945099
vt 0.132634 0.955762
vt 0.129258 0.966546
vt 0.0598452 0.789367
vt 0.0548104 0.812281
vt 0.0442358 0.811402
vt 0.0499178 0.785066
vt 0.03401 0.810613
vt 0.0398636 0.781235
vt 0.0238571 0.809925
vt 0.029614 0.77816
vt 0.0134572 0.809291
vt 0.019169 0.775957
vt 0.319233 0.850662
vt 0.330882 0.857053
vt 0.341933 0.863168
vt 0.352763 0.869234
vt 0.363772 0.875482
vt 0.422483 0.784343
vt 0.426828 0.773499
vt 0.431109 0.763
vt 0.435484 0.752424
vt 0.330648 0.823007
vt 0.334713 0.793523
vt 0.348418 0.792762
vt 0.343547 0.826479
vt 0.362072 0.792654
vt 0.35591 0.829953
vt 0.375637 0.793584
vt 0.368077 0.833576
vt 0.389053 0.795709
vt 0.380452 0.837447
vt 0.170176 0.927488
vt 0.168999 0.939888
vt 0.167807 0.951511
vt 0.16658 0.96281
vt 0.165282 0.974231
vt 0.0561419 0.835982
vt 0.0455902 0.837888
vt 0.0354438 0.839672
vt 0.0253859 0.841404
vt 0.0150563 0.843148
vt 0.829955 0.924313
vt 0.806444 0.934052
vt 0.780995 0.934052
vt 0.757483 0.924313
vt 0.739488 0.906318
vt 0.729749 0.882806
vt 0.729749 0.857357
vt 0.739487 0.833845
vt 0.757483 0.81585
vt 0.780994 0.806111
vt 0.806443 0.806111
vt 0.829955 0.81585
vt 0.84795 0.833845
vt 0.857689 0.857357
vt 0.857689 0.882806
vt 0.847951 0.906318
vt 0.391583 0.960514
vt 0.428768 0.960513
vt 0.428768 0.995658
vt 0.391583 0.995659
vt 0.465952 0.960513
vt 0.465952 0.995658
vt 0.503137 0.960513
vt 0.503137 0.995658
vt 0.540321 0.960513
vt 0.540321 0.995657
vt 0.577505 0.960513
vt 0.577505 0.995658
vt 0.61469 0.960513
vt 0.61469 0.995658
vt 0.651874 0.960513
vt 0.651874 0.995658
vt 0.689059 0.960513
vt 0.689059 0.995658
vt 0.726244 0.960512
vt 0.726245 0.995658
vt 0.763429 0.960511
vt 0.76343 0.995657
vt 0.800615 0.96051
vt 0.800615 0.995656
vt 0.8378 0.96051
vt 0.837801 0.995656
vt 0.874986 0.96051
vt 0.874986 0.995656
vt 0.912172 0.96051
vt 0.912171 0.995656
vt 0.949357 0.960512
vt 0.949356 0.995657
vt 0.986543 0.960513
vt 0.986541 0.995659
vt 0.487826 0.840771
vt 0.501079 0.86424
vt 0.361178 0.778046
vt 0.391562 0.781351
vt 0.509944 0.915203
vt 0.505126 0.940291
vt 0.244498 0.818002
vt 0.270772 0.800142
vt 0.330216 0.780033
vt 0.193755 0.897096
vt 0.204608 0.867259
vt 0.469404 0.820008
vt 0.299718 0.787414
vt 0.508508 0.889422
vt 0.222047 0.840587
vt 0.446623 0.80277
vt 0.420366 0.789715
vt 0.607384 0.918396
vt 0.589846 0.900858
vt 0.580354 0.877943
vt 0.580354 0.853141
vt 0.589846 0.830226
vt 0.607384 0.812688
vt 0.630298 0.803196
vt 0.655101 0.803196
vt 0.678016 0.812688
vt 0.695554 0.830226
vt 0.705045 0.853141
vt 0.705045 0.877943
vt 0.695554 0.900858
vt 0.678016 0.918396
vt 0.655101 0.927887
vt 0.630298 0.927887
vt 0.539702 0.777599
vt 0.565029 0.777977
vt 0.564983 0.781519
vt 0.53965 0.781178
vt 0.565029 0.773977
vt 0.539702 0.773599
vt 0.539847 0.765235
vt 0.565141 0.765696
vt 0.867084 0.776614
vt 0.89322 0.775096
vt 0.893908 0.77874
vt 0.867212 0.780269
vt 0.89322 0.771096
vt 0.867084 0.772614
vt 0.866736 0.764146
vt 0.891604 0.763104
vt 0.791401 0.777679
vt 0.816503 0.777334
vt 0.816548 0.780851
vt 0.791447 0.781194
vt 0.816503 0.773334
vt 0.791401 0.773679
vt 0.791294 0.765458
vt 0.816393 0.765103
vt 0.716092 0.778455
vt 0.7412 0.778252
vt 0.741233 0.781769
vt 0.716116 0.781972
vt 0.7412 0.774252
vt 0.716092 0.774455
vt 0.716037 0.76623
vt 0.741124 0.76603
vt 0.640678 0.778626
vt 0.665837 0.77865
vt 0.66584 0.782173
vt 0.640669 0.782153
vt 0.665837 0.77465
vt 0.640678 0.774626
vt 0.640702 0.766383
vt 0.665832 0.766414
vt 0.590277 0.778292
vt 0.59024 0.781827
vt 0.590277 0.774292
vt 0.590364 0.76603
vt 0.841651 0.776996
vt 0.841692 0.780544
vt 0.841651 0.772996
vt 0.841534 0.764701
vt 0.766301 0.77799
vt 0.766341 0.781506
vt 0.766301 0.77399
vt 0.766207 0.76577
vt 0.690973 0.77859
vt 0.690987 0.78211
vt 0.690973 0.77459
vt 0.690941 0.766361
vt 0.615493 0.77851
vt 0.61547 0.78204
vt 0.615493 0.77451
vt 0.615548 0.766257
vt 0.514022 0.777082
vt 0.513861 0.780787
vt 0.514022 0.773082
vt 0.514458 0.764513
vt 0.48752 0.77519
vt 0.486708 0.778895
vt 0.48752 0.77119
vt 0.489413 0.763134
vt 0.539847 0.762235
vt 0.541493 0.693471
vt 0.56639 0.694016
vt 0.565141 0.762696
vt 0.514458 0.761513
vt 0.516584 0.692779
vt 0.489413 0.760134
vt 0.491684 0.691948
vt 0.866736 0.761146
vt 0.865304 0.692499
vt 0.890334 0.691948
vt 0.891604 0.760104
vt 0.841534 0.761701
vt 0.840285 0.693023
vt 0.816393 0.762103
vt 0.815296 0.693495
vt 0.791294 0.762458
vt 0.79034 0.693912
vt 0.766207 0.76277
vt 0.765411 0.694267
vt 0.741124 0.76303
vt 0.740505 0.694555
vt 0.716037 0.76323
vt 0.715616 0.694768
vt 0.690941 0.763361
vt 0.69074 0.694898
vt 0.665832 0.763414
vt 0.665873 0.694936
vt 0.640702 0.763383
vt 0.641009 0.694876
vt 0.615548 0.763257
vt 0.616144 0.694708
vt 0.590364 0.76303
vt 0.591272 0.694425
mtllib bowl.mtl
usemtl Default
g Default
f 50/1/1 49/2/2 51/3/3 52/4/4
f 52/4/4 51/3/3 53/5/5 54/6/6
f 54/6/6 53/5/5 45/7/7 46/8/8
f 56/9/9 55/10/10 57/11/11 58/12/12
f 58/12/12 57/11/11 59/13/13 60/14/14
f 60/14/14 59/13/13 40/15/15 41/16/16
f 20/17/17 22/18/18 61/19/19 62/20/20
f 62/20/20 61/19/19 63/21/21 64/22/22
f 64/22/22 63/21/21 65/23/23 66/24/24
f 66/24/24 65/23/23 21/25/25 19/26/26
f 8/27/27 10/28/28 67/29/29 68/30/30
f 68/30/30 67/29/29 69/31/31 70/32/32
f 70/32/32 69/31/31 71/33/33 72/34/34
f 72/34/34 71/33/33 9/35/35 7/36/36
f 74/37/37 73/38/38 75/39/39 76/40/40
f 76/40/40 75/39/39 77/41/41 78/42/42
f 78/42/42 77/41/41 48/43/43 33/44/44
f 80/45/45 79/46/46 81/47/47 82/48/48
f 82/48/48 81/47/47 83/49/49 84/50/50
f 84/50/50 83/49/49 36/51/51 37/52/52
f 55/10/10 85/53/53 86/54/54 57/11/11
f 57/11/11 86/54/54 87/55/55 59/13/13
f 59/13/13 87/55/55 39/56/56 40/15/15
f 22/18/18 24/57/57 88/58/58 61/19/19
f 61/19/19 88/58/58 89/59/59 63/21/21
f 63/21/21 89/59/59 90/60/60 65/23/23
f 65/23/23 90/60/60 23/61/61 21/25/25
f 91/62/62 74/63/37 76/64/40 92/65/63
f 92/65/63 76/64/40 78/66/42 93/67/64
f 93/67/64 78/66/42 33/68/44 34/69/65
f 10/28/28 12/70/66 94/71/67 67/29/29
f 67/29/29 94/71/67 95/72/68 69/31/31
f 69/31/31 95/72/68 96/73/69 71/33/33
f 71/33/33 96/73/69 11/74/70 9/35/35
f 49/2/2 97/75/71 98/76/72 51/3/3
f 51/3/3 98/76/72 99/77/73 53/5/5
f 53/5/5 99/77/73 44/78/74 45/7/7
f 85/53/53 100/79/75 101/80/76 86/54/54
f 86/54/54 101/80/76 102/81/77 87/55/55
f 87/55/55 102/81/77 38/82/78 39/56/56
f 24/57/57 26/83/79 103/84/80 88/58/58
f 88/58/58 103/84/80 104/85/81 89/59/59
f 89/59/59 104/85/81 105/86/82 90/60/60
f 90/60/60 105/86/82 25/87/83 23/61/61
f 73/38/38 106/88/84 107/89/85 75/39/39
f 75/39/39 107/89/85 108/90/86 77/41/41
f 77/41/41 108/90/86 47/91/87 48/43/43
f 12/70/66 14/92/88 109/93/89 94/71/67
f 94/71/67 109/93/89 110/94/90 95/72/68
f 95/72/68 110/94/90 111/95/91 96/73/69
f 96/73/69 111/95/91 13/96/92 11/74/70
f 26/83/79 28/97/93 112/98/94 103/84/80
f 103/84/80 112/98/94 113/99/95 104/85/81
f 104/85/81 113/99/95 114/100/96 105/86/82
f 105/86/82 114/100/96 27/101/97 25/87/83
f 115/102/98 91/62/62 92/65/63 116/103/99
f 116/103/99 92/65/63 93/67/64 117/104/100
f 117/104/100 93/67/64 34/69/65 35/105/101
f 97/75/71 118/106/102 119/107/103 98/76/72
f 98/76/72 119/107/103 120/108/104 99/77/73
f 99/77/73 120/108/104 43/109/105 44/78/74
f 14/92/88 16/110/106 121/111/107 109/93/89
f 109/93/89 121/111/107 122/112/108 110/94/90
f 110/94/90 122/112/108 123/113/109 111/95/91
f 111/95/91 123/113/109 15/114/110 13/96/92
f 2/115/111 4/116/112 124/117/113 125/118/114
f 125/118/114 124/117/113 126/119/115 127/120/116
f 127/120/116 126/119/115 128/121/117 129/122/118
f 129/122/118 128/121/117 3/123/119 1/124/120
f 28/97/93 30/125/121 130/126/122 112/98/94
f 112/98/94 130/126/122 131/127/123 113/99/95
f 113/99/95 131/127/123 132/128/124 114/100/96
f 114/100/96 132/128/124 29/129/125 27/101/97
f 106/88/84 50/1/1 52/4/4 107/89/85
f 107/89/85 52/4/4 54/6/6 108/90/86
f 108/90/86 54/6/6 46/8/8 47/91/87
f 118/106/102 133/130/126 134/131/127 119/107/103
f 119/107/103 134/131/127 135/132/128 120/108/104
f 120/108/104 135/132/128 42/133/129 43/109/105
f 32/134/130 2/135/111 125/136/114 136/137/131
f 136/137/131 125/136/114 127/138/116 137/139/132
f 137/139/132 127/138/116 129/140/118 138/141/133
f 138/141/133 129/140/118 1/142/120 31/143/134
f 16/110/106 18/144/135 139/145/136 121/111/107
f 121/111/107 139/145/136 140/146/137 122/112/108
f 122/112/108 140/146/137 141/147/138 123/113/109
f 123/113/109 141/147/138 17/148/139 15/114/110
f 4/116/112 6/149/140 142/150/141 124/117/113
f 124/117/113 142/150/141 143/151/142 126/119/115
f 126/119/115 143/151/142 144/152/143 128/121/117
f 128/121/117 144/152/143 5/153/144 3/123/119
f 30/125/121 32/134/130 136/137/131 130/126/122
f 130/126/122 136/137/131 137/139/132 131/127/123
f 131/127/123 137/139/132 138/141/133 132/128/124
f 132/128/124 138/141/133 31/143/134 29/129/125
f 79/46/46 115/102/98 116/103/99 81/47/47
f 81/47/47 116/103/99 117/104/100 83/49/49
f 83/49/49 117/104/100 35/105/101 36/51/51
f 100/79/75 80/45/45 82/48/48 101/80/76
f 101/80/76 82/48/48 84/50/50 102/81/77
f 102/81/77 84/50/50 37/52/52 38/82/78
f 133/130/126 56/9/9 58/12/12 134/131/127
f 134/131/127 58/12/12 60/14/14 135/132/128
f 135/132/128 60/14/14 41/16/16 42/133/129
f 18/144/135 20/17/17 62/20/20 139/145/136
f 139/145/136 62/20/20 64/22/22 140/146/137
f 140/146/137 64/22/22 66/24/24 141/147/138
f 141/147/138 66/24/24 19/26/26 17/148/139
f 6/149/140 8/27/27 68/30/30 142/150/141
f 142/150/141 68/30/30 70/32/32 143/151/142
f 143/151/142 70/32/32 72/34/34 144/152/143
f 144/152/143 72/34/34 7/36/36 5/153/144
f 32/154/130 30/155/121 28/156/93 26/157/79 24/158/57 22/159/18 20/160/17 18/161/135 16/162/106 14/163/88 12/164/66 10/165/28 8/166/27 6/167/140 4/168/112 2/169/111
f 1/170/120 3/171/119 34/172/65 33/173/44
f 3/171/119 5/174/144 35/175/101 34/172/65
f 5/174/144 7/176/36 36/177/51 35/175/101
f 7/176/36 9/178/35 37/179/52 36/177/51
f 9/178/35 11/180/70 38/181/78 37/179/52
f 11/180/70 13/182/92 39/183/56 38/181/78
f 13/182/92 15/184/110 40/185/15 39/183/56
f 15/184/110 17/186/139 41/187/16 40/185/15
f 17/186/139 19/188/26 42/189/129 41/187/16
f 19/188/26 21/190/25 43/191/105 42/189/129
f 21/190/25 23/192/61 44/193/74 43/191/105
f 23/192/61 25/194/83 45/195/7 44/193/74
f 25/194/83 27/196/97 46/197/8 45/195/7
f 27/196/97 29/198/125 47/199/87 46/197/8
f 29/198/125 31/200/134 48/201/43 47/199/87
f 31/200/134 1/202/120 33/203/44 48/201/43
f 157/204/145 49/2/2 50/1/1 158/205/146
f 152/206/147 55/10/10 56/9/9 153/207/148
f 160/208/149 73/38/38 74/37/37 145/209/150
f 148/210/151 79/46/46 80/45/45 149/211/152
f 151/212/153 85/53/53 55/10/10 152/206/147
f 145/213/150 74/63/37 91/62/62 146/214/154
f 156/215/155 97/75/71 49/2/2 157/204/145
f 150/216/156 100/79/75 85/53/53 151/212/153
f 159/217/157 106/88/84 73/38/38 160/208/149
f 146/214/154 91/62/62 115/102/98 147/218/158
f 155/219/159 118/106/102 97/75/71 156/215/155
f 158/205/146 50/1/1 106/88/84 159/217/157
f 154/220/160 133/130/126 118/106/102 155/219/159
f 147/218/158 115/102/98 79/46/46 148/210/151
f 149/211/152 80/45/45 100/79/75 150/216/156
f 153/207/148 56/9/9 133/130/126 154/220/160
usemtl 2
f 177/221/161 178/222/161 179/223/162 180/224/163 181/225/164 182/226/163 183/227/162 184/228/161 185/229/161 186/230/161 187/231/162 188/232/163 189/233/164 190/234/163 191/235/162 192/236/161
f 194/237/165 193/238/166 174/239/167 175/240/168
f 193/241/169 194/242/170 195/243/171 196/244/172
f 198/245/173 197/246/174 161/247/175 162/248/176
f 197/249/177 198/250/178 199/251/179 200/252/180
f 202/253/181 201/254/182 164/255/183 165/256/184
f 201/257/185 202/258/186 203/259/187 204/260/188
f 206/261/189 205/262/190 167/263/191 168/264/192
f 205/265/193 206/266/194 207/267/195 208/268/196
f 210/269/197 209/270/198 170/271/199 171/272/200
f 209/273/201 210/274/202 211/275/203 212/276/204
f 193/238/166 213/277/205 173/278/206 174/239/167
f 213/279/207 193/241/169 196/244/172 214/280/208
f 201/254/182 215/281/209 163/282/210 164/255/183
f 215/283/211 201/257/185 204/260/188 216/284/212
f 205/262/190 217/285/213 166/286/214 167/263/191
f 217/287/215 205/265/193 208/268/196 218/288/216
f 209/270/198 219/289/217 169/290/218 170/271/199
f 219/291/219 209/273/201 212/276/204 220/292/220
f 213/277/205 221/293/221 172/294/222 173/278/206
f 221/295/223 213/279/207 214/280/208 222/296/224
f 223/297/225 194/237/165 175/240/168 176/298/226
f 194/242/170 223/299/227 224/300/228 195/243/171
f 215/281/209 198/245/173 162/248/176 163/282/210
f 198/250/178 215/283/211 216/284/212 199/251/179
f 217/285/213 202/253/181 165/256/184 166/286/214
f 202/258/186 217/287/215 218/288/216 203/259/187
f 197/301/174 223/297/225 176/298/226 161/302/175
f 223/299/227 197/303/177 200/304/180 224/300/228
f 219/289/217 206/261/189 168/264/192 169/290/218
f 206/266/194 219/291/219 220/292/220 207/267/195
f 221/293/221 210/269/197 171/272/200 172/294/222
f 210/274/202 221/295/223 222/296/224 211/275/203
f 195/305/229 187/306/230 186/307/231 196/308/232
f 224/309/233 188/310/234 187/306/230 195/305/229
f 200/311/235 189/312/236 188/310/234 224/309/233
f 199/313/237 190/314/238 189/315/236 200/316/235
f 216/317/239 191/318/240 190/314/238 199/313/237
f 204/319/241 192/320/242 191/318/240 216/317/239
f 203/321/243 177/322/244 192/320/242 204/319/241
f 218/323/245 178/324/246 177/322/244 203/321/243
f 208/325/247 179/326/248 178/324/246 218/323/245
f 207/327/249 180/328/250 179/326/248 208/325/247
f 220/329/251 181/330/252 180/328/250 207/327/249
f 212/331/253 182/332/254 181/330/252 220/329/251
f 211/333/255 183/334/256 182/332/254 212/331/253
f 222/335/257 184/336/258 183/334/256 211/333/255
f 214/337/259 185/338/260 184/336/258 222/335/257
f 196/308/232 186/307/231 185/338/260 214/337/259
