# OBJ written from D:\Modoproj\Unity_Stuff\Japanese Lanterns Pack\bridge_wood_2.obj
# Units	meters

o bridge_wood_2
v -0.875504 0.134727 1.60423
v 0.844904 0.134727 1.60423
v 0.844904 0.0346581 1.81898
v -0.875504 0.0346581 1.81898
v -0.875504 0.181113 1.62235
v 0.844904 0.181113 1.62235
v 0.844904 0.0783719 1.84284
v -0.875504 0.0783719 1.84284
v -0.796743 0.243004 1.35006
v 0.786033 0.243004 1.35006
v 0.786033 0.157782 1.57112
v -0.796743 0.157782 1.57112
v -0.796743 0.290516 1.36499
v 0.786033 0.290516 1.36499
v 0.786033 0.203018 1.59195
v -0.796743 0.203018 1.59195
v -0.803297 0.329925 1.08266
v 0.779418 0.329925 1.09647
v 0.777443 0.259945 1.3228
v -0.805273 0.259945 1.30899
v -0.803399 0.378343 1.09432
v 0.779316 0.378343 1.10813
v 0.777288 0.306493 1.34051
v -0.805427 0.306493 1.3267
v -0.867854 0.395108 0.824181
v 0.852554 0.395108 0.824181
v 0.852554 0.340692 1.05475
v -0.867854 0.340692 1.05475
v -0.867854 0.444206 0.832519
v 0.852554 0.444206 0.832519
v 0.852554 0.388337 1.06925
v -0.867854 0.388337 1.06925
v -0.871679 0.4459 0.554907
v 0.848729 0.4459 0.554907
v 0.848729 0.4073 0.78864
v -0.871679 0.4073 0.78864
v -0.871679 0.495452 0.559885
v 0.848729 0.495452 0.559885
v 0.848729 0.455821 0.79986
v -0.871679 0.455821 0.79986
v -0.793644 0.47826 0.276304
v 0.78047 0.47826 0.290041
v 0.778412 0.455654 0.525844
v -0.795702 0.455654 0.512107
v -0.793658 0.528036 0.277898
v 0.780456 0.528036 0.291635
v 0.778343 0.504826 0.533736
v -0.795771 0.504826 0.519999
v -0.867854 0.488231 0.00992393
v 0.852554 0.488231 0.00992393
v 0.852554 0.481724 0.246722
v -0.867854 0.481724 0.246722
v -0.867854 0.538 0.00812798
v 0.852554 0.538 0.00812798
v 0.852554 0.531319 0.251249
v -0.867854 0.531319 0.251249
v -0.864029 0.479593 -0.263258
v 0.856379 0.479593 -0.263258
v 0.856379 0.489214 -0.0265727
v -0.864029 0.489214 -0.0265727
v -0.864029 0.529125 -0.268436
v 0.856379 0.529125 -0.268436
v 0.856379 0.539002 -0.0254299
v -0.864029 0.539002 -0.0254299
v -0.890912 1.1569 -1.47099
v -0.890914 0.0103747 -1.45764
v -0.8909 0.0728556 -1.31095
v -0.890898 1.23238 -1.3243
v -0.800469 1.15686 -1.47294
v -0.800471 0.0103369 -1.45959
v -0.800457 0.072893 -1.30898
v -0.800455 1.23242 -1.32234
v -0.864962 0.402917 -0.797167
v 0.855381 0.402917 -0.81218
v 0.857416 0.444582 -0.579014
v -0.862927 0.444582 -0.564
v -0.865066 0.451287 -0.809022
v 0.855277 0.451287 -0.824035
v 0.857367 0.494064 -0.584641
v -0.862976 0.494064 -0.569628
v -0.867854 0.335217 -1.07041
v 0.852554 0.335217 -1.07041
v 0.852554 0.392651 -0.840612
v -0.867854 0.392651 -0.840612
v -0.867854 0.382668 -1.08552
v 0.852554 0.382668 -1.08552
v 0.852554 0.441636 -0.849594
v -0.867854 0.441636 -0.849594
v -0.80729 0.253412 -1.33117
v 0.77669 0.253412 -1.33117
v 0.77669 0.326346 -1.10582
v -0.80729 0.326346 -1.10582
v -0.80729 0.299724 -1.34948
v 0.77669 0.299724 -1.34948
v 0.77669 0.374607 -1.11811
v -0.80729 0.374607 -1.11811
v -0.795815 0.15023 -1.58575
v 0.788165 0.15023 -1.58575
v 0.788165 0.238327 -1.36589
v -0.795815 0.238327 -1.36589
v -0.795815 0.195189 -1.60717
v 0.788165 0.195189 -1.60717
v 0.788165 0.285639 -1.38144
v -0.795815 0.285639 -1.38144
v -0.879329 0.0261339 -1.83297
v 0.841079 0.0261339 -1.83297
v 0.841079 0.128984 -1.61962
v -0.879329 0.128984 -1.61962
v -0.879329 0.0695312 -1.8574
v 0.841079 0.0695312 -1.8574
v 0.841079 0.175128 -1.63836
v -0.879329 0.175128 -1.63836
v 0.713191 -0.112461 -1.70181
v 0.713191 -0.112461 1.70181
v 0.713191 0.0404135 -1.8169
v 0.713191 0.0404135 1.8169
v 0.713191 0.203589 -1.47189
v 0.713191 0.331412 -1.11081
v 0.713191 0.423201 -0.743836
v 0.713191 0.478471 -0.372908
v 0.713191 0.496926 0
v 0.713191 0.478471 0.372908
v 0.713191 0.423201 0.743836
v 0.713191 0.331412 1.11081
v 0.713191 0.203589 1.47189
v 0.713191 0.0418306 1.38073
v 0.713191 0.162701 1.04207
v 0.713191 0.249503 0.697835
v 0.713191 0.30177 0.349855
v 0.713191 0.319224 -2.53475e-016
v 0.713191 0.30177 -0.349855
v 0.713191 0.249503 -0.697835
v 0.713191 0.162701 -1.04207
v 0.713191 0.0418306 -1.38073
v 0.799913 -0.112461 -1.70181
v 0.799913 0.0404135 -1.8169
v 0.799913 0.0404135 1.8169
v 0.799913 -0.112461 1.70181
v 0.799913 0.203589 -1.47189
v 0.799913 0.331412 -1.11081
v 0.799913 0.423201 -0.743836
v 0.799913 0.478471 -0.372908
v 0.799913 0.496926 0
v 0.799913 0.478471 0.372908
v 0.799913 0.423201 0.743836
v 0.799913 0.331412 1.11081
v 0.799913 0.203589 1.47189
v 0.799913 0.162701 -1.04207
v 0.799913 0.0418306 -1.38073
v 0.799913 0.249503 -0.697835
v 0.799913 0.30177 -0.349855
v 0.799913 0.319224 -2.53475e-016
v 0.799913 0.30177 0.349855
v 0.799913 0.249503 0.697835
v 0.799913 0.162701 1.04207
v 0.799913 0.0418306 1.38073
v -0.801509 -0.112461 -1.70181
v -0.801509 -0.112461 1.70181
v -0.801509 0.0404135 -1.8169
v -0.801509 0.0404135 1.8169
v -0.801509 0.203589 -1.47189
v -0.801509 0.331412 -1.11081
v -0.801509 0.423201 -0.743836
v -0.801509 0.478471 -0.372908
v -0.801509 0.496926 0
v -0.801509 0.478471 0.372908
v -0.801509 0.423201 0.743836
v -0.801509 0.331412 1.11081
v -0.801509 0.203589 1.47189
v -0.801509 0.0418306 1.38073
v -0.801509 0.162701 1.04207
v -0.801509 0.249503 0.697835
v -0.801509 0.30177 0.349855
v -0.801509 0.319224 -2.53475e-016
v -0.801509 0.30177 -0.349855
v -0.801509 0.249503 -0.697835
v -0.801509 0.162701 -1.04207
v -0.801509 0.0418306 -1.38073
v -0.714787 -0.112461 -1.70181
v -0.714787 0.0404135 -1.8169
v -0.714787 0.0404135 1.8169
v -0.714787 -0.112461 1.70181
v -0.714787 0.203589 -1.47189
v -0.714787 0.331412 -1.11081
v -0.714787 0.423201 -0.743836
v -0.714787 0.478471 -0.372908
v -0.714787 0.496926 0
v -0.714787 0.478471 0.372908
v -0.714787 0.423201 0.743836
v -0.714787 0.331412 1.11081
v -0.714787 0.203589 1.47189
v -0.714787 0.162701 -1.04207
v -0.714787 0.0418306 -1.38073
v -0.714787 0.249503 -0.697835
v -0.714787 0.30177 -0.349855
v -0.714787 0.319224 -2.53475e-016
v -0.714787 0.30177 0.349855
v -0.714787 0.249503 0.697835
v -0.714787 0.162701 1.04207
v -0.714787 0.0418306 1.38073
v -0.804291 0.452388 -0.535212
v 0.804291 0.452388 -0.535212
v 0.804291 0.478091 -0.299736
v -0.804291 0.478091 -0.299736
v -0.804291 0.501452 -0.543749
v 0.804291 0.501452 -0.543749
v 0.804291 0.527841 -0.301984
v -0.804291 0.527841 -0.301984
v -0.890891 1.41027 -0.549942
v -0.890894 0.278272 -0.528892
v -0.890887 0.300472 -0.38237
v -0.890884 1.41182 -0.403269
v -0.800448 1.41025 -0.551899
v -0.800451 0.278251 -0.530849
v -0.800443 0.300492 -0.380411
v -0.80044 1.41184 -0.401309
v -0.890934 1.42221 0.374005
v -0.89094 0.302499 0.397154
v -0.890805 0.276847 0.544046
v -0.890799 1.42333 0.52069
v -0.800492 1.4222 0.37211
v -0.800498 0.302486 0.395259
v -0.80036 0.276864 0.546069
v -0.800354 1.42335 0.522713
v -0.890842 1.26597 1.29838
v -0.890842 0.0699367 1.32531
v -0.890866 -5.64691e-005 1.47315
v -0.890866 1.19368 1.44592
v -0.800398 1.26597 1.29641
v -0.800398 0.0699313 1.32334
v -0.800423 -5.2428e-005 1.4751
v -0.800423 1.19368 1.44786
v 0.78825 1.1569 -1.47105
v 0.788251 0.0103751 -1.45765
v 0.788287 0.0728473 -1.31096
v 0.788287 1.23238 -1.32437
v 0.878693 1.15686 -1.47299
v 0.878694 0.0103374 -1.45959
v 0.878731 0.0728845 -1.30899
v 0.878731 1.23241 -1.32239
v 0.788318 1.41026 -0.549925
v 0.788314 0.278263 -0.528935
v 0.788254 0.300473 -0.382412
v 0.788258 1.41182 -0.403252
v 0.878762 1.41024 -0.551916
v 0.878758 0.278242 -0.530926
v 0.878697 0.300493 -0.380486
v 0.878701 1.41184 -0.401326
v 0.78831 1.42222 0.374471
v 0.788307 0.302507 0.39761
v 0.788297 0.276856 0.544501
v 0.7883 1.42334 0.521156
v 0.878754 1.42221 0.372504
v 0.878751 0.302491 0.395643
v 0.87874 0.276871 0.546452
v 0.878743 1.42336 0.523107
v 0.788323 1.26619 1.29795
v 0.788321 0.0702237 1.34064
v 0.788319 -0.000274568 1.4888
v 0.788321 1.19338 1.44574
v 0.878767 1.26619 1.29599
v 0.878764 0.0702258 1.33867
v 0.878762 -0.000277227 1.49076
v 0.878764 1.19337 1.4477
v -0.887017 0.85072 1.32164
v -0.887042 0.76901 1.45858
v -0.796574 0.850715 1.31967
v -0.796599 0.769014 1.46052
v 0.784497 0.519661 1.32639
v 0.784494 0.429932 1.47442
v 0.87494 0.519663 1.32443
v 0.874938 0.42993 1.47638
v 0.784485 1.04089 0.379272
v 0.784474 1.03289 0.526028
v 0.874928 1.04087 0.377306
v 0.874917 1.03291 0.527978
v -0.883298 0.888854 0.39261
v -0.883163 0.877219 0.519504
v -0.792856 0.888841 0.390716
v -0.792718 0.877235 0.521527
v -0.883242 1.0993 -0.544232
v -0.883234 1.10811 -0.40372
v -0.792798 1.09928 -0.54619
v -0.792791 1.10813 -0.401761
v 0.795903 0.80748 -0.385849
v 0.795963 0.791475 -0.527851
v 0.886408 0.791453 -0.529842
v 0.886346 0.8075 -0.383923
v 0.784427 0.536131 -1.4531
v 0.784464 0.625996 -1.311
v 0.87487 0.536094 -1.45504
v 0.874907 0.626033 -1.30903
v -0.894737 0.703826 -1.4571
v -0.894723 0.785833 -1.315
v -0.804294 0.703789 -1.45905
v -0.80428 0.78587 -1.31304
v 0.748065 0.956232 -1.95895
v 0.777129 0.929782 -1.94568
v 0.777135 0.926178 1.94568
v 0.748065 0.952048 1.95909
v 0.777135 1.02954 -1.99659
v 0.748065 1.00378 -1.98332
v 0.748065 0.998428 1.98318
v 0.777134 1.02437 1.99659
v 0.777134 1.18912 -1.6338
v 0.748065 1.16411 -1.61935
v 0.777133 1.32913 -1.233
v 0.748065 1.30255 -1.22196
v 0.777134 1.43424 -0.825658
v 0.748065 1.4059 -0.818309
v 0.777135 1.50068 -0.413928
v 0.748065 1.47182 -0.410284
v 0.777134 1.51956 0
v 0.748065 1.49028 -7.47632e-017
v 0.777134 1.49668 0.413928
v 0.748065 1.46763 0.410377
v 0.777135 1.43509 0.825658
v 0.748065 1.40699 0.818472
v 0.777133 1.33313 1.233
v 0.748065 1.3064 1.22244
v 0.748065 1.16176 1.61898
v 0.777129 1.18733 1.6338
v 0.777135 1.09368 1.57859
v 0.748065 1.11858 1.5934
v 0.748065 1.25392 1.20197
v 0.777133 1.22649 1.1914
v 0.748065 1.35425 0.80502
v 0.777134 1.32591 0.797834
v 0.748065 1.41207 0.40354
v 0.777134 1.38341 0.399989
v 0.748065 1.43574 -2.15035e-016
v 0.777135 1.40671 -2.89798e-016
v 0.748065 1.4192 -0.403633
v 0.777135 1.39033 -0.399989
v 0.748065 1.35566 -0.805183
v 0.777127 1.32687 -0.797834
v 0.748065 1.25499 -1.20244
v 0.777133 1.2278 -1.1914
v 0.748065 1.11817 -1.59304
v 0.777133 1.09323 -1.57859
v 0.918039 0.952975 -1.95866
v 0.888975 0.927543 -1.94568
v 0.918039 1.003 -1.98361
v 0.88897 1.02912 -1.99659
v 0.918039 0.999205 1.98332
v 0.88897 1.02493 1.99659
v 0.918039 0.951686 1.95895
v 0.88897 0.925893 1.94568
v 0.918039 1.16304 -1.61901
v 0.88897 1.18828 -1.6338
v 0.888971 1.32793 -1.233
v 0.918039 1.30072 -1.22196
v 0.88897 1.43506 -0.825658
v 0.918039 1.40707 -0.818626
v 0.888969 1.50074 -0.413928
v 0.918039 1.47192 -0.410292
v 0.88897 1.52034 0
v 0.918039 1.49148 -7.41453e-017
v 0.88897 1.49743 0.413928
v 0.918039 1.46877 0.410378
v 0.88897 1.4348 0.825658
v 0.918039 1.40655 0.818509
v 0.888972 1.33179 1.233
v 0.918039 1.30436 1.22244
v 0.888975 1.18948 1.6338
v 0.918039 1.16486 1.61928
v 0.918039 1.25324 -1.20245
v 0.888971 1.22665 -1.1914
v 0.888971 1.09433 -1.57859
v 0.918039 1.11964 -1.59338
v 0.918039 1.35187 -0.804866
v 0.888977 1.32433 -0.797834
v 0.918039 1.41905 -0.403625
v 0.888969 1.39023 -0.399989
v 0.918039 1.436 -2.15653e-016
v 0.888969 1.40688 -2.89798e-016
v 0.918039 1.41319 0.403539
v 0.88897 1.38414 0.399989
v 0.918039 1.35323 0.804983
v 0.88897 1.32523 0.797834
v 0.918039 1.25191 1.20197
v 0.888971 1.22517 1.1914
v 0.918039 1.11944 1.5931
v 0.88897 1.09413 1.57859
v -0.93111 0.951026 -1.959
v -0.902042 0.925521 -1.94568
v -0.902041 0.924339 1.94568
v -0.93111 0.950276 1.95844
v -0.902041 1.02416 -1.99659
v -0.93111 0.998159 -1.98327
v -0.93111 1.00224 1.98383
v -0.902042 1.02864 1.99659
v -0.90204 1.19496 -1.6338
v -0.93111 1.17006 -1.6188
v -0.90204 1.3406 -1.233
v -0.93111 1.31367 -1.22197
v -0.90204 1.43798 -0.825658
v -0.93111 1.40972 -0.818452
v -0.90204 1.49727 -0.413928
v -0.93111 1.46849 -0.41038
v -0.902049 1.51506 0
v -0.93111 1.48526 -7.26553e-017
v -0.902053 1.4932 0.413928
v -0.93111 1.46351 0.410295
v -0.90204 1.43953 0.825658
v -0.93111 1.41144 0.818557
v -0.902045 1.33869 1.233
v -0.93111 1.31138 1.22177
v -0.93111 1.1714 1.61918
v -0.902046 1.19711 1.6338
v -0.90204 1.10159 1.57859
v -0.93111 1.12674 1.59321
v -0.93111 1.26573 1.20264
v -0.90204 1.23883 1.1914
v -0.93111 1.35736 0.804935
v -0.902043 1.32954 0.797834
v -0.93111 1.41053 0.403622
v -0.902042 1.382 0.399989
v -0.93111 1.42745 -2.17143e-016
v -0.902053 1.39926 -2.89798e-016
v -0.93111 1.41285 -0.403537
v -0.90204 1.38408 -0.399989
v -0.93111 1.3573 -0.80504
v -0.90204 1.32905 -0.797834
v -0.93111 1.2661 -1.20244
v -0.902041 1.23894 -1.1914
v -0.93111 1.12818 -1.59358
v -0.902047 1.10264 -1.57859
v -0.761136 0.952942 -1.95911
v -0.790204 0.926821 -1.94568
v -0.761136 0.999127 -1.98316
v -0.790205 1.02476 -1.99659
v -0.761136 1.00386 1.98388
v -0.790204 1.02973 1.99659
v -0.761136 0.951375 1.95839
v -0.790205 0.925043 1.94568
v -0.761136 1.16977 -1.61923
v -0.790206 1.19493 -1.6338
v -0.790206 1.34075 -1.233
v -0.761136 1.31382 -1.22213
v -0.790205 1.43836 -0.825658
v -0.761136 1.41028 -0.818517
v -0.790205 1.49702 -0.413928
v -0.761136 1.4681 -0.410353
v -0.790196 1.51788 0
v -0.761136 1.48954 -7.31977e-017
v -0.790193 1.49647 0.413928
v -0.761136 1.46847 0.410394
v -0.790205 1.43915 0.825658
v -0.761136 1.41091 0.818389
v -0.790201 1.34061 1.233
v -0.761136 1.31417 1.22209
v -0.7902 1.19937 1.6338
v -0.761136 1.1746 1.61958
v -0.761136 1.2646 -1.20228
v -0.790204 1.23791 -1.1914
v -0.790199 1.10022 -1.57859
v -0.761136 1.12474 -1.59316
v -0.761136 1.35683 -0.804975
v -0.790205 1.32873 -0.797834
v -0.761136 1.41333 -0.403564
v -0.790205 1.3844 -0.399989
v -0.761136 1.43259 -2.166e-016
v -0.790192 1.40264 -2.89798e-016
v -0.761136 1.41238 0.403523
v -0.790204 1.38321 0.399989
v -0.761136 1.35945 0.805103
v -0.790203 1.33094 0.797834
v -0.761136 1.26532 1.20231
v -0.790205 1.23847 1.1914
v -0.761136 1.12683 1.5928
v -0.790206 1.10149 1.57859
vn 0 -0.906425 -0.422368
vn 0 0.36395 -0.931418
vn 1 -6.24392e-007 0
vn 0 -0.4791 0.877761
vn -1 4.68293e-007 0
vn 0 0.906424 0.422368
vn 0 -0.933064 -0.359712
vn 0 0.29973 -0.954024
vn 1 -5.46356e-007 0
vn 0 -0.418264 0.908326
vn -1 -9.3661e-007 0
vn 0 0.933063 0.359712
vn 0.00257772 -0.955377 -0.295377
vn 0.00848406 0.23412 -0.972171
vn 0.999962 3.12211e-007 0.00872667
vn -0.00815655 -0.355487 0.934646
vn -0.999962 -6.24424e-007 -0.00872662
vn -0.00257775 0.955377 0.295377
vn 0 -0.973263 -0.229695
vn 0 0.167425 -0.985885
vn 1 -1.05374e-006 0
vn 0 -0.291063 0.956704
vn -1 -2.34164e-007 0
vn 0 0.973263 0.229695
vn 0 -0.986636 -0.162938
vn 0 0.0999556 -0.994992
vn 1 1.40502e-006 0
vn 0 -0.225289 0.974292
vn -1 -4.68341e-007 0
vn 0 0.986636 0.162938
vn 0.000832724 -0.995437 -0.0954212
vn 0.00872205 0.0320203 -0.999449
vn 0.999962 -1.10258e-006 0.00872628
vn -0.00861629 -0.158474 0.987326
vn -0.999962 8.58646e-007 -0.00872661
vn -0.000832735 0.995437 0.0954218
vn 0 -0.999623 -0.0274695
vn 0 -0.0360622 -0.99935
vn 1 -1.71734e-006 0
vn 0 -0.0909178 0.995858
vn -1 3.90304e-007 0
vn 0 0.999623 0.0274697
vn 0 -0.999175 0.0406139
vn 0 -0.103978 -0.99458
vn 1 -1.3661e-006 0
vn 0 -0.022946 0.999737
vn -1 -1.24901e-006 0
vn 0 0.999175 -0.0406131
vn -2.10432e-005 -0.921794 0.387681
vn 0.00153499 -0.984408 0.175893
vn -0.00847568 -0.238053 -0.971215
vn 0.999962 -9.36802e-007 -0.00872648
vn 0.00867067 0.113005 0.993557
vn -0.999962 -5.07434e-007 0.00872648
vn -0.00153499 0.984408 -0.175892
vn 0 -0.970158 0.242476
vn 0 -0.303584 -0.952805
vn 1 2.34207e-007 0
vn 0 0.18035 0.983602
vn -1 1.56138e-007 0
vn 0 0.970158 -0.242475
vn 0 -0.95141 0.307927
vn 0 -0.367715 -0.929939
vn 1 -3.12283e-007 0
vn 0 0.246866 0.96905
vn -1 -6.24566e-007 0
vn 0 0.95141 -0.307926
vn 0 -0.928252 0.371952
vn 0 -0.430143 -0.902761
vn 1 -3.12292e-007 0
vn 0 0.312231 0.950006
vn -1 -6.24585e-007 0
vn 0 0.928252 -0.371951
vn 0 -0.900791 0.434252
vn 0 -0.490566 -0.871404
vn 1 7.80747e-007 0
vn 0 0.376155 0.926557
vn -1 -6.24598e-007 0
vn 0 0.900791 -0.434252
vn -1 1.74605e-008 0
vn -1 -1.59337e-008 0
vn -1 2.22668e-007 0
vn -1 2.23014e-007 0
vn -1 1.17506e-007 0
vn -1 1.08639e-007 0
vn -1 0 0
vn -1 0 0
vn -1 2.35011e-007 0
vn -1 2.17279e-007 0
vn -1 3.28565e-007 0
vn -1 3.42308e-007 0
vn -1 4.25978e-008 0
vn -1 6.77053e-008 0
vn -1 -2.16706e-007 0
vn -1 -1.08353e-007 0
vn 0 -0.60142 -0.798933
vn 0 -0.60142 0.798933
vn 0 0.924559 -0.381039
vn 0 0.957393 -0.288789
vn 0 0.980714 -0.195449
vn 0 0.995124 -0.0986316
vn 0 1 0
vn 0 0.995124 0.0986316
vn 0 0.980714 0.195449
vn 0 0.957393 0.288789
vn 0 0.924559 0.381039
vn 0 -0.956739 0.290949
vn 0 -0.922943 0.384937
vn 0 -0.98041 0.196968
vn 0 -0.995046 0.0994162
vn 0 -1 0
vn 0 -0.995046 -0.0994162
vn 0 -0.98041 -0.196968
vn 0 -0.956739 -0.290949
vn 0 -0.922943 -0.384937
vn 0 -0.901336 -0.43312
vn 0 -0.901336 0.43312
vn 0 0.903988 0.427558
vn 0 0.903988 -0.427558
vn 1 3.98661e-007 0
vn 1 5.41765e-007 0
vn 1 4.19069e-007 0
vn 1 7.00028e-008 0
vn 1 9.30173e-008 0
vn 1 -2.45104e-008 0
vn 1 -3.12002e-008 0
vn 1 2.81935e-008 0
vn 1 2.93164e-008 0
vn 1 -2.89932e-008 0
vn 1 2.68523e-008 0
vn 1 3.02312e-008 0
vn 1 1.41098e-007 0
vn 1 1.43235e-007 0
vn 1 1.41331e-007 0
vn 1 1.37808e-007 0
vn 1 1.59464e-007 0
vn 1 1.67628e-007 0
vn 1 2.16706e-007 0
vn -1 -2.00979e-007 0
vn -1 -2.34126e-007 0
vn -1 -2.11792e-007 0
vn -1 -2.38588e-007 0
vn -1 -2.35011e-007 0
vn -1 -2.17279e-007 0
vn -1 2.33545e-007 0
vn -1 2.0744e-007 0
vn -1 8.51955e-008 0
vn -1 1.35411e-007 0
vn -1 -4.33412e-007 0
vn 0 -0.60142 -0.798933
vn 0 -0.60142 0.798933
vn 0 0.924559 -0.381039
vn 0 0.957393 -0.288789
vn 0 0.980714 -0.195449
vn 0 0.995124 -0.0986316
vn 0 0.995124 0.0986315
vn 0 0.980714 0.195449
vn 0 0.957393 0.288789
vn 0 0.924559 0.381039
vn 0 -0.956739 0.290949
vn 0 -0.922943 0.384937
vn 0 -0.98041 0.196968
vn 0 -0.995046 0.0994162
vn 0 -0.995046 -0.0994162
vn 0 -0.98041 -0.196968
vn 0 -0.956739 -0.290949
vn 0 -0.922943 -0.384937
vn 0 -0.901336 -0.43312
vn 0 -0.901336 0.43312
vn 0 0.903988 0.427558
vn 0 0.903988 -0.427558
vn 1 -5.8975e-008 0
vn 1 0 0
vn 1 -5.05646e-008 0
vn 1 -1.11507e-007 0
vn 1 -1.11334e-007 0
vn 1 -1.43748e-007 0
vn 1 -1.41411e-007 0
vn 1 -8.45805e-008 0
vn 1 -8.79491e-008 0
vn 1 8.69796e-008 0
vn 1 8.69796e-008 0
vn 1 3.22171e-008 0
vn 1 2.6572e-008 0
vn 1 -5.29889e-009 0
vn 1 3.64754e-009 0
vn 1 -4.40728e-008 0
vn 1 -6.38243e-008 0
vn 1 -1.1795e-007 0
vn 1 -1.01129e-007 0
vn 0 -0.994096 0.108508
vn 0 -0.171412 -0.985199
vn 1 2.34194e-007 0
vn 0 0.0451359 0.998981
vn -1 -3.6105e-007 0
vn 0 0.994096 -0.108507
vn -3.16455e-006 -0.988987 0.148005
vn 0.000135426 -0.98549 -0.169735
vn -7.6646e-005 -0.905992 -0.423294
vn -6.8953e-005 -0.921809 0.387645
vn 4.53692e-005 -0.988977 0.148067
vn -1.82907e-005 -0.985492 -0.169725
vn -2.05556e-005 -0.905162 -0.425067
vn -0.999997 0.00209744 0.000928809
vn -0.999943 -0.00932937 -0.00522363
vn -0.999995 -0.00258901 -0.00159448
vn -0.999985 0.00496412 0.00247229
vn -0.0218174 -0.0225286 -0.999508
vn -0.0217905 -0.0561136 -0.998187
vn -0.0218174 -0.0224827 -0.999509
vn -0.0218216 -0.00459324 -0.999751
vn -0.0214876 0.0243127 0.999473
vn -0.021485 0.0295894 0.999331
vn -0.0214876 0.0243295 0.999473
vn -0.0214897 0.0190522 0.999587
vn 0.999996 0.00252493 0.00152237
vn 0.999944 0.00932344 0.00508452
vn 0.999997 -0.0020552 -0.000877444
vn 0.999985 -0.00496337 -0.00240122
vn -0.999995 -0.00267908 -0.00144636
vn -0.999983 0.00517514 0.00282698
vn -0.999997 0.00219205 0.00120393
vn -0.999949 -0.00885089 -0.00480434
vn -0.0216908 -0.0349018 -0.999155
vn -0.0216874 -0.0379458 -0.999044
vn -0.0216908 -0.0348982 -0.999155
vn -0.021694 -0.0318538 -0.999257
vn -0.0216074 0.035422 0.999139
vn -0.0216062 0.037636 0.999058
vn -0.0216074 0.0354297 0.999139
vn -0.0216085 0.0332155 0.999215
vn 0.999997 -0.00215129 -0.00115088
vn 0.999983 -0.00517239 -0.00275208
vn 0.999996 0.00261915 0.00137749
vn 0.99995 0.00884694 0.00467827
vn -1 -0.000309554 -0.000396751
vn -0.999951 0.00991535 0.000160894
vn -1 0.000319515 -0.000362444
vn -0.999987 -0.00513248 -0.000659769
vn -0.0217367 -0.0186624 -0.99959
vn -0.0217377 -0.0123689 -0.999687
vn -0.0217367 -0.018641 -0.99959
vn -0.0217349 -0.0249336 -0.999453
vn -0.0215648 0.0184907 0.999596
vn -0.0215657 0.012684 0.999687
vn -0.0215648 0.0185065 0.999596
vn -0.0215632 0.0243125 0.999472
vn 1 -0.000312363 0.000355304
vn 0.999951 -0.00991508 -0.000152386
vn 1 0.00030279 0.000387826
vn 0.999987 0.00513203 0.000643131
vn -0.999998 0.000967939 0.001725
vn -0.9999 -0.0141391 0.000439197
vn -0.999998 -0.00093399 0.00156314
vn -0.999912 0.0129457 0.00274419
vn -0.0209414 -0.0206682 -0.999567
vn -0.0209348 -0.0351543 -0.999163
vn -0.0209414 -0.0206623 -0.999567
vn -0.0209436 -0.0074742 -0.999753
vn -0.0223598 0.0203746 0.999542
vn -0.0223601 -0.002484 0.999747
vn -0.0223598 0.0203502 0.999543
vn -0.0223494 0.0411173 0.998904
vn 0.999998 0.000908754 -0.00154718
vn 0.9999 0.0141386 -0.000455172
vn 0.999998 -0.000942822 -0.00169999
vn 0.999913 -0.0129442 -0.00269031
vn -1 -0.00043704 -0.000414126
vn -0.99969 -0.0248724 0.000948188
vn -1 0.000377421 -0.000459529
vn -0.999956 0.00937481 -0.000961079
vn -0.0216379 -0.0186815 -0.999591
vn -0.0216379 -0.0188853 -0.999588
vn -0.0216379 -0.0186796 -0.999591
vn -0.0216378 -0.0184758 -0.999595
vn -0.0216624 0.0188543 0.999588
vn -0.0216621 -0.00203244 0.999763
vn -0.0216624 0.0187399 0.99959
vn -0.0216601 0.0266245 0.999411
vn 1 -0.00036574 0.000445263
vn 0.99969 0.0248725 -0.000931331
vn 1 0.000424363 0.000402172
vn 0.999956 -0.00937551 0.000936626
vn -0.999999 0.000814982 -0.000986065
vn -0.999885 0.014988 -0.00240219
vn -0.999999 -0.000828113 -0.00082188
vn -0.999922 -0.0124889 0.000343388
vn -0.0220078 -0.0185524 -0.999586
vn -0.0220066 0.00243903 -0.999755
vn -0.0220079 -0.0185182 -0.999586
vn -0.0220016 -0.0359135 -0.999113
vn -0.021293 0.018737 0.999598
vn -0.0212932 0.00709824 0.999748
vn -0.021293 0.0187514 0.999597
vn -0.0212907 0.0285087 0.999367
vn 0.999999 0.000804673 0.000813123
vn 0.999885 -0.0149881 0.00235357
vn 0.999999 -0.000791612 0.000968837
vn 0.999922 0.0124895 -0.000326768
vn -0.999997 0.00227989 -0.00114471
vn -0.999976 0.00614744 -0.00326574
vn -0.999996 -0.00235365 0.0013964
vn -0.999967 -0.00710491 0.00400206
vn -0.0214798 -0.0116942 -0.999701
vn -0.0214788 -0.0287704 -0.999355
vn -0.0214798 -0.0116764 -0.999701
vn -0.021473 0.00849954 -0.999733
vn -0.021825 0.0115574 0.999695
vn -0.021825 0.0221694 0.999516
vn -0.021825 0.0115593 0.999695
vn -0.0218221 -7.81437e-005 0.999762
vn 0.999996 0.00230237 -0.00133927
vn 0.999976 -0.0061497 0.00317815
vn 0.999997 -0.00223279 0.00108466
vn 0.999967 0.00710473 -0.003906
vn -0.999997 0.00231575 -0.00127502
vn -0.999955 0.00838798 -0.00447902
vn -0.999998 -0.00197504 0.000989009
vn -0.999981 -0.00542964 0.00281183
vn -0.021605 -0.0116235 -0.999699
vn -0.0216041 -0.0304511 -0.999303
vn -0.021605 -0.0116494 -0.999699
vn -0.0216015 0.000664106 -0.999767
vn -0.0216984 0.0115195 0.999698
vn -0.0216976 0.0210036 0.999544
vn -0.0216984 0.0115034 0.999698
vn -0.0216979 0.00556466 0.999749
vn 0.999998 0.00193414 -0.000944724
vn 0.999955 -0.00839045 0.00436501
vn 0.999997 -0.00226098 0.00121275
vn 0.999982 0.00542975 -0.00274245
vn 0.707585 -0.70661 -0.00513676
vn 0.707417 -0.703078 -0.0724086
vn 0.707431 -0.703122 -0.0718435
vn 0.707589 -0.706603 -0.00536921
vn -0.705639 -0.653057 -0.274936
vn -0.704298 -0.680806 -0.201165
vn -0.70422 -0.682032 -0.197248
vn -0.705565 -0.654871 -0.270782
vn 0.713368 -0.700789 -0.00095764
vn 0.70959 -0.701605 0.0650638
vn 0.709506 -0.701606 0.0659499
vn 0.713367 -0.70079 -0.00091678
vn -0.708224 0.702298 -0.0720799
vn -0.708735 0.705466 0.00358754
vn -0.708732 0.705469 0.0034288
vn -0.708223 0.702214 -0.072914
vn -0.707487 0.65573 0.263591
vn -0.709627 0.642801 0.288507
vn -0.707764 0.654258 0.266491
vn 0.706537 0.677184 -0.20549
vn 0.707152 0.659189 -0.255747
vn 0.707227 0.657691 -0.25937
vn 0.706548 0.676529 -0.207603
vn -0.708834 0.702399 -0.0647277
vn -0.713624 0.700518 0.00392477
vn -0.71361 0.700533 0.003759
vn -0.708777 0.702367 -0.0656967
vn -0.710902 0.65239 0.262688
vn -0.711125 0.637721 0.295996
vn -0.710972 0.650836 0.266329
vn -0.705561 -0.657412 -0.264563
vn -0.706953 -0.677464 -0.203124
vn -0.707101 -0.677923 -0.201066
vn -0.70549 -0.659254 -0.260132
vn 0.706012 0.678139 0.204143
vn 0.707244 0.69307 0.139498
vn 0.707305 0.692715 0.140947
vn 0.705831 0.67768 0.206282
vn -0.708212 -0.677474 0.198658
vn -0.708735 -0.650402 0.273263
vn -0.708763 -0.65225 0.268745
vn -0.708134 -0.678598 0.195065
vn -0.705619 -0.644761 -0.293913
vn 0.702498 0.699334 0.132016
vn 0.699416 0.711502 0.0676971
vn 0.699478 0.711361 0.0685276
vn 0.702536 0.698924 0.133972
vn -0.711025 -0.688638 0.142202
vn -0.707664 -0.676299 0.204527
vn -0.707965 -0.676774 0.201899
vn -0.71101 -0.688928 0.140868
vn 0.70502 -0.705338 0.0737945
vn 0.705061 -0.705387 0.0729242
vn -0.702726 -0.700264 -0.125722
vn -0.70276 -0.699849 -0.127828
vn 0.704825 -0.697628 0.128596
vn 0.70473 -0.697385 0.13042
vn -0.706609 0.692781 -0.144078
vn -0.706549 0.692553 -0.145462
vn -0.713504 0.697811 0.0630126
vn -0.713426 0.697823 0.0637696
vn 0.705128 0.70533 0.072828
vn 0.705141 0.705254 0.0734349
vn 0.700053 0.714091 6.48041e-005
vn 0.700053 0.714091 6.05564e-005
vn -0.708906 -0.701769 0.0705183
vn -0.708857 -0.701915 0.0695511
vn 0.701183 -0.698276 0.144057
vn 0.701126 -0.698101 0.145182
vn -0.700809 -0.7106 -0.0625633
vn -0.70076 -0.710746 -0.0614438
vn -0.703189 0.680914 -0.20465
vn -0.703005 0.680313 -0.207264
vn -0.7069 0.639834 -0.301504
vn -0.70558 0.655453 -0.269331
vn -0.705789 0.653593 -0.273274
vn 0.707448 0.647192 -0.284008
vn -0.709547 0.692722 0.129151
vn -0.709462 0.692389 0.13138
vn 0.705599 -0.679228 -0.201938
vn 0.706258 -0.653004 -0.273468
vn 0.70605 -0.654734 -0.269847
vn 0.705732 -0.680078 -0.198586
vn -0.704678 0.678763 0.206663
vn -0.704752 0.67792 0.209163
vn 0.701294 -0.683465 0.202639
vn 0.701478 -0.684346 0.198993
vn 0.704975 0.709227 0.00283983
vn 0.704977 0.709225 0.00271197
vn 0.704475 0.706478 -0.0678558
vn 0.704517 0.706362 -0.0686202
vn -0.706051 -0.708136 -0.00604692
vn -0.706046 -0.708138 -0.0063232
vn -0.700053 -0.714089 -0.00198621
vn -0.700054 -0.714087 -0.00191744
vn 0.702384 -0.657229 0.273324
vn 0.701999 -0.659283 0.269339
vn -0.702478 0.663196 -0.258255
vn -0.702696 0.661628 -0.26166
vn 0.700396 0.660226 0.271196
vn 0.701815 0.645162 0.302029
vn 0.700164 0.662025 0.267382
vn 0.704626 -0.660422 -0.259508
vn 0.702716 -0.682454 -0.201114
vn 0.702695 -0.681857 -0.203199
vn 0.704898 -0.658433 -0.26379
vn -0.707962 -0.635797 0.307493
vn -0.709057 0.67586 0.201124
vn -0.709172 0.674873 0.204015
vn 0.708758 -0.694063 -0.126252
vn 0.708656 -0.693765 -0.128438
vn 0.701676 -0.683037 0.202759
vn 0.701507 -0.684031 0.199975
vn -0.706164 -0.657809 0.261954
vn -0.707596 -0.645843 0.286697
vn -0.70592 -0.659452 0.258457
vn -0.705479 0.695247 0.13759
vn -0.705388 0.69501 0.139241
vn 0.705535 0.704971 -0.0723589
vn 0.705534 0.704889 -0.0731589
vn 0.705508 0.696359 -0.131691
vn 0.705466 0.69606 -0.133488
vn -0.705379 0.679419 -0.202064
vn -0.705291 0.678481 -0.205495
vn -0.705823 -0.704754 -0.071666
vn -0.705813 -0.704825 -0.0710649
vn 0.704165 -0.659084 0.264121
vn 0.704071 -0.660913 0.259766
vn -0.703645 -0.707891 0.0614372
vn -0.703732 -0.707706 0.0625635
vn 0.704386 -0.646009 0.29413
vn 0.702831 0.659362 0.266965
vn 0.702166 0.648247 0.294515
vn 0.702875 0.660855 0.26313
vn 0.704888 -0.695185 -0.140891
vn 0.70497 -0.695434 -0.139241
vn 0.71205 -0.699244 -0.0635739
vn 0.712102 -0.699263 -0.0627817
vn -0.708265 0.70233 0.071368
vn -0.708246 0.702288 0.0719603
vn 0.707624 -0.636934 -0.305913
vn 0.706012 0.69282 -0.146787
vn 0.705992 0.693091 -0.1456
vn -0.703978 0.650032 -0.286134
vn 0.705474 0.641676 -0.30093
vn 0.70515 0.654473 -0.272815
vn 0.705064 0.655993 -0.269366
vn 0.704758 0.678884 -0.205989
vn 0.70477 0.679836 -0.202786
vn -0.70636 0.695112 -0.133698
vn -0.706373 0.695432 -0.131951
vn -0.70792 -0.692643 -0.138185
vn -0.707853 -0.693051 -0.136473
vn -0.706708 -0.695705 0.128679
vn -0.706683 -0.696075 0.126798
vn 0.700919 0.684412 0.200731
vn 0.700695 0.683665 0.204031
vn 0.706408 -0.643422 -0.294951
vn 0.704763 -0.641841 0.302242
vn -0.705711 -0.637983 -0.308139
vn -1 6.21522e-007 0
vn -1 2.17227e-007 0
vn -1 1.06857e-007 0
vn -1 7.34778e-007 0
vn -1 -1.47935e-007 0
vn -1 -9.12126e-008 0
vn -1 5.09603e-007 0
vn -1 5.04251e-007 0
vn -1 8.38627e-007 0
vn -1 8.34004e-007 0
vn -1 2.74542e-007 0
vn -1 3.08543e-007 0
vn -1 9.75982e-008 0
vn -1 4.17312e-008 0
vn -1 6.83567e-007 0
vn -1 7.11009e-007 0
vn -1 2.14921e-007 0
vn -1 2.58551e-007 0
vn -1 9.11358e-008 0
vn -0.00536467 -0.451213 -0.8924
vn 0.000562501 -0.458672 0.888605
vn 0.00696047 0.931078 -0.364754
vn 0.00516075 0.956687 -0.291073
vn 0.00517465 0.95664 -0.291228
vn 0.00695441 0.931028 -0.364882
vn -0.00110089 0.978601 -0.205764
vn -0.00110623 0.97862 -0.205675
vn -0.00385871 0.994698 -0.102764
vn -0.00385871 0.994699 -0.10276
vn -0.00534982 0.999976 0.00442081
vn -0.00534976 0.999976 0.0044188
vn -0.00448273 0.99473 0.102433
vn -0.00448483 0.994734 0.102391
vn 0.00250012 0.980401 0.196996
vn 0.00250299 0.980395 0.197026
vn 0.00179207 0.956511 0.291691
vn 0.00176874 0.956447 0.291901
vn -0.0071314 0.927386 0.374038
vn -0.00709625 0.927522 0.373701
vn -0.0081027 -0.958626 0.284552
vn -0.0024198 -0.929768 0.368139
vn -0.00240959 -0.929844 0.367945
vn -0.0080733 -0.95858 0.284707
vn -0.0138591 -0.979359 0.201652
vn -0.0138718 -0.97931 0.201892
vn -0.00570907 -0.994845 0.101248
vn -0.00570975 -0.994844 0.101255
vn 0.00218085 -0.999965 -0.00813105
vn 0.00218082 -0.999965 -0.00813027
vn 0.0021424 -0.994853 -0.101305
vn 0.002144 -0.994857 -0.101268
vn -0.00422099 -0.98066 -0.195671
vn -0.00422769 -0.980645 -0.195747
vn -0.006161 -0.958694 -0.284373
vn -0.00615041 -0.958645 -0.284537
vn -0.00151793 -0.92927 -0.369399
vn -0.00152203 -0.929305 -0.369311
vn 0.000668206 -0.909421 -0.415877
vn -0.00464906 -0.911984 0.4102
vn -0.0110595 0.911392 0.411391
vn 0.00515595 0.915541 -0.402191
vn 1 0 0
vn 1 6.28275e-007 0
vn 1 7.12257e-007 0
vn 1 4.04663e-008 0
vn 1 -2.45029e-008 0
vn 1 -6.70888e-007 0
vn 1 -6.52225e-007 0
vn 1 -6.55436e-007 0
vn 1 -6.60026e-007 0
vn 1 -6.48826e-007 0
vn 1 -6.65241e-007 0
vn -1 2.28246e-008 0
vn -1 -2.70769e-007 0
vn -1 -2.58088e-007 0
vn -1 -3.70522e-008 0
vn -1 -1.7048e-007 0
vn -1 -1.70267e-007 0
vn -1 4.71732e-009 0
vn -1 1.29971e-008 0
vn -1 9.23164e-008 0
vn -1 9.28496e-008 0
vn -1 4.01987e-007 0
vn -1 3.85462e-007 0
vn -1 3.55575e-007 0
vn -1 3.90252e-007 0
vn -1 5.05282e-007 0
vn -1 4.37716e-007 0
vn -1 4.45308e-007 0
vn -1 5.37707e-007 0
vn -1 3.3761e-007 0
vn 0.00390052 -0.459873 -0.887976
vn 0.00350761 -0.43792 0.899007
vn -0.00137006 0.923909 -0.38261
vn -0.00137378 0.957565 -0.288213
vn -0.00137421 0.957573 -0.288187
vn -0.00137017 0.923907 -0.382615
vn -0.00141469 0.982233 -0.18766
vn -0.001414 0.98224 -0.187623
vn -0.00599062 0.995516 -0.0943986
vn -0.00598915 0.995515 -0.0944115
vn -0.0193173 0.99981 0.00279456
vn -0.0193166 0.99981 0.00279016
vn -0.0199715 0.99546 0.0930596
vn -0.0199963 0.995473 0.0929188
vn -0.00974918 0.982479 0.186116
vn -0.00974673 0.982471 0.186158
vn -0.0122232 0.958147 0.286017
vn -0.0121891 0.958236 0.28572
vn -0.0156543 0.926154 0.37682
vn -0.015674 0.926331 0.376384
vn -0.0102617 -0.96006 0.279607
vn -0.0096154 -0.92402 0.382224
vn -0.00956246 -0.923807 0.382738
vn -0.010276 -0.960007 0.279786
vn -0.002931 -0.983446 0.181179
vn -0.00293292 -0.983441 0.181207
vn 0.00827274 -0.995912 0.0899484
vn 0.00827545 -0.995913 0.0899326
vn 0.0185256 -0.999826 -0.00204419
vn 0.0185255 -0.999826 -0.00204076
vn 0.0160432 -0.995966 -0.08829
vn 0.0160486 -0.99597 -0.0882386
vn 0.00806517 -0.983812 -0.179023
vn 0.0080752 -0.983837 -0.178885
vn 0.00130937 -0.959683 -0.28108
vn 0.00130569 -0.959665 -0.281141
vn 0.000272149 -0.923223 -0.384265
vn 0.000273043 -0.923214 -0.384286
vn 0.00245986 -0.900905 -0.43401
vn -0.00454014 -0.90242 0.430833
vn -0.0135553 0.906334 0.422344
vn -0.00230389 0.905043 -0.425313
vn 1 6.46038e-007 0
vn 1 6.46322e-007 0
vn 1 -4.41966e-008 0
vn 1 3.86114e-009 0
vn 1 7.82764e-008 0
vn 1 -3.88149e-008 0
vn 1 6.43443e-007 0
vn 1 7.29426e-007 0
vn 1 7.05805e-007 0
vn 1 6.06041e-007 0
vn 1 1.30599e-006 0
vt 0.495326 0.0318455
vt 0.495326 0.346411
vt 0.465098 0.346411
vt 0.465098 0.0318455
vt 0.412121 0.349863
vt 0.412121 0.0318455
vt 0.4147 0.0318455
vt 0.4147 0.349863
vt 0.128416 0.898096
vt 0.128416 0.866356
vt 0.136574 0.863597
vt 0.136574 0.894512
vt 0.46174 0.346411
vt 0.46174 0.0318455
vt 0.136574 0.909968
vt 0.136574 0.941708
vt 0.128416 0.938124
vt 0.128416 0.90721
vt 0.380745 0.349863
vt 0.380745 0.0318455
vt 0.617386 0.634449
vt 0.617386 0.352708
vt 0.639536 0.352708
vt 0.639536 0.634449
vt 0.605038 0.634449
vt 0.605038 0.352708
vt 0.131531 0.744314
vt 0.131531 0.714243
vt 0.140142 0.710954
vt 0.140142 0.740242
vt 0.56884 0.942828
vt 0.56884 0.657996
vt 0.580727 0.657996
vt 0.580727 0.942828
vt 0.140142 0.82639
vt 0.140142 0.85646
vt 0.131531 0.852388
vt 0.131531 0.8231
vt 0.545849 0.657996
vt 0.545849 0.942828
vt 0.644076 0.313407
vt 0.644076 0.0318455
vt 0.664479 0.032197
vt 0.664479 0.313758
vt 0.629959 0.313425
vt 0.629959 0.0318637
vt 0.140877 0.703793
vt 0.140877 0.667341
vt 0.14798 0.668043
vt 0.14798 0.703547
vt 0.582604 0.637354
vt 0.582604 0.352708
vt 0.596325 0.352736
vt 0.596325 0.637382
vt 0.144865 0.779487
vt 0.144865 0.81594
vt 0.137761 0.815694
vt 0.137761 0.78019
vt 0.561425 0.353073
vt 0.561425 0.637719
vt 0.480785 0.972551
vt 0.480785 0.657996
vt 0.49844 0.657996
vt 0.49844 0.972551
vt 0.464855 0.972551
vt 0.464855 0.657996
vt 0.143992 0.901044
vt 0.143992 0.866712
vt 0.151533 0.866883
vt 0.151533 0.900322
vt 0.402186 0.976002
vt 0.402186 0.657996
vt 0.417814 0.657996
vt 0.417814 0.976002
vt 0.151533 0.910325
vt 0.151533 0.944657
vt 0.143992 0.943935
vt 0.143992 0.910496
vt 0.38386 0.657996
vt 0.38386 0.976002
vt 0.455275 0.402551
vt 0.455275 0.615504
vt 0.407939 0.615504
vt 0.407939 0.402551
vt 0.041191 0.761058
vt 0.041191 0.629959
vt 0.0551886 0.629959
vt 0.0551886 0.761058
vt 0.147107 0.771017
vt 0.147107 0.739216
vt 0.155249 0.73899
vt 0.155249 0.769964
vt 0.405666 0.615504
vt 0.405666 0.402551
vt 0.155249 0.826441
vt 0.155249 0.858241
vt 0.147107 0.857189
vt 0.147107 0.826215
vt 0.664008 0.947718
vt 0.633074 0.947718
vt 0.633074 0.657996
vt 0.664008 0.657996
vt 0.811957 0.0318455
vt 0.811957 0.209611
vt 0.767027 0.21004
vt 0.767027 0.0322747
vt 0.0848035 0.74706
vt 0.0848035 0.62996
vt 0.0991424 0.629959
vt 0.0991424 0.747059
vt 0.147107 0.659181
vt 0.147107 0.630347
vt 0.156086 0.629959
vt 0.156086 0.658042
vt 0.10661 0.924622
vt 0.10661 0.807524
vt 0.120949 0.807529
vt 0.120949 0.924627
vt 0.162317 0.789221
vt 0.162317 0.818055
vt 0.153337 0.816916
vt 0.153337 0.788833
vt 0.73899 0.352708
vt 0.78455 0.353121
vt 0.78455 0.533112
vt 0.73899 0.532699
vt 0.732136 0.352708
vt 0.732136 0.638631
vt 0.701608 0.638631
vt 0.701608 0.352708
vt 0.206295 0.43708
vt 0.206295 0.305981
vt 0.220293 0.305981
vt 0.220293 0.43708
vt 0.156453 0.695864
vt 0.156453 0.670541
vt 0.166676 0.670456
vt 0.166676 0.695121
vt 0.184489 0.162945
vt 0.184489 0.0318455
vt 0.198487 0.0318455
vt 0.198487 0.162945
vt 0.166676 0.704808
vt 0.166676 0.730131
vt 0.156453 0.729387
vt 0.156453 0.704723
vt 0.694341 0.548847
vt 0.64865 0.548847
vt 0.64865 0.352708
vt 0.694341 0.352708
vt 0.753942 0.657996
vt 0.753942 0.943915
vt 0.723414 0.943915
vt 0.723414 0.657996
vt 0.184489 0.384122
vt 0.184489 0.253023
vt 0.198487 0.253023
vt 0.198487 0.384122
vt 0.159568 0.914567
vt 0.159568 0.888519
vt 0.169506 0.889398
vt 0.169506 0.91477
vt 0.041191 0.901241
vt 0.041191 0.770142
vt 0.0551886 0.770142
vt 0.0551886 0.901241
vt 0.159568 0.949037
vt 0.159568 0.922988
vt 0.169506 0.922785
vt 0.169506 0.948157
vt 0.716147 0.854131
vt 0.670456 0.854131
vt 0.670456 0.657996
vt 0.716147 0.657996
vt 0.970385 0.773257
vt 0.970388 0.780236
vt 0.951616 0.780232
vt 0.951613 0.773261
vt 0.464071 0.615583
vt 0.464071 0.396339
vt 0.509919 0.396697
vt 0.509919 0.615941
vt 0.46174 0.615564
vt 0.46174 0.396321
vt 0.170693 0.630122
vt 0.170693 0.662442
vt 0.162683 0.661438
vt 0.162683 0.629959
vt 0.0629973 0.885663
vt 0.0629973 0.754566
vt 0.076995 0.75457
vt 0.076995 0.885667
vt 0.178259 0.970844
vt 0.178259 0.938524
vt 0.186269 0.938361
vt 0.186269 0.96984
vt 0.717917 0.233922
vt 0.673572 0.234286
vt 0.673572 0.0322105
vt 0.717917 0.0318455
vt 0.53582 0.0318455
vt 0.53582 0.346377
vt 0.517695 0.346377
vt 0.517695 0.0318455
vt 0.440055 0.349829
vt 0.440055 0.0318455
vt 0.455194 0.0318455
vt 0.455194 0.349829
vt 0.176359 0.807524
vt 0.176359 0.842292
vt 0.168913 0.841652
vt 0.168913 0.807789
vt 0.502237 0.346377
vt 0.502237 0.0318455
vt 0.178259 0.929517
vt 0.178259 0.894749
vt 0.185704 0.895014
vt 0.185704 0.928877
vt 0.421242 0.349829
vt 0.421242 0.0318455
vt 0.620855 0.0318455
vt 0.620855 0.313663
vt 0.600088 0.313663
vt 0.600088 0.0318455
vt 0.539368 0.637619
vt 0.539368 0.352708
vt 0.5527 0.352708
vt 0.5527 0.637619
vt 0.185291 0.851136
vt 0.185291 0.887945
vt 0.178259 0.887804
vt 0.178259 0.851952
vt 0.586347 0.313663
vt 0.586347 0.0318455
vt 0.193835 0.937788
vt 0.193835 0.900979
vt 0.200867 0.901795
vt 0.200867 0.937646
vt 0.517813 0.637619
vt 0.517813 0.352708
vt 0.620906 0.657996
vt 0.620906 0.93981
vt 0.589462 0.93981
vt 0.589462 0.657996
vt 0.62397 0.657996
vt 0.62397 0.93981
vt 0.217923 0.941554
vt 0.217923 0.971962
vt 0.20941 0.967979
vt 0.20941 0.938361
vt 0.544983 0.0318455
vt 0.544983 0.316752
vt 0.542734 0.316752
vt 0.542734 0.0318455
vt 0.200065 0.48911
vt 0.200065 0.458701
vt 0.208578 0.455509
vt 0.208578 0.485127
vt 0.577621 0.316752
vt 0.577621 0.0318455
vt 0.538934 0.657996
vt 0.538934 0.972518
vt 0.515752 0.972518
vt 0.515752 0.657996
vt 0.448419 0.975969
vt 0.448419 0.657996
vt 0.458308 0.657996
vt 0.458308 0.975969
vt 0.192574 0.458158
vt 0.192574 0.490175
vt 0.184489 0.486693
vt 0.184489 0.455509
vt 0.505352 0.972518
vt 0.505352 0.657996
vt 0.184489 0.533788
vt 0.184489 0.501771
vt 0.192574 0.499122
vt 0.192574 0.530306
vt 0.424358 0.975969
vt 0.424358 0.657996
vt 0.329243 0.314985
vt 0.353631 0.302034
vt 0.372902 0.353329
vt 0.347466 0.363094
vt 0.386741 0.405462
vt 0.360553 0.411997
vt 0.395074 0.458156
vt 0.368433 0.461431
vt 0.397856 0.511131
vt 0.371065 0.511131
vt 0.395074 0.564106
vt 0.368433 0.560831
vt 0.386741 0.6168
vt 0.360553 0.610265
vt 0.372902 0.668933
vt 0.347466 0.659168
vt 0.353631 0.720228
vt 0.329243 0.707277
vt 0.305981 0.269371
vt 0.329029 0.253023
vt 0.329029 0.769239
vt 0.305981 0.752891
vt 0.811565 0.230537
vt 0.791948 0.230537
vt 0.791948 0.218756
vt 0.811565 0.218756
vt 0.811565 0.590743
vt 0.791948 0.590743
vt 0.791948 0.578963
vt 0.811565 0.578963
vt 0.819985 0.0665007
vt 0.839233 0.0665007
vt 0.839233 0.102771
vt 0.819985 0.102771
vt 0.839233 0.139633
vt 0.819985 0.139633
vt 0.839233 0.176893
vt 0.819985 0.176893
vt 0.839233 0.214351
vt 0.819985 0.214351
vt 0.839233 0.251809
vt 0.819985 0.251809
vt 0.839233 0.289069
vt 0.819985 0.289069
vt 0.839233 0.325931
vt 0.819985 0.325931
vt 0.839233 0.362201
vt 0.819985 0.362201
vt 0.811565 0.298074
vt 0.791948 0.298074
vt 0.791948 0.263406
vt 0.811565 0.263406
vt 0.811565 0.333313
vt 0.791948 0.333313
vt 0.811565 0.368935
vt 0.791948 0.368935
vt 0.811565 0.40475
vt 0.791948 0.40475
vt 0.811565 0.440564
vt 0.791948 0.440564
vt 0.811565 0.476186
vt 0.791948 0.476186
vt 0.811565 0.511426
vt 0.791948 0.511426
vt 0.811565 0.546094
vt 0.791948 0.546094
vt 0.839233 0.396856
vt 0.819985 0.396856
vt 0.819985 0.0318455
vt 0.839233 0.0318455
vt 0.243757 0.909763
vt 0.267019 0.955377
vt 0.24397 0.971725
vt 0.219369 0.922714
vt 0.225534 0.861654
vt 0.200098 0.871419
vt 0.212447 0.812751
vt 0.186259 0.819286
vt 0.204567 0.763317
vt 0.177926 0.766592
vt 0.201935 0.713617
vt 0.175144 0.713617
vt 0.204567 0.663917
vt 0.177926 0.660642
vt 0.212447 0.614483
vt 0.186259 0.607948
vt 0.225534 0.56558
vt 0.200098 0.555815
vt 0.243757 0.517471
vt 0.219369 0.50452
vt 0.267019 0.471857
vt 0.24397 0.455509
vt 0.235788 0.314984
vt 0.260175 0.302034
vt 0.279447 0.353329
vt 0.254011 0.363094
vt 0.293286 0.405462
vt 0.267098 0.411997
vt 0.301618 0.458156
vt 0.274978 0.46143
vt 0.304401 0.511131
vt 0.277609 0.511131
vt 0.301618 0.564106
vt 0.274978 0.560831
vt 0.293286 0.6168
vt 0.267098 0.610265
vt 0.279447 0.668933
vt 0.254011 0.659168
vt 0.260175 0.720227
vt 0.235788 0.707277
vt 0.212526 0.269371
vt 0.235574 0.253023
vt 0.235574 0.769238
vt 0.212526 0.75289
vt 0.82091 0.610588
vt 0.801294 0.610588
vt 0.801294 0.598807
vt 0.82091 0.598807
vt 0.82091 0.970796
vt 0.801294 0.970796
vt 0.801294 0.959015
vt 0.82091 0.959015
vt 0.82933 0.633463
vt 0.848579 0.633463
vt 0.848579 0.669733
vt 0.82933 0.669733
vt 0.848579 0.706595
vt 0.82933 0.706595
vt 0.848579 0.743855
vt 0.82933 0.743855
vt 0.848579 0.781313
vt 0.82933 0.781313
vt 0.848579 0.818771
vt 0.82933 0.818771
vt 0.848579 0.85603
vt 0.82933 0.85603
vt 0.848579 0.892893
vt 0.82933 0.892893
vt 0.848579 0.929163
vt 0.82933 0.929163
vt 0.82091 0.678125
vt 0.801294 0.678125
vt 0.801294 0.643457
vt 0.82091 0.643457
vt 0.82091 0.713365
vt 0.801294 0.713365
vt 0.82091 0.748987
vt 0.801294 0.748987
vt 0.82091 0.784801
vt 0.801294 0.784801
vt 0.82091 0.820616
vt 0.801294 0.820616
vt 0.82091 0.856238
vt 0.801294 0.856238
vt 0.82091 0.891478
vt 0.801294 0.891478
vt 0.82091 0.926146
vt 0.801294 0.926146
vt 0.848579 0.963818
vt 0.82933 0.963818
vt 0.82933 0.598807
vt 0.848579 0.598807
vt 0.282515 0.314985
vt 0.259253 0.269371
vt 0.282302 0.253023
vt 0.306903 0.302034
vt 0.300739 0.363094
vt 0.326174 0.353329
vt 0.313825 0.411997
vt 0.340013 0.405462
vt 0.321706 0.461431
vt 0.348346 0.458156
vt 0.324337 0.511131
vt 0.351129 0.511131
vt 0.321706 0.560831
vt 0.348346 0.564106
vt 0.313825 0.610265
vt 0.340013 0.6168
vt 0.300739 0.659168
vt 0.326174 0.668933
vt 0.282515 0.707277
vt 0.306903 0.720228
vt 0.259253 0.752891
vt 0.282302 0.769239
vt 0.792408 0.657996
vt 0.792408 0.916158
vt 0.760796 0.916158
vt 0.760796 0.657996
vt 0.0629973 0.748333
vt 0.0629973 0.629959
vt 0.077492 0.629959
vt 0.077492 0.748333
vt 0.171477 0.751834
vt 0.171477 0.781274
vt 0.162683 0.780125
vt 0.162683 0.751451
vt 0.0848035 0.872939
vt 0.0848035 0.754566
vt 0.0992982 0.754566
vt 0.0992982 0.872939
vt 0.162683 0.880959
vt 0.162683 0.85152
vt 0.171477 0.851136
vt 0.171477 0.87981
vt 0.75856 0.293432
vt 0.726529 0.293432
vt 0.726529 0.0318455
vt 0.75856 0.0318455
vt 0.151811 0.953937
vt 0.151811 0.971104
vt 0.134646 0.970879
vt 0.134646 0.954159
vt 0.13316 0.65488
vt 0.13316 0.672111
vt 0.115955 0.671853
vt 0.115955 0.655071
vt 0.942279 0.241987
vt 0.942284 0.234333
vt 0.961344 0.234332
vt 0.961339 0.241987
vt 0.970381 0.595692
vt 0.970389 0.60267
vt 0.951616 0.602666
vt 0.951608 0.595696
vt 0.139346 0.629959
vt 0.139346 0.647131
vt 0.122186 0.646922
vt 0.122186 0.630198
vt 0.139402 0.751451
vt 0.139402 0.768669
vt 0.122186 0.768448
vt 0.122186 0.751677
vt 0.938361 0.0488995
vt 0.938362 0.041191
vt 0.957428 0.0411913
vt 0.957428 0.0488992
vt 0.876058 0.113062
vt 0.876519 0.0520806
vt 0.898287 0.041191
vt 0.896212 0.100859
vt 0.898287 0.212909
vt 0.876467 0.223469
vt 0.960537 0.327376
vt 0.961344 0.372789
vt 0.942284 0.37279
vt 0.941476 0.327376
vt 0.334017 0.818332
vt 0.334847 0.776372
vt 0.354462 0.776373
vt 0.353632 0.818332
vt 0.354462 0.894321
vt 0.334847 0.89432
vt 0.877877 0.722775
vt 0.879929 0.783105
vt 0.857823 0.772105
vt 0.857367 0.710445
vt 0.857771 0.598807
vt 0.879929 0.609474
vt 0.835561 0.525629
vt 0.835765 0.411066
vt 0.85649 0.399436
vt 0.856233 0.511462
vt 0.85649 0.578893
vt 0.835699 0.590178
vt 0.958234 0.0980381
vt 0.957428 0.179659
vt 0.938361 0.179659
vt 0.939168 0.0980384
vt 0.97667 0.441953
vt 0.9775 0.517404
vt 0.957882 0.517404
vt 0.957052 0.441953
vt 0.957882 0.399436
vt 0.9775 0.399436
vt 0.869039 0.111354
vt 0.869293 0.224522
vt 0.848223 0.212783
vt 0.848021 0.0970522
vt 0.848158 0.0318455
vt 0.869293 0.0432363
vt 0.895236 0.452697
vt 0.894749 0.399837
vt 0.917954 0.399436
vt 0.918423 0.451062
vt 0.9179 0.55106
vt 0.894749 0.555084
vt 0.262368 0.0707485
vt 0.263172 0.0318455
vt 0.282169 0.031847
vt 0.281365 0.0707499
vt 0.282169 0.146078
vt 0.263172 0.146077
vt 0.26913 0.852597
vt 0.269943 0.891962
vt 0.250721 0.89196
vt 0.249908 0.852595
vt 0.250721 0.776372
vt 0.269943 0.776374
vt 0.87204 0.336414
vt 0.871577 0.388631
vt 0.848021 0.38824
vt 0.848503 0.334775
vt 0.848021 0.231217
vt 0.871524 0.235272
vt 0.947159 0.480785
vt 0.949106 0.554693
vt 0.925901 0.555094
vt 0.927125 0.482838
vt 0.925954 0.403461
vt 0.949106 0.399436
vt 0.309029 0.0928656
vt 0.310602 0.14837
vt 0.291978 0.148369
vt 0.290405 0.0928645
vt 0.291978 0.0318455
vt 0.310602 0.0318467
vt 0.32642 0.838124
vt 0.324828 0.894294
vt 0.305981 0.894292
vt 0.307573 0.838122
vt 0.305981 0.776372
vt 0.324828 0.776374
vt 0.942015 0.854484
vt 0.943226 0.927566
vt 0.91967 0.927175
vt 0.921595 0.852419
vt 0.91967 0.770142
vt 0.943173 0.774198
vt 0.941959 0.707393
vt 0.94293 0.748431
vt 0.919686 0.748731
vt 0.91967 0.70669
vt 0.91967 0.595692
vt 0.942951 0.598183
vt 0.320025 0.0640307
vt 0.318442 0.0318455
vt 0.337166 0.0318476
vt 0.338749 0.0640328
vt 0.337165 0.149008
vt 0.318442 0.149006
vt 0.234332 0.0635712
vt 0.235901 0.0318455
vt 0.254454 0.0318477
vt 0.252885 0.0635735
vt 0.254454 0.147939
vt 0.235901 0.147937
vt 0.90721 0.0837197
vt 0.907225 0.041191
vt 0.930816 0.0414788
vt 0.929857 0.0829942
vt 0.930837 0.193469
vt 0.90721 0.196005
vt 0.912005 0.303665
vt 0.910325 0.234332
vt 0.933609 0.236827
vt 0.934555 0.305338
vt 0.933573 0.387047
vt 0.910325 0.387342
vt 0.346478 0.0849665
vt 0.348062 0.0318455
vt 0.366788 0.0318476
vt 0.365204 0.0849686
vt 0.366788 0.149017
vt 0.348062 0.149015
vt 0.224848 0.0949748
vt 0.226417 0.147935
vt 0.207864 0.147933
vt 0.206295 0.0949726
vt 0.207864 0.0318455
vt 0.226417 0.0318477
vt 0.879173 0.306178
vt 0.880107 0.236872
vt 0.903739 0.234332
vt 0.902078 0.304471
vt 0.903739 0.389116
vt 0.880144 0.388833
vt 0.888519 0.845603
vt 0.88948 0.760796
vt 0.912082 0.771061
vt 0.910444 0.857889
vt 0.912082 0.931388
vt 0.889503 0.922941
vt 0.277944 0.838956
vt 0.278757 0.776372
vt 0.29798 0.776376
vt 0.297168 0.83896
vt 0.29798 0.891964
vt 0.278757 0.891961
vt 0.969595 0.66438
vt 0.970389 0.732028
vt 0.951616 0.732024
vt 0.950822 0.664376
vt 0.879622 0.866339
vt 0.881241 0.954218
vt 0.858317 0.964625
vt 0.857367 0.87879
vt 0.858339 0.800514
vt 0.881241 0.791948
vt 0.888519 0.648789
vt 0.889147 0.586347
vt 0.911753 0.596612
vt 0.910433 0.659975
vt 0.911753 0.756912
vt 0.889169 0.748465
vt 0.349593 0.202129
vt 0.350406 0.156453
vt 0.369629 0.156456
vt 0.368816 0.202132
vt 0.369629 0.272042
vt 0.350406 0.272039
vt 0.969595 0.859775
vt 0.970388 0.909592
vt 0.951616 0.909588
vt 0.950822 0.859771
vt 0.885842 0.49755
vt 0.887146 0.561681
vt 0.864218 0.572088
vt 0.863597 0.508889
vt 0.86424 0.408003
vt 0.887146 0.399436
vt 0.126921 0.323162
vt 0.126956 0.382329
vt 0.1209 0.382254
vt 0.120879 0.323192
vt 0.0459261 0.0827298
vt 0.0460175 0.143919
vt 0.0399454 0.144373
vt 0.0398609 0.0833335
vt 0.0957349 0.322673
vt 0.0956345 0.381851
vt 0.0895728 0.381973
vt 0.0895956 0.322684
vt 0.162632 0.263724
vt 0.162847 0.323038
vt 0.156911 0.323035
vt 0.15672 0.263632
vt 0.16333 0.563839
vt 0.163618 0.622606
vt 0.157517 0.62286
vt 0.157322 0.564466
vt 0.134383 0.143224
vt 0.13438 0.0815863
vt 0.140386 0.0809259
vt 0.140391 0.142823
vt 0.0535558 0.382208
vt 0.0533892 0.322741
vt 0.0593877 0.322747
vt 0.0594823 0.382331
vt 0.0534355 0.0816905
vt 0.0537587 0.0225222
vt 0.0598818 0.0225
vt 0.0594416 0.081157
vt 0.170604 0.562698
vt 0.171223 0.501794
vt 0.177298 0.501474
vt 0.176629 0.56202
vt 0.135124 0.502539
vt 0.135086 0.442214
vt 0.141022 0.442414
vt 0.141078 0.50285
vt 0.0460093 0.501362
vt 0.0462155 0.56247
vt 0.0400995 0.561838
vt 0.0399382 0.500943
vt 0.17135 0.622128
vt 0.177446 0.621841
vt 0.0814166 0.203429
vt 0.0812239 0.263164
vt 0.075364 0.263037
vt 0.0754841 0.203159
vt 0.170323 0.204285
vt 0.170079 0.143991
vt 0.176168 0.144397
vt 0.176441 0.20448
vt 0.127007 0.263948
vt 0.120954 0.264059
vt 0.0394118 0.204192
vt 0.0454158 0.203925
vt 0.0955512 0.441263
vt 0.0895068 0.441518
vt 0.162762 0.2039
vt 0.156804 0.203701
vt 0.0531514 0.263122
vt 0.0591979 0.26299
vt 0.135093 0.38248
vt 0.140992 0.382557
vt 0.0813113 0.322702
vt 0.0754647 0.322715
vt 0.170335 0.263898
vt 0.176379 0.263989
vt 0.120542 0.204458
vt 0.126517 0.20426
vt 0.0453476 0.263394
vt 0.0393159 0.263542
vt 0.162579 0.143263
vt 0.156641 0.14285
vt 0.0531175 0.622913
vt 0.0533113 0.56356
vt 0.059264 0.564202
vt 0.0592271 0.623071
vt 0.140643 0.0225
vt 0.134519 0.0226784
vt 0.0535092 0.203423
vt 0.0594129 0.203167
vt 0.0889008 0.144013
vt 0.0894577 0.0830932
vt 0.0954905 0.08371
vt 0.0949321 0.144453
vt 0.163049 0.502436
vt 0.157165 0.502777
vt 0.0890921 0.501448
vt 0.0951132 0.501044
vt 0.134978 0.323109
vt 0.140869 0.323077
vt 0.0815308 0.382206
vt 0.0755866 0.382325
vt 0.170771 0.323053
vt 0.176805 0.32305
vt 0.0390298 0.322711
vt 0.0449801 0.32272
vt 0.0890154 0.562562
vt 0.0950034 0.561925
vt 0.16267 0.0816985
vt 0.156718 0.0810315
vt 0.0756462 0.0813993
vt 0.0764491 0.0227528
vt 0.0825134 0.0229279
vt 0.0815233 0.0820123
vt 0.121462 0.562015
vt 0.120969 0.501534
vt 0.126962 0.501886
vt 0.127531 0.562628
vt 0.0452627 0.622601
vt 0.0392041 0.622375
vt 0.0532202 0.143143
vt 0.0592143 0.142718
vt 0.0952174 0.204205
vt 0.0891365 0.203939
vt 0.126881 0.143965
vt 0.120837 0.144399
vt 0.170366 0.0828895
vt 0.171287 0.023544
vt 0.177446 0.023853
vt 0.176391 0.0835845
vt 0.163032 0.442163
vt 0.157112 0.442393
vt 0.13476 0.263756
vt 0.140677 0.263652
vt 0.0814803 0.441999
vt 0.0755533 0.442248
vt 0.0534635 0.502121
vt 0.0593846 0.50254
vt 0.171141 0.382261
vt 0.177163 0.382156
vt 0.127034 0.0827743
vt 0.120928 0.083462
vt 0.0393439 0.38184
vt 0.0453905 0.381961
vt 0.120152 0.0233245
vt 0.12621 0.0230627
vt 0.141056 0.564365
vt 0.140958 0.622825
vt 0.134888 0.622591
vt 0.135149 0.563731
vt 0.127084 0.441821
vt 0.121055 0.441606
vt 0.0894633 0.263392
vt 0.0955477 0.263499
vt 0.163002 0.382449
vt 0.157059 0.382543
vt 0.0972609 0.0233924
vt 0.0911555 0.0232078
vt 0.140697 0.203749
vt 0.13479 0.203924
vt 0.163362 0.0229761
vt 0.157267 0.0226489
vt 0.0758083 0.623015
vt 0.0755056 0.564191
vt 0.0814595 0.56361
vt 0.0818923 0.622798
vt 0.0754756 0.502548
vt 0.0813912 0.502164
vt 0.0594343 0.442244
vt 0.0534888 0.441983
vt 0.170944 0.441729
vt 0.177005 0.441497
vt 0.0456162 0.441482
vt 0.0395614 0.441219
vt 0.0812519 0.143247
vt 0.075369 0.142812
vt 0.120918 0.621924
vt 0.126992 0.622176
vt 0.089614 0.622426
vt 0.0957476 0.622217
vt 0.0451824 0.022646
vt 0.0391014 0.0227434
vt 0.109725 0.96833
vt 0.110017 0.951961
vt 0.114347 0.947707
vt 0.122167 0.947707
vt 0.126407 0.951961
vt 0.126353 0.968328
vt 0.122084 0.972583
vt 0.113903 0.972583
vt 0.11284 0.796994
vt 0.112913 0.780627
vt 0.117186 0.776372
vt 0.124835 0.776372
vt 0.129099 0.780627
vt 0.129136 0.796994
vt 0.124891 0.801248
vt 0.117076 0.801248
vt 0.10423 0.144407
vt 0.104261 0.0834983
vt 0.104003 0.204554
vt 0.104418 0.26411
vt 0.104382 0.323189
vt 0.104407 0.382287
vt 0.10454 0.441596
vt 0.104463 0.501528
vt 0.104885 0.562029
vt 0.104362 0.621762
vt 0.103495 0.0236456
vt 0.116124 0.700424
vt 0.115955 0.684056
vt 0.120166 0.679802
vt 0.127925 0.679802
vt 0.132199 0.684056
vt 0.132277 0.700423
vt 0.128043 0.704678
vt 0.120422 0.704678
vt 0.10661 0.731575
vt 0.106753 0.715208
vt 0.111044 0.710954
vt 0.119508 0.710954
vt 0.123738 0.715208
vt 0.123645 0.731575
vt 0.119367 0.735829
vt 0.110827 0.735829
vt 0.0234962 0.561875
vt 0.0233832 0.501052
vt 0.023028 0.441308
vt 0.0228058 0.381908
vt 0.0225 0.322716
vt 0.0227666 0.263505
vt 0.0228728 0.204146
vt 0.0233601 0.144305
vt 0.0232476 0.0834414
vt 0.0225 0.0229633
vt 0.022627 0.622054
mtllib bridge_wood_2.mtl
usemtl 2
g Default
f 1/1/1 2/2/1 3/3/1 4/4/1
f 5/5/2 6/6/2 2/7/2 1/8/2
f 6/9/3 7/10/3 3/11/3 2/12/3
f 7/13/4 8/14/4 4/4/4 3/3/4
f 8/15/5 5/16/5 1/17/5 4/18/5
f 5/5/6 8/19/6 7/20/6 6/6/6
f 9/21/7 10/22/7 11/23/7 12/24/7
f 13/25/8 14/26/8 10/22/8 9/21/8
f 14/27/9 15/28/9 11/29/9 10/30/9
f 15/31/10 16/32/10 12/33/10 11/34/10
f 16/35/11 13/36/11 9/37/11 12/38/11
f 13/39/12 16/32/12 15/31/12 14/40/12
f 17/41/13 18/42/13 19/43/13 20/44/13
f 21/45/14 22/46/14 18/42/14 17/41/14
f 22/47/15 23/48/15 19/49/15 18/50/15
f 23/51/16 24/52/16 20/53/16 19/54/16
f 24/55/17 21/56/17 17/57/17 20/58/17
f 21/59/18 24/52/18 23/51/18 22/60/18
f 25/61/19 26/62/19 27/63/19 28/64/19
f 29/65/20 30/66/20 26/62/20 25/61/20
f 30/67/21 31/68/21 27/69/21 26/70/21
f 31/71/22 32/72/22 28/73/22 27/74/22
f 32/75/23 29/76/23 25/77/23 28/78/23
f 29/79/24 32/72/24 31/71/24 30/80/24
f 33/81/25 34/82/25 35/83/25 36/84/25
f 37/85/26 38/86/26 34/87/26 33/88/26
f 38/89/27 39/90/27 35/91/27 34/92/27
f 39/93/28 40/94/28 36/84/28 35/83/28
f 40/95/29 37/96/29 33/97/29 36/98/29
f 37/99/30 40/100/30 39/101/30 38/102/30
f 41/103/31 42/104/31 43/105/31 44/106/31
f 45/107/32 46/108/32 42/109/32 41/110/32
f 46/111/33 47/112/33 43/113/33 42/114/33
f 47/115/34 48/116/34 44/117/34 43/118/34
f 48/119/35 45/120/35 41/121/35 44/122/35
f 45/123/36 48/124/36 47/125/36 46/126/36
f 49/127/37 50/128/37 51/129/37 52/130/37
f 53/131/38 54/132/38 50/133/38 49/134/38
f 54/135/39 55/136/39 51/137/39 50/138/39
f 55/139/40 56/140/40 52/141/40 51/142/40
f 56/143/41 53/144/41 49/145/41 52/146/41
f 53/147/42 56/148/42 55/149/42 54/150/42
f 57/151/43 58/152/43 59/153/43 60/154/43
f 61/155/44 62/156/44 58/157/44 57/158/44
f 62/159/45 63/160/45 59/161/45 58/162/45
f 63/163/46 64/164/46 60/165/46 59/166/46
f 64/167/47 61/168/47 57/169/47 60/170/47
f 61/171/48 64/172/48 63/173/48 62/174/48
f 70/175/49 71/176/49 67/177/49 66/178/49
f 73/179/50 74/180/50 75/181/50 76/182/50
f 77/183/51 78/184/51 74/180/51 73/179/51
f 78/185/52 79/186/52 75/187/52 74/188/52
f 79/189/53 80/190/53 76/191/53 75/192/53
f 80/193/54 77/194/54 73/195/54 76/196/54
f 77/197/55 80/198/55 79/199/55 78/200/55
f 81/201/56 82/202/56 83/203/56 84/204/56
f 85/205/57 86/206/57 82/207/57 81/208/57
f 86/209/58 87/210/58 83/211/58 82/212/58
f 87/213/59 88/214/59 84/204/59 83/203/59
f 88/215/60 85/216/60 81/217/60 84/218/60
f 85/205/61 88/219/61 87/220/61 86/206/61
f 89/221/62 90/222/62 91/223/62 92/224/62
f 93/225/63 94/226/63 90/227/63 89/228/63
f 94/229/64 95/230/64 91/231/64 90/232/64
f 95/233/65 96/234/65 92/224/65 91/223/65
f 96/235/66 93/236/66 89/237/66 92/238/66
f 93/225/67 96/239/67 95/240/67 94/226/67
f 97/241/68 98/242/68 99/243/68 100/244/68
f 101/245/69 102/246/69 98/242/69 97/241/69
f 102/247/70 103/248/70 99/249/70 98/250/70
f 103/251/71 104/252/71 100/253/71 99/254/71
f 104/255/72 101/256/72 97/257/72 100/258/72
f 101/259/73 104/252/73 103/251/73 102/260/73
f 105/261/74 106/262/74 107/263/74 108/264/74
f 109/265/75 110/266/75 106/267/75 105/268/75
f 110/269/76 111/270/76 107/271/76 106/272/76
f 111/273/77 112/274/77 108/264/77 107/263/77
f 112/275/78 109/276/78 105/277/78 108/278/78
f 109/265/79 112/279/79 111/280/79 110/266/79
f 126/281/80 125/282/81 124/283/82 127/284/83
f 127/284/83 124/283/82 123/285/84 128/286/85
f 128/286/85 123/285/84 122/287/86 129/288/87
f 129/288/87 122/287/86 121/289/86 130/290/86
f 130/290/86 121/289/86 120/291/86 131/292/87
f 131/292/87 120/291/86 119/293/88 132/294/89
f 132/294/89 119/293/88 118/295/90 133/296/91
f 133/296/91 118/295/90 117/297/92 134/298/93
f 125/282/81 126/281/80 114/299/94 116/300/94
f 117/297/92 115/301/95 113/302/95 134/298/93
f 135/303/96 113/304/96 115/305/96 136/306/96
f 137/307/97 116/308/97 114/309/97 138/310/97
f 139/311/98 117/312/98 118/313/99 140/314/99
f 140/314/99 118/313/99 119/315/100 141/316/100
f 141/316/100 119/315/100 120/317/101 142/318/101
f 142/318/101 120/317/101 121/319/102 143/320/102
f 143/320/102 121/319/102 122/321/103 144/322/103
f 144/322/103 122/321/103 123/323/104 145/324/104
f 145/324/104 123/323/104 124/325/105 146/326/105
f 146/326/105 124/325/105 125/327/106 147/328/106
f 148/329/107 133/330/107 134/331/108 149/332/108
f 150/333/109 132/334/109 133/330/107 148/329/107
f 151/335/110 131/336/110 132/334/109 150/333/109
f 152/337/111 130/338/111 131/336/110 151/335/110
f 153/339/112 129/340/112 130/338/111 152/337/111
f 154/341/113 128/342/113 129/340/112 153/339/112
f 155/343/114 127/344/114 128/342/113 154/341/113
f 156/345/115 126/346/115 127/344/114 155/343/114
f 138/310/116 114/309/116 126/346/115 156/345/115
f 149/332/108 134/331/108 113/304/117 135/303/117
f 147/328/106 125/327/106 116/347/118 137/348/118
f 136/349/119 115/350/119 117/312/98 139/311/98
f 149/351/120 135/352/121 136/353/121 139/354/122
f 148/355/123 149/351/120 139/354/122 140/356/124
f 150/357/125 148/355/123 140/356/124 141/358/126
f 151/359/127 150/357/125 141/358/126 142/360/128
f 152/361/129 151/359/127 142/360/128 143/362/129
f 153/363/130 152/361/129 143/362/129 144/364/131
f 154/365/132 153/363/130 144/364/131 145/366/133
f 155/367/134 154/365/132 145/366/133 146/368/135
f 156/369/136 155/367/134 146/368/135 147/370/137
f 138/371/138 156/369/136 147/370/137 137/372/138
f 170/373/139 169/374/140 168/375/141 171/376/142
f 171/376/142 168/375/141 167/377/143 172/378/144
f 172/378/144 167/377/143 166/379/86 173/380/87
f 173/380/87 166/379/86 165/381/86 174/382/86
f 174/382/86 165/381/86 164/383/86 175/384/87
f 175/384/87 164/383/86 163/385/86 176/386/86
f 176/386/86 163/385/86 162/387/145 177/388/146
f 177/388/146 162/387/145 161/389/147 178/390/148
f 169/374/140 170/373/139 158/391/149 160/392/149
f 161/389/147 159/393/94 157/394/94 178/390/148
f 179/395/150 157/396/150 159/397/150 180/398/150
f 181/399/151 160/400/151 158/401/151 182/402/151
f 183/403/152 161/404/152 162/405/153 184/406/153
f 184/406/153 162/405/153 163/407/154 185/408/154
f 185/408/154 163/407/154 164/409/155 186/410/155
f 186/410/155 164/409/155 165/411/102 187/412/102
f 187/412/102 165/411/102 166/413/156 188/414/156
f 188/414/156 166/413/156 167/415/157 189/416/157
f 189/416/157 167/415/157 168/417/158 190/418/158
f 190/418/158 168/417/158 169/419/159 191/420/159
f 192/421/160 177/422/160 178/423/161 193/424/161
f 194/425/162 176/426/162 177/422/160 192/421/160
f 195/427/163 175/428/163 176/426/162 194/425/162
f 196/429/111 174/430/111 175/428/163 195/427/163
f 197/431/164 173/432/164 174/430/111 196/429/111
f 198/433/165 172/434/165 173/432/164 197/431/164
f 199/435/166 171/436/166 172/434/165 198/433/165
f 200/437/167 170/438/167 171/436/166 199/435/166
f 182/402/168 158/401/168 170/438/167 200/437/167
f 193/424/161 178/423/161 157/396/169 179/395/169
f 191/420/159 169/419/159 160/439/170 181/440/170
f 180/441/171 159/442/171 161/404/152 183/403/152
f 193/443/172 179/444/173 180/445/173 183/446/174
f 192/447/175 193/443/172 183/446/174 184/448/176
f 194/449/177 192/447/175 184/448/176 185/450/178
f 195/451/179 194/449/177 185/450/178 186/452/180
f 196/453/181 195/451/179 186/452/180 187/454/182
f 197/455/183 196/453/181 187/454/182 188/456/184
f 198/457/185 197/455/183 188/456/184 189/458/186
f 199/459/187 198/457/185 189/458/186 190/460/188
f 200/461/189 199/459/187 190/460/188 191/462/190
f 182/463/173 200/461/189 191/462/190 181/464/173
f 201/465/191 202/466/191 203/467/191 204/468/191
f 205/469/192 206/470/192 202/471/192 201/472/192
f 206/473/193 207/474/193 203/475/193 202/476/193
f 207/477/194 208/478/194 204/479/194 203/480/194
f 208/481/195 205/482/195 201/483/195 204/484/195
f 205/485/196 208/486/196 207/487/196 206/488/196
f 214/489/197 215/490/197 211/491/197 210/492/197
f 222/493/198 223/494/198 219/495/198 218/496/198
f 230/497/199 231/498/199 227/499/199 226/500/199
f 238/501/200 239/502/200 235/503/200 234/504/200
f 246/505/201 247/506/201 243/507/201 242/508/201
f 254/509/202 255/510/202 251/511/202 250/512/202
f 262/513/203 263/514/203 259/515/203 258/516/203
f 266/517/204 228/518/205 225/519/205 265/520/206
f 265/520/206 226/521/207 227/522/207 266/517/204
f 265/523/208 225/524/209 229/525/209 267/526/210
f 267/526/210 230/497/211 226/500/211 265/523/208
f 268/527/212 232/528/213 228/529/213 266/530/214
f 266/530/214 227/531/215 231/532/215 268/527/212
f 267/533/216 229/534/217 232/535/217 268/536/218
f 268/536/218 231/537/219 230/538/219 267/533/216
f 270/539/220 260/540/221 257/541/221 269/542/222
f 269/542/222 258/543/223 259/544/223 270/539/220
f 269/545/224 257/546/225 261/547/225 271/548/226
f 271/548/226 262/513/227 258/516/227 269/545/224
f 272/549/228 264/550/229 260/551/229 270/552/230
f 270/552/230 259/553/231 263/554/231 272/549/228
f 271/555/232 261/556/233 264/557/233 272/558/234
f 272/558/234 263/559/235 262/560/235 271/555/232
f 274/561/236 252/562/237 249/563/237 273/564/238
f 273/564/238 250/565/239 251/566/239 274/561/236
f 273/567/240 249/568/241 253/569/241 275/570/242
f 275/570/242 254/571/243 250/572/243 273/567/240
f 276/573/244 256/574/245 252/575/245 274/576/246
f 274/576/246 251/577/247 255/578/247 276/573/244
f 275/579/248 253/580/249 256/581/249 276/582/250
f 276/582/250 255/583/251 254/584/251 275/579/248
f 278/585/252 220/586/253 217/587/253 277/588/254
f 277/588/254 218/589/255 219/590/255 278/585/252
f 277/591/256 217/592/257 221/593/257 279/594/258
f 279/594/258 222/595/259 218/596/259 277/591/256
f 280/597/260 224/598/261 220/599/261 278/600/262
f 278/600/262 219/601/263 223/602/263 280/597/260
f 279/603/264 221/604/265 224/605/265 280/606/266
f 280/606/266 223/607/267 222/608/267 279/603/264
f 282/609/268 212/610/269 209/611/269 281/612/270
f 281/612/270 210/613/271 211/614/271 282/609/268
f 281/615/272 209/616/273 213/617/273 283/618/274
f 283/618/274 214/619/275 210/620/275 281/615/272
f 284/621/276 216/622/277 212/623/277 282/624/278
f 282/624/278 211/625/279 215/626/279 284/621/276
f 283/627/280 213/628/281 216/629/281 284/630/282
f 284/630/282 215/631/283 214/632/283 283/627/280
f 286/633/284 242/634/285 243/635/285 285/636/286
f 285/636/286 244/637/287 241/638/287 286/633/284
f 287/639/288 246/640/289 242/641/289 286/642/290
f 286/642/290 241/643/291 245/644/291 287/639/288
f 285/645/292 243/646/293 247/647/293 288/648/294
f 288/648/294 248/649/295 244/650/295 285/645/292
f 288/651/296 247/652/297 246/653/297 287/654/298
f 287/654/298 245/655/299 248/656/299 288/651/296
f 290/657/300 236/658/301 233/659/301 289/660/302
f 289/660/302 234/661/303 235/662/303 290/657/300
f 289/663/304 233/664/305 237/665/305 291/666/306
f 291/666/306 238/667/307 234/668/307 289/663/304
f 292/669/308 240/670/309 236/671/309 290/672/310
f 290/672/310 235/503/311 239/502/311 292/669/308
f 291/673/312 237/674/313 240/675/313 292/676/314
f 292/676/314 239/677/315 238/678/315 291/673/312
f 294/679/316 68/680/317 65/681/317 293/682/318
f 293/682/318 66/683/319 67/684/319 294/679/316
f 293/685/320 65/686/321 69/687/321 295/688/322
f 295/688/322 70/689/323 66/690/323 293/685/320
f 296/691/324 72/692/325 68/693/325 294/694/326
f 294/694/326 67/177/327 71/176/327 296/691/324
f 295/695/328 69/696/329 72/697/329 296/698/330
f 296/698/330 71/699/331 70/700/331 295/695/328
f 375/701/332 377/702/333 378/703/334 376/704/335
f 412/705/336 413/706/337 414/707/338 411/708/339
f 464/709/340 462/710/341 461/711/342 463/712/343
f 312/713/344 314/714/345 313/715/346 311/716/347
f 321/717/348 303/718/349 304/719/349 322/720/350
f 352/721/351 349/722/352 350/723/353 351/724/354
f 400/725/355 402/726/356 401/727/357 399/728/358
f 409/729/359 391/730/360 392/731/360 410/732/361
f 324/733/362 325/734/363 326/735/364 323/736/365
f 364/737/366 362/738/367 361/739/368 363/740/369
f 425/741/370 427/742/371 428/743/372 426/744/373
f 300/745/374 324/733/362 323/736/365 299/746/374
f 450/747/375 448/748/376 447/749/377 449/750/378
f 335/751/379 337/752/380 338/753/381 336/754/382
f 373/755/383 375/701/332 376/704/335 374/756/384
f 416/757/385 414/707/338 413/706/337 415/758/386
f 462/710/341 460/759/387 459/760/388 461/711/342
f 310/761/389 312/713/344 311/716/347 309/762/390
f 402/726/356 404/763/391 403/764/392 401/727/357
f 362/738/367 360/765/393 359/766/394 361/739/368
f 448/748/376 446/767/395 445/768/396 447/749/377
f 333/769/397 335/751/379 336/754/382 334/770/398
f 374/756/384 372/771/399 371/772/400 373/755/383
f 415/758/386 417/773/401 418/774/402 416/757/385
f 308/775/403 310/761/389 309/762/390 307/776/404
f 390/777/405 394/778/406 393/779/407 389/780/405
f 344/781/408 350/723/353 349/722/352 343/782/408
f 404/763/391 406/783/409 405/784/410 403/764/392
f 469/785/411 471/786/412 472/787/413 470/788/414
f 320/789/415 321/717/348 322/720/350 319/790/416
f 455/791/417 459/760/388 460/759/387 456/792/418
f 360/765/393 358/793/419 357/794/420 359/766/394
f 446/767/395 444/795/421 443/796/422 445/768/396
f 331/797/423 333/769/397 334/770/398 332/798/424
f 420/799/425 418/774/402 417/773/401 419/800/426
f 458/801/427 455/791/417 456/792/418 457/802/428
f 306/803/429 308/775/403 307/776/404 305/804/430
f 453/805/431 434/806/432 433/807/432 454/808/433
f 384/809/434 382/810/435 381/811/436 383/812/437
f 427/742/371 385/813/438 386/814/438 428/743/372
f 406/783/409 408/815/439 407/816/440 405/784/410
f 470/788/414 468/817/441 467/818/442 469/785/411
f 367/819/443 371/772/400 372/771/399 368/820/444
f 339/821/445 297/822/446 298/823/446 340/824/447
f 318/825/448 320/789/415 319/790/416 317/826/449
f 358/793/419 356/827/450 355/828/451 357/794/420
f 444/795/421 442/829/452 441/830/453 443/796/422
f 394/778/406 396/831/454 395/832/455 393/779/407
f 329/833/456 331/797/423 332/798/424 330/834/457
f 370/835/458 367/819/443 368/820/444 369/836/459
f 422/837/460 420/799/425 419/800/426 421/838/461
f 369/836/459 342/839/462 341/840/462 370/835/458
f 365/841/463 346/842/464 345/843/464 366/844/465
f 379/845/466 381/811/436 382/810/435 380/846/467
f 408/815/439 409/729/359 410/732/361 407/816/440
f 465/847/468 467/818/442 468/817/441 466/848/469
f 316/849/470 318/825/448 317/826/449 315/850/471
f 436/851/472 472/787/413 471/786/412 435/852/472
f 353/853/473 355/828/451 356/827/450 354/854/474
f 302/855/475 306/803/429 305/804/430 301/856/475
f 432/857/476 438/858/477 437/859/478 431/860/476
f 439/861/479 441/830/453 442/829/452 440/862/480
f 397/863/481 395/832/455 396/831/454 398/864/482
f 327/865/483 329/833/456 330/834/457 328/866/484
f 421/838/461 423/867/485 424/868/486 422/837/460
f 454/808/433 452/869/487 451/870/488 453/805/431
f 377/702/333 379/845/466 380/846/467 378/703/334
f 466/848/469 464/709/340 463/712/343 465/847/468
f 348/871/489 384/809/434 383/812/437 347/872/489
f 314/714/345 316/849/470 315/850/471 313/715/346
f 429/873/490 458/801/427 457/802/428 430/874/490
f 354/854/474 352/721/351 351/724/354 353/853/473
f 440/862/480 437/859/478 438/858/477 439/861/479
f 398/864/482 400/725/355 399/728/358 397/863/481
f 325/734/363 327/865/483 328/866/484 326/735/364
f 363/740/369 365/841/463 366/844/465 364/737/366
f 423/867/485 425/741/370 426/744/373 424/868/486
f 452/869/487 450/747/375 449/750/378 451/870/488
f 388/875/491 412/705/336 411/708/339 387/876/491
f 337/752/380 339/821/445 340/824/447 338/753/381
f 321/717/492 320/789/493 325/734/494 324/733/495
f 320/789/493 318/825/496 327/865/497 325/734/494
f 318/825/496 316/849/498 329/833/499 327/865/497
f 316/849/498 314/714/500 331/797/501 329/833/499
f 314/714/500 312/713/502 333/769/503 331/797/501
f 312/713/502 310/761/504 335/751/505 333/769/503
f 310/761/504 308/775/506 337/752/507 335/751/505
f 308/775/506 306/803/508 339/821/509 337/752/507
f 324/733/495 300/745/510 303/718/510 321/717/492
f 302/855/86 297/822/86 339/821/509 306/803/508
f 342/877/511 298/878/511 297/879/511 302/880/511 301/881/511 344/882/511 343/883/511 341/884/511
f 346/885/512 304/886/512 303/887/512 300/888/512 299/889/512 348/890/512 347/891/512 345/892/512
f 305/804/513 307/776/514 351/724/515 350/723/516
f 307/776/514 309/762/517 353/853/518 351/724/515
f 309/762/517 311/716/519 355/828/520 353/853/518
f 311/716/519 313/715/521 357/794/522 355/828/520
f 313/715/521 315/850/523 359/766/524 357/794/522
f 315/850/523 317/826/525 361/739/526 359/766/524
f 317/826/525 319/790/527 363/740/528 361/739/526
f 319/790/527 322/720/529 365/841/530 363/740/528
f 338/893/531 340/894/532 369/836/533 368/820/534
f 336/895/535 338/893/531 368/820/534 372/771/536
f 334/896/537 336/895/535 372/771/536 374/756/538
f 332/897/539 334/896/537 374/756/538 376/704/540
f 330/898/541 332/897/539 376/704/540 378/703/542
f 328/899/543 330/898/541 378/703/542 380/846/544
f 326/900/545 328/899/543 380/846/544 382/810/546
f 323/901/547 326/900/545 382/810/546 384/809/548
f 299/902/549 323/901/547 384/809/548 348/871/549
f 340/894/532 298/903/550 342/839/550 369/836/533
f 322/720/529 304/719/551 346/842/551 365/841/530
f 301/856/552 305/804/513 350/723/516 344/781/552
f 341/840/173 343/782/173 349/722/553 370/835/173
f 370/835/173 349/722/553 352/721/554 367/819/555
f 367/819/555 352/721/554 354/854/556 371/772/557
f 371/772/557 354/854/556 356/827/558 373/755/559
f 373/755/559 356/827/558 358/793/560 375/701/561
f 375/701/561 358/793/560 360/765/562 377/702/563
f 377/702/563 360/765/562 362/738/553 379/845/173
f 379/845/173 362/738/553 364/737/173 381/811/173
f 381/811/173 364/737/173 366/844/173 383/812/173
f 383/812/173 366/844/173 345/843/553 347/872/553
f 409/729/564 408/815/565 413/706/566 412/705/567
f 408/815/565 406/783/568 415/758/569 413/706/566
f 406/783/568 404/763/570 417/773/571 415/758/569
f 404/763/570 402/726/572 419/800/573 417/773/571
f 402/726/572 400/725/574 421/838/575 419/800/573
f 400/725/574 398/864/576 423/867/577 421/838/575
f 398/864/576 396/831/578 425/741/579 423/867/577
f 396/831/578 394/778/580 427/742/581 425/741/579
f 412/705/567 388/875/582 391/730/582 409/729/564
f 390/777/87 385/813/87 427/742/581 394/778/580
f 430/904/583 386/905/583 385/906/583 390/907/583 389/908/583 432/909/583 431/910/583 429/911/583
f 434/912/584 392/913/584 391/914/584 388/915/584 387/916/584 436/917/584 435/918/584 433/919/584
f 393/779/585 395/832/586 439/861/587 438/858/588
f 395/832/586 397/863/589 441/830/590 439/861/587
f 397/863/589 399/728/591 443/796/592 441/830/590
f 399/728/591 401/727/593 445/768/594 443/796/592
f 401/727/593 403/764/595 447/749/596 445/768/594
f 403/764/595 405/784/597 449/750/598 447/749/596
f 405/784/597 407/816/599 451/870/600 449/750/598
f 407/816/599 410/732/601 453/805/602 451/870/600
f 426/744/603 428/743/604 457/920/605 456/921/606
f 424/868/607 426/744/603 456/921/606 460/922/608
f 422/837/609 424/868/607 460/922/608 462/923/610
f 420/799/611 422/837/609 462/923/610 464/924/612
f 418/774/613 420/799/611 464/924/612 466/925/614
f 416/757/615 418/774/613 466/925/614 468/926/616
f 414/707/617 416/757/615 468/926/616 470/927/618
f 411/708/619 414/707/617 470/927/618 472/928/620
f 387/876/621 411/708/619 472/928/620 436/929/621
f 428/743/604 386/814/622 430/930/622 457/920/605
f 410/732/601 392/731/623 434/806/623 453/805/602
f 389/780/624 393/779/585 438/858/588 432/857/624
f 429/873/173 431/860/173 437/859/173 458/801/553
f 458/801/553 437/859/173 440/862/173 455/791/553
f 455/791/553 440/862/173 442/829/173 459/760/173
f 459/760/173 442/829/173 444/795/173 461/711/173
f 461/711/173 444/795/173 446/767/625 463/712/626
f 463/712/626 446/767/625 448/748/627 465/847/628
f 465/847/628 448/748/627 450/747/629 467/818/630
f 467/818/630 450/747/629 452/869/631 469/785/632
f 469/785/632 452/869/631 454/808/633 471/786/634
f 471/786/634 454/808/633 433/807/635 435/852/635
