%YAML 1.1
%TAG !u! tag:unity3d.com,2011:
--- !u!1011 &101100000
AvatarMask:
  m_ObjectHideFlags: 0
  m_PrefabParentObject: {fileID: 0}
  m_PrefabInternal: {fileID: 0}
  m_Name: MaskLowerBody
  m_Mask: 01000000000000000000000001000000010000000000000000000000000000000000000001000000010000000000000000000000
  m_Elements: []
