%YAML 1.1
%TAG !u! tag:unity3d.com,2011:
--- !u!29 &1
SceneSettings:
  m_ObjectHideFlags: 0
  m_PVSData: 
  m_PVSObjectsArray: []
  m_PVSPortalsArray: []
  m_OcclusionBakeSettings:
    smallestOccluder: 5
    smallestHole: 0.25
    backfaceThreshold: 100
--- !u!104 &2
RenderSettings:
  m_ObjectHideFlags: 0
  serializedVersion: 6
  m_Fog: 0
  m_FogColor: {r: 0.5, g: 0.5, b: 0.5, a: 1}
  m_FogMode: 3
  m_FogDensity: 0.01
  m_LinearFogStart: 0
  m_LinearFogEnd: 300
  m_AmbientSkyColor: {r: 0.212, g: 0.227, b: 0.259, a: 1}
  m_AmbientEquatorColor: {r: 0.114, g: 0.125, b: 0.133, a: 1}
  m_AmbientGroundColor: {r: 0.047, g: 0.043, b: 0.035, a: 1}
  m_AmbientIntensity: 1
  m_AmbientMode: 0
  m_SkyboxMaterial: {fileID: 10304, guid: 0000000000000000f000000000000000, type: 0}
  m_HaloStrength: 0.5
  m_FlareStrength: 1
  m_FlareFadeSpeed: 3
  m_HaloTexture: {fileID: 0}
  m_SpotCookie: {fileID: 10001, guid: 0000000000000000e000000000000000, type: 0}
  m_DefaultReflectionMode: 0
  m_DefaultReflectionResolution: 128
  m_ReflectionBounces: 1
  m_ReflectionIntensity: 1
  m_CustomReflection: {fileID: 0}
  m_Sun: {fileID: 0}
--- !u!157 &4
LightmapSettings:
  m_ObjectHideFlags: 0
  serializedVersion: 6
  m_GIWorkflowMode: 0
  m_LightmapsMode: 1
  m_GISettings:
    serializedVersion: 2
    m_BounceScale: 1
    m_IndirectOutputScale: 1
    m_AlbedoBoost: 1
    m_TemporalCoherenceThreshold: 1
    m_EnvironmentLightingMode: 0
    m_EnableBakedLightmaps: 1
    m_EnableRealtimeLightmaps: 1
  m_LightmapEditorSettings:
    serializedVersion: 3
    m_Resolution: 2
    m_BakeResolution: 40
    m_TextureWidth: 1024
    m_TextureHeight: 1024
    m_AOMaxDistance: 1
    m_Padding: 2
    m_CompAOExponent: 0
    m_LightmapParameters: {fileID: 0}
    m_TextureCompression: 1
    m_FinalGather: 0
    m_FinalGatherRayCount: 1024
    m_ReflectionCompression: 2
  m_LightingDataAsset: {fileID: 0}
  m_RuntimeCPUUsage: 25
--- !u!196 &5
NavMeshSettings:
  serializedVersion: 2
  m_ObjectHideFlags: 0
  m_BuildSettings:
    serializedVersion: 2
    agentRadius: 0.5
    agentHeight: 2
    agentSlope: 45
    agentClimb: 0.4
    ledgeDropHeight: 0
    maxJumpAcrossDistance: 0
    accuratePlacement: 0
    minRegionArea: 2
    cellSize: 0.16666667
    manualCellSize: 0
  m_NavMeshData: {fileID: 0}
--- !u!1 &80983479
GameObject:
  m_ObjectHideFlags: 0
  m_PrefabParentObject: {fileID: 189544, guid: f3f92d89d8706c749b0c3fc0b25cc0c5, type: 2}
  m_PrefabInternal: {fileID: 1286491458}
  serializedVersion: 4
  m_Component:
  - 224: {fileID: 80983480}
  - 222: {fileID: 80983482}
  - 114: {fileID: 80983481}
  m_Layer: 5
  m_Name: Text
  m_TagString: Untagged
  m_Icon: {fileID: 0}
  m_NavMeshLayer: 0
  m_StaticEditorFlags: 0
  m_IsActive: 1
--- !u!224 &80983480
RectTransform:
  m_ObjectHideFlags: 0
  m_PrefabParentObject: {fileID: 22489544, guid: f3f92d89d8706c749b0c3fc0b25cc0c5,
    type: 2}
  m_PrefabInternal: {fileID: 1286491458}
  m_GameObject: {fileID: 80983479}
  m_LocalRotation: {x: 0, y: 0, z: 0, w: 1}
  m_LocalPosition: {x: 0, y: 0, z: 0}
  m_LocalScale: {x: 1, y: 1, z: 1}
  m_Children: []
  m_Father: {fileID: 242208115}
  m_RootOrder: 2
  m_AnchorMin: {x: 0.5, y: 0.5}
  m_AnchorMax: {x: 0.5, y: 0.5}
  m_AnchoredPosition: {x: 0, y: -102}
  m_SizeDelta: {x: 160, y: 56}
  m_Pivot: {x: 0.5, y: 0.5}
--- !u!114 &80983481
MonoBehaviour:
  m_ObjectHideFlags: 0
  m_PrefabParentObject: {fileID: 11489578, guid: f3f92d89d8706c749b0c3fc0b25cc0c5,
    type: 2}
  m_PrefabInternal: {fileID: 1286491458}
  m_GameObject: {fileID: 80983479}
  m_Enabled: 1
  m_EditorHideFlags: 0
  m_Script: {fileID: 708705254, guid: f5f67c52d1564df4a8936ccd202a3bd8, type: 3}
  m_Name: 
  m_EditorClassIdentifier: 
  m_Material: {fileID: 0}
  m_Color: {r: 0.36764705, g: 0.36764705, b: 0.36764705, a: 1}
  m_RaycastTarget: 1
  m_OnCullStateChanged:
    m_PersistentCalls:
      m_Calls: []
    m_TypeName: UnityEngine.UI.MaskableGraphic+CullStateChangedEvent, UnityEngine.UI,
      Version=1.0.0.0, Culture=neutral, PublicKeyToken=null
  m_FontData:
    m_Font: {fileID: 12800000, guid: 218956a5c2a6e42d6a60afccf80b002b, type: 3}
    m_FontSize: 38
    m_FontStyle: 0
    m_BestFit: 0
    m_MinSize: 10
    m_MaxSize: 40
    m_Alignment: 4
    m_AlignByGeometry: 0
    m_RichText: 1
    m_HorizontalOverflow: 0
    m_VerticalOverflow: 0
    m_LineSpacing: 1
  m_Text: switch
--- !u!222 &80983482
CanvasRenderer:
  m_ObjectHideFlags: 0
  m_PrefabParentObject: {fileID: 22289542, guid: f3f92d89d8706c749b0c3fc0b25cc0c5,
    type: 2}
  m_PrefabInternal: {fileID: 1286491458}
  m_GameObject: {fileID: 80983479}
--- !u!1 &242208114
GameObject:
  m_ObjectHideFlags: 0
  m_PrefabParentObject: {fileID: 189508, guid: f3f92d89d8706c749b0c3fc0b25cc0c5, type: 2}
  m_PrefabInternal: {fileID: 1286491458}
  serializedVersion: 4
  m_Component:
  - 224: {fileID: 242208115}
  - 222: {fileID: 242208117}
  - 114: {fileID: 242208116}
  m_Layer: 5
  m_Name: InfoBar
  m_TagString: Untagged
  m_Icon: {fileID: 0}
  m_NavMeshLayer: 0
  m_StaticEditorFlags: 0
  m_IsActive: 1
--- !u!224 &242208115
RectTransform:
  m_ObjectHideFlags: 0
  m_PrefabParentObject: {fileID: 22489508, guid: f3f92d89d8706c749b0c3fc0b25cc0c5,
    type: 2}
  m_PrefabInternal: {fileID: 1286491458}
  m_GameObject: {fileID: 242208114}
  m_LocalRotation: {x: 0, y: 0, z: 0, w: 1}
  m_LocalPosition: {x: 0, y: 0, z: 0}
  m_LocalScale: {x: 0.8, y: 0.8, z: 1}
  m_Children:
  - {fileID: 1623153128}
  - {fileID: 567971423}
  - {fileID: 80983480}
  - {fileID: 303007269}
  m_Father: {fileID: 386445062}
  m_RootOrder: 0
  m_AnchorMin: {x: 0.5, y: 0.5}
  m_AnchorMax: {x: 0.5, y: 0.5}
  m_AnchoredPosition: {x: -180, y: 477}
  m_SizeDelta: {x: 136, y: 136}
  m_Pivot: {x: 0.5, y: 0.5}
--- !u!114 &242208116
MonoBehaviour:
  m_ObjectHideFlags: 0
  m_PrefabParentObject: {fileID: 11489538, guid: f3f92d89d8706c749b0c3fc0b25cc0c5,
    type: 2}
  m_PrefabInternal: {fileID: 1286491458}
  m_GameObject: {fileID: 242208114}
  m_Enabled: 1
  m_EditorHideFlags: 0
  m_Script: {fileID: -765806418, guid: f5f67c52d1564df4a8936ccd202a3bd8, type: 3}
  m_Name: 
  m_EditorClassIdentifier: 
  m_Material: {fileID: 0}
  m_Color: {r: 0.9882353, g: 0.7882353, b: 0, a: 1}
  m_RaycastTarget: 1
  m_OnCullStateChanged:
    m_PersistentCalls:
      m_Calls: []
    m_TypeName: UnityEngine.UI.MaskableGraphic+CullStateChangedEvent, UnityEngine.UI,
      Version=1.0.0.0, Culture=neutral, PublicKeyToken=null
  m_Sprite: {fileID: 21300000, guid: 5edfdb1318310614985b8de7ab9b784c, type: 3}
  m_Type: 0
  m_PreserveAspect: 0
  m_FillCenter: 1
  m_FillMethod: 0
  m_FillAmount: 1
  m_FillClockwise: 1
  m_FillOrigin: 1
--- !u!222 &242208117
CanvasRenderer:
  m_ObjectHideFlags: 0
  m_PrefabParentObject: {fileID: 22289508, guid: f3f92d89d8706c749b0c3fc0b25cc0c5,
    type: 2}
  m_PrefabInternal: {fileID: 1286491458}
  m_GameObject: {fileID: 242208114}
--- !u!1 &265495353
GameObject:
  m_ObjectHideFlags: 0
  m_PrefabParentObject: {fileID: 189510, guid: f3f92d89d8706c749b0c3fc0b25cc0c5, type: 2}
  m_PrefabInternal: {fileID: 1286491458}
  serializedVersion: 4
  m_Component:
  - 224: {fileID: 265495354}
  - 222: {fileID: 265495357}
  - 114: {fileID: 265495356}
  - 114: {fileID: 265495355}
  m_Layer: 5
  m_Name: Button
  m_TagString: Untagged
  m_Icon: {fileID: 0}
  m_NavMeshLayer: 0
  m_StaticEditorFlags: 0
  m_IsActive: 1
--- !u!224 &265495354
RectTransform:
  m_ObjectHideFlags: 0
  m_PrefabParentObject: {fileID: 22489510, guid: f3f92d89d8706c749b0c3fc0b25cc0c5,
    type: 2}
  m_PrefabInternal: {fileID: 1286491458}
  m_GameObject: {fileID: 265495353}
  m_LocalRotation: {x: 0, y: 0, z: 0, w: 1}
  m_LocalPosition: {x: 0, y: 0, z: 0}
  m_LocalScale: {x: 1, y: 1, z: 1}
  m_Children: []
  m_Father: {fileID: 386445062}
  m_RootOrder: 2
  m_AnchorMin: {x: 0.5, y: 0.5}
  m_AnchorMax: {x: 0.5, y: 0.5}
  m_AnchoredPosition: {x: -180, y: 266}
  m_SizeDelta: {x: 136, y: 136}
  m_Pivot: {x: 0.5, y: 0.5}
--- !u!114 &265495355
MonoBehaviour:
  m_ObjectHideFlags: 0
  m_PrefabParentObject: {fileID: 11489534, guid: f3f92d89d8706c749b0c3fc0b25cc0c5,
    type: 2}
  m_PrefabInternal: {fileID: 1286491458}
  m_GameObject: {fileID: 265495353}
  m_Enabled: 1
  m_EditorHideFlags: 0
  m_Script: {fileID: 1392445389, guid: f5f67c52d1564df4a8936ccd202a3bd8, type: 3}
  m_Name: 
  m_EditorClassIdentifier: 
  m_Navigation:
    m_Mode: 3
    m_SelectOnUp: {fileID: 0}
    m_SelectOnDown: {fileID: 0}
    m_SelectOnLeft: {fileID: 0}
    m_SelectOnRight: {fileID: 0}
  m_Transition: 1
  m_Colors:
    m_NormalColor: {r: 1, g: 1, b: 1, a: 1}
    m_HighlightedColor: {r: 0.9607843, g: 0.9607843, b: 0.9607843, a: 1}
    m_PressedColor: {r: 0.78431374, g: 0.78431374, b: 0.78431374, a: 1}
    m_DisabledColor: {r: 0.78431374, g: 0.78431374, b: 0.78431374, a: 0.5019608}
    m_ColorMultiplier: 1
    m_FadeDuration: 0.1
  m_SpriteState:
    m_HighlightedSprite: {fileID: 0}
    m_PressedSprite: {fileID: 0}
    m_DisabledSprite: {fileID: 0}
  m_AnimationTriggers:
    m_NormalTrigger: Normal
    m_HighlightedTrigger: Highlighted
    m_PressedTrigger: Pressed
    m_DisabledTrigger: Disabled
  m_Interactable: 1
  m_TargetGraphic: {fileID: 265495356}
  m_OnClick:
    m_PersistentCalls:
      m_Calls: []
    m_TypeName: UnityEngine.UI.Button+ButtonClickedEvent, UnityEngine.UI, Version=1.0.0.0,
      Culture=neutral, PublicKeyToken=null
--- !u!114 &265495356
MonoBehaviour:
  m_ObjectHideFlags: 0
  m_PrefabParentObject: {fileID: 11489540, guid: f3f92d89d8706c749b0c3fc0b25cc0c5,
    type: 2}
  m_PrefabInternal: {fileID: 1286491458}
  m_GameObject: {fileID: 265495353}
  m_Enabled: 1
  m_EditorHideFlags: 0
  m_Script: {fileID: -765806418, guid: f5f67c52d1564df4a8936ccd202a3bd8, type: 3}
  m_Name: 
  m_EditorClassIdentifier: 
  m_Material: {fileID: 0}
  m_Color: {r: 0.12156863, g: 0.84313726, b: 0.5921569, a: 1}
  m_RaycastTarget: 1
  m_OnCullStateChanged:
    m_PersistentCalls:
      m_Calls: []
    m_TypeName: UnityEngine.UI.MaskableGraphic+CullStateChangedEvent, UnityEngine.UI,
      Version=1.0.0.0, Culture=neutral, PublicKeyToken=null
  m_Sprite: {fileID: 21300000, guid: 291502478103f274da140dc9d17c64dc, type: 3}
  m_Type: 0
  m_PreserveAspect: 0
  m_FillCenter: 1
  m_FillMethod: 4
  m_FillAmount: 1
  m_FillClockwise: 1
  m_FillOrigin: 0
--- !u!222 &265495357
CanvasRenderer:
  m_ObjectHideFlags: 0
  m_PrefabParentObject: {fileID: 22289510, guid: f3f92d89d8706c749b0c3fc0b25cc0c5,
    type: 2}
  m_PrefabInternal: {fileID: 1286491458}
  m_GameObject: {fileID: 265495353}
--- !u!1 &303007268
GameObject:
  m_ObjectHideFlags: 0
  m_PrefabParentObject: {fileID: 189516, guid: f3f92d89d8706c749b0c3fc0b25cc0c5, type: 2}
  m_PrefabInternal: {fileID: 1286491458}
  serializedVersion: 4
  m_Component:
  - 224: {fileID: 303007269}
  - 222: {fileID: 303007271}
  - 114: {fileID: 303007270}
  m_Layer: 5
  m_Name: Text
  m_TagString: Untagged
  m_Icon: {fileID: 0}
  m_NavMeshLayer: 0
  m_StaticEditorFlags: 0
  m_IsActive: 1
--- !u!224 &303007269
RectTransform:
  m_ObjectHideFlags: 0
  m_PrefabParentObject: {fileID: 22489516, guid: f3f92d89d8706c749b0c3fc0b25cc0c5,
    type: 2}
  m_PrefabInternal: {fileID: 1286491458}
  m_GameObject: {fileID: 303007268}
  m_LocalRotation: {x: 0, y: 0, z: 0, w: 1}
  m_LocalPosition: {x: 0, y: 0, z: 0}
  m_LocalScale: {x: 1, y: 1, z: 1}
  m_Children: []
  m_Father: {fileID: 242208115}
  m_RootOrder: 3
  m_AnchorMin: {x: 0.5, y: 0.5}
  m_AnchorMax: {x: 0.5, y: 0.5}
  m_AnchoredPosition: {x: 412, y: -8}
  m_SizeDelta: {x: 275, y: 166}
  m_Pivot: {x: 0.5, y: 0.5}
--- !u!114 &303007270
MonoBehaviour:
  m_ObjectHideFlags: 0
  m_PrefabParentObject: {fileID: 11489546, guid: f3f92d89d8706c749b0c3fc0b25cc0c5,
    type: 2}
  m_PrefabInternal: {fileID: 1286491458}
  m_GameObject: {fileID: 303007268}
  m_Enabled: 1
  m_EditorHideFlags: 0
  m_Script: {fileID: 708705254, guid: f5f67c52d1564df4a8936ccd202a3bd8, type: 3}
  m_Name: 
  m_EditorClassIdentifier: 
  m_Material: {fileID: 0}
  m_Color: {r: 0.84313726, g: 0.2, b: 0.2509804, a: 1}
  m_RaycastTarget: 1
  m_OnCullStateChanged:
    m_PersistentCalls:
      m_Calls: []
    m_TypeName: UnityEngine.UI.MaskableGraphic+CullStateChangedEvent, UnityEngine.UI,
      Version=1.0.0.0, Culture=neutral, PublicKeyToken=null
  m_FontData:
    m_Font: {fileID: 12800000, guid: 218956a5c2a6e42d6a60afccf80b002b, type: 3}
    m_FontSize: 80
    m_FontStyle: 0
    m_BestFit: 0
    m_MinSize: 10
    m_MaxSize: 80
    m_Alignment: 4
    m_AlignByGeometry: 0
    m_RichText: 1
    m_HorizontalOverflow: 0
    m_VerticalOverflow: 0
    m_LineSpacing: 1
  m_Text: RED
--- !u!222 &303007271
CanvasRenderer:
  m_ObjectHideFlags: 0
  m_PrefabParentObject: {fileID: 22289516, guid: f3f92d89d8706c749b0c3fc0b25cc0c5,
    type: 2}
  m_PrefabInternal: {fileID: 1286491458}
  m_GameObject: {fileID: 303007268}
--- !u!1 &386445061
GameObject:
  m_ObjectHideFlags: 0
  m_PrefabParentObject: {fileID: 189538, guid: f3f92d89d8706c749b0c3fc0b25cc0c5, type: 2}
  m_PrefabInternal: {fileID: 1286491458}
  serializedVersion: 4
  m_Component:
  - 224: {fileID: 386445062}
  - 222: {fileID: 386445065}
  - 114: {fileID: 386445064}
  - 114: {fileID: 386445063}
  m_Layer: 5
  m_Name: Panel
  m_TagString: Untagged
  m_Icon: {fileID: 0}
  m_NavMeshLayer: 0
  m_StaticEditorFlags: 0
  m_IsActive: 1
--- !u!224 &386445062
RectTransform:
  m_ObjectHideFlags: 0
  m_PrefabParentObject: {fileID: 22489538, guid: f3f92d89d8706c749b0c3fc0b25cc0c5,
    type: 2}
  m_PrefabInternal: {fileID: 1286491458}
  m_GameObject: {fileID: 386445061}
  m_LocalRotation: {x: 0, y: 0, z: 0, w: 1}
  m_LocalPosition: {x: 0, y: 0, z: 0}
  m_LocalScale: {x: 1, y: 1, z: 1}
  m_Children:
  - {fileID: 242208115}
  - {fileID: 1004494710}
  - {fileID: 265495354}
  - {fileID: 654434078}
  - {fileID: 1940819112}
  - {fileID: 411397842}
  - {fileID: 1843966535}
  - {fileID: 453904856}
  - {fileID: 1326924276}
  - {fileID: 650055855}
  - {fileID: 1520326290}
  - {fileID: 783240283}
  - {fileID: 1717695503}
  - {fileID: 794456317}
  - {fileID: 1871932117}
  - {fileID: 1998053931}
  m_Father: {fileID: 494648904}
  m_RootOrder: 1
  m_AnchorMin: {x: 0.5, y: 0.5}
  m_AnchorMax: {x: 0.5, y: 0.5}
  m_AnchoredPosition: {x: 0, y: -0.020019531}
  m_SizeDelta: {x: 640, y: 1136}
  m_Pivot: {x: 0.5, y: 0.5}
--- !u!114 &386445063
MonoBehaviour:
  m_ObjectHideFlags: 0
  m_PrefabParentObject: {fileID: 11489570, guid: f3f92d89d8706c749b0c3fc0b25cc0c5,
    type: 2}
  m_PrefabInternal: {fileID: 1286491458}
  m_GameObject: {fileID: 386445061}
  m_Enabled: 1
  m_EditorHideFlags: 0
  m_Script: {fileID: -1200242548, guid: f5f67c52d1564df4a8936ccd202a3bd8, type: 3}
  m_Name: 
  m_EditorClassIdentifier: 
  m_ShowMaskGraphic: 1
--- !u!114 &386445064
MonoBehaviour:
  m_ObjectHideFlags: 0
  m_PrefabParentObject: {fileID: 11489572, guid: f3f92d89d8706c749b0c3fc0b25cc0c5,
    type: 2}
  m_PrefabInternal: {fileID: 1286491458}
  m_GameObject: {fileID: 386445061}
  m_Enabled: 1
  m_EditorHideFlags: 0
  m_Script: {fileID: -765806418, guid: f5f67c52d1564df4a8936ccd202a3bd8, type: 3}
  m_Name: 
  m_EditorClassIdentifier: 
  m_Material: {fileID: 0}
  m_Color: {r: 0.9607843, g: 0.9098039, b: 0.7764706, a: 1}
  m_RaycastTarget: 1
  m_OnCullStateChanged:
    m_PersistentCalls:
      m_Calls: []
    m_TypeName: UnityEngine.UI.MaskableGraphic+CullStateChangedEvent, UnityEngine.UI,
      Version=1.0.0.0, Culture=neutral, PublicKeyToken=null
  m_Sprite: {fileID: 21300000, guid: 7ed1238760b863f4aafde32ab3a6f28c, type: 3}
  m_Type: 1
  m_PreserveAspect: 0
  m_FillCenter: 1
  m_FillMethod: 4
  m_FillAmount: 1
  m_FillClockwise: 1
  m_FillOrigin: 0
--- !u!222 &386445065
CanvasRenderer:
  m_ObjectHideFlags: 0
  m_PrefabParentObject: {fileID: 22289536, guid: f3f92d89d8706c749b0c3fc0b25cc0c5,
    type: 2}
  m_PrefabInternal: {fileID: 1286491458}
  m_GameObject: {fileID: 386445061}
--- !u!1 &411397841
GameObject:
  m_ObjectHideFlags: 0
  m_PrefabParentObject: {fileID: 189526, guid: f3f92d89d8706c749b0c3fc0b25cc0c5, type: 2}
  m_PrefabInternal: {fileID: 1286491458}
  serializedVersion: 4
  m_Component:
  - 224: {fileID: 411397842}
  - 222: {fileID: 411397845}
  - 114: {fileID: 411397844}
  - 114: {fileID: 411397843}
  m_Layer: 5
  m_Name: Button
  m_TagString: Untagged
  m_Icon: {fileID: 0}
  m_NavMeshLayer: 0
  m_StaticEditorFlags: 0
  m_IsActive: 1
--- !u!224 &411397842
RectTransform:
  m_ObjectHideFlags: 0
  m_PrefabParentObject: {fileID: 22489526, guid: f3f92d89d8706c749b0c3fc0b25cc0c5,
    type: 2}
  m_PrefabInternal: {fileID: 1286491458}
  m_GameObject: {fileID: 411397841}
  m_LocalRotation: {x: 0, y: 0, z: 0, w: 1}
  m_LocalPosition: {x: 0, y: 0, z: 0}
  m_LocalScale: {x: 1, y: 1, z: 1}
  m_Children: []
  m_Father: {fileID: 386445062}
  m_RootOrder: 5
  m_AnchorMin: {x: 0.5, y: 0.5}
  m_AnchorMax: {x: 0.5, y: 0.5}
  m_AnchoredPosition: {x: 0, y: 86}
  m_SizeDelta: {x: 136, y: 136}
  m_Pivot: {x: 0.5, y: 0.5}
--- !u!114 &411397843
MonoBehaviour:
  m_ObjectHideFlags: 0
  m_PrefabParentObject: {fileID: 11489522, guid: f3f92d89d8706c749b0c3fc0b25cc0c5,
    type: 2}
  m_PrefabInternal: {fileID: 1286491458}
  m_GameObject: {fileID: 411397841}
  m_Enabled: 1
  m_EditorHideFlags: 0
  m_Script: {fileID: 1392445389, guid: f5f67c52d1564df4a8936ccd202a3bd8, type: 3}
  m_Name: 
  m_EditorClassIdentifier: 
  m_Navigation:
    m_Mode: 3
    m_SelectOnUp: {fileID: 0}
    m_SelectOnDown: {fileID: 0}
    m_SelectOnLeft: {fileID: 0}
    m_SelectOnRight: {fileID: 0}
  m_Transition: 1
  m_Colors:
    m_NormalColor: {r: 1, g: 1, b: 1, a: 1}
    m_HighlightedColor: {r: 0.9607843, g: 0.9607843, b: 0.9607843, a: 1}
    m_PressedColor: {r: 0.78431374, g: 0.78431374, b: 0.78431374, a: 1}
    m_DisabledColor: {r: 0.78431374, g: 0.78431374, b: 0.78431374, a: 0.5019608}
    m_ColorMultiplier: 1
    m_FadeDuration: 0.1
  m_SpriteState:
    m_HighlightedSprite: {fileID: 0}
    m_PressedSprite: {fileID: 0}
    m_DisabledSprite: {fileID: 0}
  m_AnimationTriggers:
    m_NormalTrigger: Normal
    m_HighlightedTrigger: Highlighted
    m_PressedTrigger: Pressed
    m_DisabledTrigger: Disabled
  m_Interactable: 1
  m_TargetGraphic: {fileID: 411397844}
  m_OnClick:
    m_PersistentCalls:
      m_Calls: []
    m_TypeName: UnityEngine.UI.Button+ButtonClickedEvent, UnityEngine.UI, Version=1.0.0.0,
      Culture=neutral, PublicKeyToken=null
--- !u!114 &411397844
MonoBehaviour:
  m_ObjectHideFlags: 0
  m_PrefabParentObject: {fileID: 11489556, guid: f3f92d89d8706c749b0c3fc0b25cc0c5,
    type: 2}
  m_PrefabInternal: {fileID: 1286491458}
  m_GameObject: {fileID: 411397841}
  m_Enabled: 1
  m_EditorHideFlags: 0
  m_Script: {fileID: -765806418, guid: f5f67c52d1564df4a8936ccd202a3bd8, type: 3}
  m_Name: 
  m_EditorClassIdentifier: 
  m_Material: {fileID: 0}
  m_Color: {r: 0.8509804, g: 0.2, b: 0.2509804, a: 1}
  m_RaycastTarget: 1
  m_OnCullStateChanged:
    m_PersistentCalls:
      m_Calls: []
    m_TypeName: UnityEngine.UI.MaskableGraphic+CullStateChangedEvent, UnityEngine.UI,
      Version=1.0.0.0, Culture=neutral, PublicKeyToken=null
  m_Sprite: {fileID: 21300000, guid: 5edfdb1318310614985b8de7ab9b784c, type: 3}
  m_Type: 0
  m_PreserveAspect: 0
  m_FillCenter: 1
  m_FillMethod: 4
  m_FillAmount: 1
  m_FillClockwise: 1
  m_FillOrigin: 0
--- !u!222 &411397845
CanvasRenderer:
  m_ObjectHideFlags: 0
  m_PrefabParentObject: {fileID: 22289526, guid: f3f92d89d8706c749b0c3fc0b25cc0c5,
    type: 2}
  m_PrefabInternal: {fileID: 1286491458}
  m_GameObject: {fileID: 411397841}
--- !u!1 &453904855
GameObject:
  m_ObjectHideFlags: 0
  m_PrefabParentObject: {fileID: 189536, guid: f3f92d89d8706c749b0c3fc0b25cc0c5, type: 2}
  m_PrefabInternal: {fileID: 1286491458}
  serializedVersion: 4
  m_Component:
  - 224: {fileID: 453904856}
  - 222: {fileID: 453904859}
  - 114: {fileID: 453904858}
  - 114: {fileID: 453904857}
  m_Layer: 5
  m_Name: Button
  m_TagString: Untagged
  m_Icon: {fileID: 0}
  m_NavMeshLayer: 0
  m_StaticEditorFlags: 0
  m_IsActive: 1
--- !u!224 &453904856
RectTransform:
  m_ObjectHideFlags: 0
  m_PrefabParentObject: {fileID: 22489536, guid: f3f92d89d8706c749b0c3fc0b25cc0c5,
    type: 2}
  m_PrefabInternal: {fileID: 1286491458}
  m_GameObject: {fileID: 453904855}
  m_LocalRotation: {x: 0, y: 0, z: 0, w: 1}
  m_LocalPosition: {x: 0, y: 0, z: 0}
  m_LocalScale: {x: 1, y: 1, z: 1}
  m_Children: []
  m_Father: {fileID: 386445062}
  m_RootOrder: 7
  m_AnchorMin: {x: 0.5, y: 0.5}
  m_AnchorMax: {x: 0.5, y: 0.5}
  m_AnchoredPosition: {x: 180, y: -94}
  m_SizeDelta: {x: 136, y: 136}
  m_Pivot: {x: 0.5, y: 0.5}
--- !u!114 &453904857
MonoBehaviour:
  m_ObjectHideFlags: 0
  m_PrefabParentObject: {fileID: 11489516, guid: f3f92d89d8706c749b0c3fc0b25cc0c5,
    type: 2}
  m_PrefabInternal: {fileID: 1286491458}
  m_GameObject: {fileID: 453904855}
  m_Enabled: 1
  m_EditorHideFlags: 0
  m_Script: {fileID: 1392445389, guid: f5f67c52d1564df4a8936ccd202a3bd8, type: 3}
  m_Name: 
  m_EditorClassIdentifier: 
  m_Navigation:
    m_Mode: 3
    m_SelectOnUp: {fileID: 0}
    m_SelectOnDown: {fileID: 0}
    m_SelectOnLeft: {fileID: 0}
    m_SelectOnRight: {fileID: 0}
  m_Transition: 1
  m_Colors:
    m_NormalColor: {r: 1, g: 1, b: 1, a: 1}
    m_HighlightedColor: {r: 0.9607843, g: 0.9607843, b: 0.9607843, a: 1}
    m_PressedColor: {r: 0.78431374, g: 0.78431374, b: 0.78431374, a: 1}
    m_DisabledColor: {r: 0.78431374, g: 0.78431374, b: 0.78431374, a: 0.5019608}
    m_ColorMultiplier: 1
    m_FadeDuration: 0.1
  m_SpriteState:
    m_HighlightedSprite: {fileID: 0}
    m_PressedSprite: {fileID: 0}
    m_DisabledSprite: {fileID: 0}
  m_AnimationTriggers:
    m_NormalTrigger: Normal
    m_HighlightedTrigger: Highlighted
    m_PressedTrigger: Pressed
    m_DisabledTrigger: Disabled
  m_Interactable: 1
  m_TargetGraphic: {fileID: 453904858}
  m_OnClick:
    m_PersistentCalls:
      m_Calls: []
    m_TypeName: UnityEngine.UI.Button+ButtonClickedEvent, UnityEngine.UI, Version=1.0.0.0,
      Culture=neutral, PublicKeyToken=null
--- !u!114 &453904858
MonoBehaviour:
  m_ObjectHideFlags: 0
  m_PrefabParentObject: {fileID: 11489568, guid: f3f92d89d8706c749b0c3fc0b25cc0c5,
    type: 2}
  m_PrefabInternal: {fileID: 1286491458}
  m_GameObject: {fileID: 453904855}
  m_Enabled: 1
  m_EditorHideFlags: 0
  m_Script: {fileID: -765806418, guid: f5f67c52d1564df4a8936ccd202a3bd8, type: 3}
  m_Name: 
  m_EditorClassIdentifier: 
  m_Material: {fileID: 0}
  m_Color: {r: 0.99215686, g: 0.7921569, b: 0, a: 1}
  m_RaycastTarget: 1
  m_OnCullStateChanged:
    m_PersistentCalls:
      m_Calls: []
    m_TypeName: UnityEngine.UI.MaskableGraphic+CullStateChangedEvent, UnityEngine.UI,
      Version=1.0.0.0, Culture=neutral, PublicKeyToken=null
  m_Sprite: {fileID: 21300000, guid: 291502478103f274da140dc9d17c64dc, type: 3}
  m_Type: 0
  m_PreserveAspect: 0
  m_FillCenter: 1
  m_FillMethod: 4
  m_FillAmount: 1
  m_FillClockwise: 1
  m_FillOrigin: 0
--- !u!222 &453904859
CanvasRenderer:
  m_ObjectHideFlags: 0
  m_PrefabParentObject: {fileID: 22289534, guid: f3f92d89d8706c749b0c3fc0b25cc0c5,
    type: 2}
  m_PrefabInternal: {fileID: 1286491458}
  m_GameObject: {fileID: 453904855}
--- !u!1 &494648900
GameObject:
  m_ObjectHideFlags: 0
  m_PrefabParentObject: {fileID: 189530, guid: f3f92d89d8706c749b0c3fc0b25cc0c5, type: 2}
  m_PrefabInternal: {fileID: 1286491458}
  serializedVersion: 4
  m_Component:
  - 224: {fileID: 494648904}
  - 223: {fileID: 494648903}
  - 114: {fileID: 494648902}
  - 114: {fileID: 494648901}
  m_Layer: 5
  m_Name: GameExample_2
  m_TagString: Untagged
  m_Icon: {fileID: 0}
  m_NavMeshLayer: 0
  m_StaticEditorFlags: 0
  m_IsActive: 1
--- !u!114 &494648901
MonoBehaviour:
  m_ObjectHideFlags: 0
  m_PrefabParentObject: {fileID: 11489560, guid: f3f92d89d8706c749b0c3fc0b25cc0c5,
    type: 2}
  m_PrefabInternal: {fileID: 1286491458}
  m_GameObject: {fileID: 494648900}
  m_Enabled: 1
  m_EditorHideFlags: 0
  m_Script: {fileID: 1301386320, guid: f5f67c52d1564df4a8936ccd202a3bd8, type: 3}
  m_Name: 
  m_EditorClassIdentifier: 
  m_IgnoreReversedGraphics: 1
  m_BlockingObjects: 0
  m_BlockingMask:
    serializedVersion: 2
    m_Bits: 4294967295
--- !u!114 &494648902
MonoBehaviour:
  m_ObjectHideFlags: 0
  m_PrefabParentObject: {fileID: 11489562, guid: f3f92d89d8706c749b0c3fc0b25cc0c5,
    type: 2}
  m_PrefabInternal: {fileID: 1286491458}
  m_GameObject: {fileID: 494648900}
  m_Enabled: 1
  m_EditorHideFlags: 0
  m_Script: {fileID: 1980459831, guid: f5f67c52d1564df4a8936ccd202a3bd8, type: 3}
  m_Name: 
  m_EditorClassIdentifier: 
  m_UiScaleMode: 1
  m_ReferencePixelsPerUnit: 100
  m_ScaleFactor: 1
  m_ReferenceResolution: {x: 640, y: 1136}
  m_ScreenMatchMode: 0
  m_MatchWidthOrHeight: 1
  m_PhysicalUnit: 3
  m_FallbackScreenDPI: 96
  m_DefaultSpriteDPI: 96
  m_DynamicPixelsPerUnit: 1
--- !u!223 &494648903
Canvas:
  m_ObjectHideFlags: 0
  m_PrefabParentObject: {fileID: 22389506, guid: f3f92d89d8706c749b0c3fc0b25cc0c5,
    type: 2}
  m_PrefabInternal: {fileID: 1286491458}
  m_GameObject: {fileID: 494648900}
  m_Enabled: 1
  serializedVersion: 2
  m_RenderMode: 0
  m_Camera: {fileID: 0}
  m_PlaneDistance: 100
  m_PixelPerfect: 1
  m_ReceivesEvents: 1
  m_OverrideSorting: 0
  m_OverridePixelPerfect: 0
  m_SortingLayerID: 0
  m_SortingOrder: 0
  m_TargetDisplay: 0
--- !u!224 &494648904
RectTransform:
  m_ObjectHideFlags: 0
  m_PrefabParentObject: {fileID: 22489530, guid: f3f92d89d8706c749b0c3fc0b25cc0c5,
    type: 2}
  m_PrefabInternal: {fileID: 1286491458}
  m_GameObject: {fileID: 494648900}
  m_LocalRotation: {x: 0, y: 0, z: 0, w: 1}
  m_LocalPosition: {x: 0, y: 0, z: 0}
  m_LocalScale: {x: 0, y: 0, z: 0}
  m_Children:
  - {fileID: 2025813513}
  - {fileID: 386445062}
  m_Father: {fileID: 0}
  m_RootOrder: 0
  m_AnchorMin: {x: 0, y: 0}
  m_AnchorMax: {x: 0, y: 0}
  m_AnchoredPosition: {x: 0, y: 0}
  m_SizeDelta: {x: 0, y: 0}
  m_Pivot: {x: 0, y: 0}
--- !u!1 &567971422
GameObject:
  m_ObjectHideFlags: 0
  m_PrefabParentObject: {fileID: 189512, guid: f3f92d89d8706c749b0c3fc0b25cc0c5, type: 2}
  m_PrefabInternal: {fileID: 1286491458}
  serializedVersion: 4
  m_Component:
  - 224: {fileID: 567971423}
  - 222: {fileID: 567971425}
  - 114: {fileID: 567971424}
  m_Layer: 5
  m_Name: Panel
  m_TagString: Untagged
  m_Icon: {fileID: 0}
  m_NavMeshLayer: 0
  m_StaticEditorFlags: 0
  m_IsActive: 1
--- !u!224 &567971423
RectTransform:
  m_ObjectHideFlags: 0
  m_PrefabParentObject: {fileID: 22489512, guid: f3f92d89d8706c749b0c3fc0b25cc0c5,
    type: 2}
  m_PrefabInternal: {fileID: 1286491458}
  m_GameObject: {fileID: 567971422}
  m_LocalRotation: {x: 0, y: 0, z: 0, w: 1}
  m_LocalPosition: {x: 0, y: 0, z: 0}
  m_LocalScale: {x: 1, y: 1, z: 1}
  m_Children: []
  m_Father: {fileID: 242208115}
  m_RootOrder: 1
  m_AnchorMin: {x: 0.5, y: 0.5}
  m_AnchorMax: {x: 0.5, y: 0.5}
  m_AnchoredPosition: {x: -0.100097656, y: -0.000076293945}
  m_SizeDelta: {x: 136, y: 136}
  m_Pivot: {x: 0.5, y: 0.5}
--- !u!114 &567971424
MonoBehaviour:
  m_ObjectHideFlags: 0
  m_PrefabParentObject: {fileID: 11489542, guid: f3f92d89d8706c749b0c3fc0b25cc0c5,
    type: 2}
  m_PrefabInternal: {fileID: 1286491458}
  m_GameObject: {fileID: 567971422}
  m_Enabled: 1
  m_EditorHideFlags: 0
  m_Script: {fileID: -765806418, guid: f5f67c52d1564df4a8936ccd202a3bd8, type: 3}
  m_Name: 
  m_EditorClassIdentifier: 
  m_Material: {fileID: 0}
  m_Color: {r: 0.9882353, g: 0.7882353, b: 0, a: 1}
  m_RaycastTarget: 1
  m_OnCullStateChanged:
    m_PersistentCalls:
      m_Calls: []
    m_TypeName: UnityEngine.UI.MaskableGraphic+CullStateChangedEvent, UnityEngine.UI,
      Version=1.0.0.0, Culture=neutral, PublicKeyToken=null
  m_Sprite: {fileID: 21300000, guid: 291502478103f274da140dc9d17c64dc, type: 3}
  m_Type: 3
  m_PreserveAspect: 0
  m_FillCenter: 1
  m_FillMethod: 0
  m_FillAmount: 0.664
  m_FillClockwise: 1
  m_FillOrigin: 0
--- !u!222 &567971425
CanvasRenderer:
  m_ObjectHideFlags: 0
  m_PrefabParentObject: {fileID: 22289512, guid: f3f92d89d8706c749b0c3fc0b25cc0c5,
    type: 2}
  m_PrefabInternal: {fileID: 1286491458}
  m_GameObject: {fileID: 567971422}
--- !u!1 &611165162
GameObject:
  m_ObjectHideFlags: 0
  m_PrefabParentObject: {fileID: 189534, guid: f3f92d89d8706c749b0c3fc0b25cc0c5, type: 2}
  m_PrefabInternal: {fileID: 1286491458}
  serializedVersion: 4
  m_Component:
  - 224: {fileID: 611165163}
  - 222: {fileID: 611165165}
  - 114: {fileID: 611165164}
  m_Layer: 5
  m_Name: Panel
  m_TagString: Untagged
  m_Icon: {fileID: 0}
  m_NavMeshLayer: 0
  m_StaticEditorFlags: 0
  m_IsActive: 1
--- !u!224 &611165163
RectTransform:
  m_ObjectHideFlags: 0
  m_PrefabParentObject: {fileID: 22489534, guid: f3f92d89d8706c749b0c3fc0b25cc0c5,
    type: 2}
  m_PrefabInternal: {fileID: 1286491458}
  m_GameObject: {fileID: 611165162}
  m_LocalRotation: {x: 0, y: 0, z: 0, w: 1}
  m_LocalPosition: {x: 0, y: 0, z: 0}
  m_LocalScale: {x: 1, y: 1, z: 1}
  m_Children: []
  m_Father: {fileID: 1998053931}
  m_RootOrder: 0
  m_AnchorMin: {x: 0.5, y: 0.5}
  m_AnchorMax: {x: 0.5, y: 0.5}
  m_AnchoredPosition: {x: -0.100097656, y: -0.000076293945}
  m_SizeDelta: {x: 136, y: 136}
  m_Pivot: {x: 0.5, y: 0.5}
--- !u!114 &611165164
MonoBehaviour:
  m_ObjectHideFlags: 0
  m_PrefabParentObject: {fileID: 11489566, guid: f3f92d89d8706c749b0c3fc0b25cc0c5,
    type: 2}
  m_PrefabInternal: {fileID: 1286491458}
  m_GameObject: {fileID: 611165162}
  m_Enabled: 1
  m_EditorHideFlags: 0
  m_Script: {fileID: -765806418, guid: f5f67c52d1564df4a8936ccd202a3bd8, type: 3}
  m_Name: 
  m_EditorClassIdentifier: 
  m_Material: {fileID: 0}
  m_Color: {r: 0.84705883, g: 0.2, b: 0.2509804, a: 1}
  m_RaycastTarget: 1
  m_OnCullStateChanged:
    m_PersistentCalls:
      m_Calls: []
    m_TypeName: UnityEngine.UI.MaskableGraphic+CullStateChangedEvent, UnityEngine.UI,
      Version=1.0.0.0, Culture=neutral, PublicKeyToken=null
  m_Sprite: {fileID: 21300000, guid: 291502478103f274da140dc9d17c64dc, type: 3}
  m_Type: 3
  m_PreserveAspect: 0
  m_FillCenter: 1
  m_FillMethod: 1
  m_FillAmount: 0.5
  m_FillClockwise: 1
  m_FillOrigin: 0
--- !u!222 &611165165
CanvasRenderer:
  m_ObjectHideFlags: 0
  m_PrefabParentObject: {fileID: 22289532, guid: f3f92d89d8706c749b0c3fc0b25cc0c5,
    type: 2}
  m_PrefabInternal: {fileID: 1286491458}
  m_GameObject: {fileID: 611165162}
--- !u!1 &650055854
GameObject:
  m_ObjectHideFlags: 0
  m_PrefabParentObject: {fileID: 189522, guid: f3f92d89d8706c749b0c3fc0b25cc0c5, type: 2}
  m_PrefabInternal: {fileID: 1286491458}
  serializedVersion: 4
  m_Component:
  - 224: {fileID: 650055855}
  - 222: {fileID: 650055858}
  - 114: {fileID: 650055857}
  - 114: {fileID: 650055856}
  m_Layer: 5
  m_Name: Button
  m_TagString: Untagged
  m_Icon: {fileID: 0}
  m_NavMeshLayer: 0
  m_StaticEditorFlags: 0
  m_IsActive: 1
--- !u!224 &650055855
RectTransform:
  m_ObjectHideFlags: 0
  m_PrefabParentObject: {fileID: 22489522, guid: f3f92d89d8706c749b0c3fc0b25cc0c5,
    type: 2}
  m_PrefabInternal: {fileID: 1286491458}
  m_GameObject: {fileID: 650055854}
  m_LocalRotation: {x: 0, y: 0, z: 0, w: 1}
  m_LocalPosition: {x: 0, y: 0, z: 0}
  m_LocalScale: {x: 0.6, y: 0.6, z: 1}
  m_Children: []
  m_Father: {fileID: 386445062}
  m_RootOrder: 9
  m_AnchorMin: {x: 0.5, y: 0.5}
  m_AnchorMax: {x: 0.5, y: 0.5}
  m_AnchoredPosition: {x: -180, y: -274}
  m_SizeDelta: {x: 136, y: 136}
  m_Pivot: {x: 0.5, y: 0.5}
--- !u!114 &650055856
MonoBehaviour:
  m_ObjectHideFlags: 0
  m_PrefabParentObject: {fileID: 11489526, guid: f3f92d89d8706c749b0c3fc0b25cc0c5,
    type: 2}
  m_PrefabInternal: {fileID: 1286491458}
  m_GameObject: {fileID: 650055854}
  m_Enabled: 1
  m_EditorHideFlags: 0
  m_Script: {fileID: 1392445389, guid: f5f67c52d1564df4a8936ccd202a3bd8, type: 3}
  m_Name: 
  m_EditorClassIdentifier: 
  m_Navigation:
    m_Mode: 3
    m_SelectOnUp: {fileID: 0}
    m_SelectOnDown: {fileID: 0}
    m_SelectOnLeft: {fileID: 0}
    m_SelectOnRight: {fileID: 0}
  m_Transition: 1
  m_Colors:
    m_NormalColor: {r: 1, g: 1, b: 1, a: 1}
    m_HighlightedColor: {r: 0.9607843, g: 0.9607843, b: 0.9607843, a: 1}
    m_PressedColor: {r: 0.78431374, g: 0.78431374, b: 0.78431374, a: 1}
    m_DisabledColor: {r: 0.78431374, g: 0.78431374, b: 0.78431374, a: 0.5019608}
    m_ColorMultiplier: 1
    m_FadeDuration: 0.1
  m_SpriteState:
    m_HighlightedSprite: {fileID: 0}
    m_PressedSprite: {fileID: 0}
    m_DisabledSprite: {fileID: 0}
  m_AnimationTriggers:
    m_NormalTrigger: Normal
    m_HighlightedTrigger: Highlighted
    m_PressedTrigger: Pressed
    m_DisabledTrigger: Disabled
  m_Interactable: 1
  m_TargetGraphic: {fileID: 650055857}
  m_OnClick:
    m_PersistentCalls:
      m_Calls: []
    m_TypeName: UnityEngine.UI.Button+ButtonClickedEvent, UnityEngine.UI, Version=1.0.0.0,
      Culture=neutral, PublicKeyToken=null
--- !u!114 &650055857
MonoBehaviour:
  m_ObjectHideFlags: 0
  m_PrefabParentObject: {fileID: 11489552, guid: f3f92d89d8706c749b0c3fc0b25cc0c5,
    type: 2}
  m_PrefabInternal: {fileID: 1286491458}
  m_GameObject: {fileID: 650055854}
  m_Enabled: 1
  m_EditorHideFlags: 0
  m_Script: {fileID: -765806418, guid: f5f67c52d1564df4a8936ccd202a3bd8, type: 3}
  m_Name: 
  m_EditorClassIdentifier: 
  m_Material: {fileID: 0}
  m_Color: {r: 0.15686275, g: 0.65882355, b: 0.8784314, a: 1}
  m_RaycastTarget: 1
  m_OnCullStateChanged:
    m_PersistentCalls:
      m_Calls: []
    m_TypeName: UnityEngine.UI.MaskableGraphic+CullStateChangedEvent, UnityEngine.UI,
      Version=1.0.0.0, Culture=neutral, PublicKeyToken=null
  m_Sprite: {fileID: 21300000, guid: 291502478103f274da140dc9d17c64dc, type: 3}
  m_Type: 0
  m_PreserveAspect: 0
  m_FillCenter: 1
  m_FillMethod: 4
  m_FillAmount: 1
  m_FillClockwise: 1
  m_FillOrigin: 0
--- !u!222 &650055858
CanvasRenderer:
  m_ObjectHideFlags: 0
  m_PrefabParentObject: {fileID: 22289522, guid: f3f92d89d8706c749b0c3fc0b25cc0c5,
    type: 2}
  m_PrefabInternal: {fileID: 1286491458}
  m_GameObject: {fileID: 650055854}
--- !u!1 &654434077
GameObject:
  m_ObjectHideFlags: 0
  m_PrefabParentObject: {fileID: 189524, guid: f3f92d89d8706c749b0c3fc0b25cc0c5, type: 2}
  m_PrefabInternal: {fileID: 1286491458}
  serializedVersion: 4
  m_Component:
  - 224: {fileID: 654434078}
  - 222: {fileID: 654434081}
  - 114: {fileID: 654434080}
  - 114: {fileID: 654434079}
  m_Layer: 5
  m_Name: Button
  m_TagString: Untagged
  m_Icon: {fileID: 0}
  m_NavMeshLayer: 0
  m_StaticEditorFlags: 0
  m_IsActive: 1
--- !u!224 &654434078
RectTransform:
  m_ObjectHideFlags: 0
  m_PrefabParentObject: {fileID: 22489524, guid: f3f92d89d8706c749b0c3fc0b25cc0c5,
    type: 2}
  m_PrefabInternal: {fileID: 1286491458}
  m_GameObject: {fileID: 654434077}
  m_LocalRotation: {x: 0, y: 0, z: 0, w: 1}
  m_LocalPosition: {x: 0, y: 0, z: 0}
  m_LocalScale: {x: 0.6, y: 0.6, z: 1}
  m_Children: []
  m_Father: {fileID: 386445062}
  m_RootOrder: 3
  m_AnchorMin: {x: 0.5, y: 0.5}
  m_AnchorMax: {x: 0.5, y: 0.5}
  m_AnchoredPosition: {x: 180, y: 266}
  m_SizeDelta: {x: 136, y: 136}
  m_Pivot: {x: 0.5, y: 0.5}
--- !u!114 &654434079
MonoBehaviour:
  m_ObjectHideFlags: 0
  m_PrefabParentObject: {fileID: 11489524, guid: f3f92d89d8706c749b0c3fc0b25cc0c5,
    type: 2}
  m_PrefabInternal: {fileID: 1286491458}
  m_GameObject: {fileID: 654434077}
  m_Enabled: 1
  m_EditorHideFlags: 0
  m_Script: {fileID: 1392445389, guid: f5f67c52d1564df4a8936ccd202a3bd8, type: 3}
  m_Name: 
  m_EditorClassIdentifier: 
  m_Navigation:
    m_Mode: 3
    m_SelectOnUp: {fileID: 0}
    m_SelectOnDown: {fileID: 0}
    m_SelectOnLeft: {fileID: 0}
    m_SelectOnRight: {fileID: 0}
  m_Transition: 1
  m_Colors:
    m_NormalColor: {r: 1, g: 1, b: 1, a: 1}
    m_HighlightedColor: {r: 0.9607843, g: 0.9607843, b: 0.9607843, a: 1}
    m_PressedColor: {r: 0.78431374, g: 0.78431374, b: 0.78431374, a: 1}
    m_DisabledColor: {r: 0.78431374, g: 0.78431374, b: 0.78431374, a: 0.5019608}
    m_ColorMultiplier: 1
    m_FadeDuration: 0.1
  m_SpriteState:
    m_HighlightedSprite: {fileID: 0}
    m_PressedSprite: {fileID: 0}
    m_DisabledSprite: {fileID: 0}
  m_AnimationTriggers:
    m_NormalTrigger: Normal
    m_HighlightedTrigger: Highlighted
    m_PressedTrigger: Pressed
    m_DisabledTrigger: Disabled
  m_Interactable: 1
  m_TargetGraphic: {fileID: 654434080}
  m_OnClick:
    m_PersistentCalls:
      m_Calls: []
    m_TypeName: UnityEngine.UI.Button+ButtonClickedEvent, UnityEngine.UI, Version=1.0.0.0,
      Culture=neutral, PublicKeyToken=null
--- !u!114 &654434080
MonoBehaviour:
  m_ObjectHideFlags: 0
  m_PrefabParentObject: {fileID: 11489554, guid: f3f92d89d8706c749b0c3fc0b25cc0c5,
    type: 2}
  m_PrefabInternal: {fileID: 1286491458}
  m_GameObject: {fileID: 654434077}
  m_Enabled: 1
  m_EditorHideFlags: 0
  m_Script: {fileID: -765806418, guid: f5f67c52d1564df4a8936ccd202a3bd8, type: 3}
  m_Name: 
  m_EditorClassIdentifier: 
  m_Material: {fileID: 0}
  m_Color: {r: 0.15686275, g: 0.6627451, b: 0.88235295, a: 1}
  m_RaycastTarget: 1
  m_OnCullStateChanged:
    m_PersistentCalls:
      m_Calls: []
    m_TypeName: UnityEngine.UI.MaskableGraphic+CullStateChangedEvent, UnityEngine.UI,
      Version=1.0.0.0, Culture=neutral, PublicKeyToken=null
  m_Sprite: {fileID: 21300000, guid: 5edfdb1318310614985b8de7ab9b784c, type: 3}
  m_Type: 0
  m_PreserveAspect: 0
  m_FillCenter: 1
  m_FillMethod: 4
  m_FillAmount: 1
  m_FillClockwise: 1
  m_FillOrigin: 0
--- !u!222 &654434081
CanvasRenderer:
  m_ObjectHideFlags: 0
  m_PrefabParentObject: {fileID: 22289524, guid: f3f92d89d8706c749b0c3fc0b25cc0c5,
    type: 2}
  m_PrefabInternal: {fileID: 1286491458}
  m_GameObject: {fileID: 654434077}
--- !u!1 &783240282
GameObject:
  m_ObjectHideFlags: 0
  m_PrefabParentObject: {fileID: 189546, guid: f3f92d89d8706c749b0c3fc0b25cc0c5, type: 2}
  m_PrefabInternal: {fileID: 1286491458}
  serializedVersion: 4
  m_Component:
  - 224: {fileID: 783240283}
  - 222: {fileID: 783240286}
  - 114: {fileID: 783240285}
  - 114: {fileID: 783240284}
  m_Layer: 5
  m_Name: Button
  m_TagString: Untagged
  m_Icon: {fileID: 0}
  m_NavMeshLayer: 0
  m_StaticEditorFlags: 0
  m_IsActive: 1
--- !u!224 &783240283
RectTransform:
  m_ObjectHideFlags: 0
  m_PrefabParentObject: {fileID: 22489546, guid: f3f92d89d8706c749b0c3fc0b25cc0c5,
    type: 2}
  m_PrefabInternal: {fileID: 1286491458}
  m_GameObject: {fileID: 783240282}
  m_LocalRotation: {x: 0, y: 0, z: 0, w: 1}
  m_LocalPosition: {x: 0, y: 0, z: 0}
  m_LocalScale: {x: 1, y: 1, z: 1}
  m_Children: []
  m_Father: {fileID: 386445062}
  m_RootOrder: 11
  m_AnchorMin: {x: 0.5, y: 0.5}
  m_AnchorMax: {x: 0.5, y: 0.5}
  m_AnchoredPosition: {x: 0, y: -274}
  m_SizeDelta: {x: 136, y: 136}
  m_Pivot: {x: 0.5, y: 0.5}
--- !u!114 &783240284
MonoBehaviour:
  m_ObjectHideFlags: 0
  m_PrefabParentObject: {fileID: 11489512, guid: f3f92d89d8706c749b0c3fc0b25cc0c5,
    type: 2}
  m_PrefabInternal: {fileID: 1286491458}
  m_GameObject: {fileID: 783240282}
  m_Enabled: 1
  m_EditorHideFlags: 0
  m_Script: {fileID: 1392445389, guid: f5f67c52d1564df4a8936ccd202a3bd8, type: 3}
  m_Name: 
  m_EditorClassIdentifier: 
  m_Navigation:
    m_Mode: 3
    m_SelectOnUp: {fileID: 0}
    m_SelectOnDown: {fileID: 0}
    m_SelectOnLeft: {fileID: 0}
    m_SelectOnRight: {fileID: 0}
  m_Transition: 1
  m_Colors:
    m_NormalColor: {r: 1, g: 1, b: 1, a: 1}
    m_HighlightedColor: {r: 0.9607843, g: 0.9607843, b: 0.9607843, a: 1}
    m_PressedColor: {r: 0.78431374, g: 0.78431374, b: 0.78431374, a: 1}
    m_DisabledColor: {r: 0.78431374, g: 0.78431374, b: 0.78431374, a: 0.5019608}
    m_ColorMultiplier: 1
    m_FadeDuration: 0.1
  m_SpriteState:
    m_HighlightedSprite: {fileID: 0}
    m_PressedSprite: {fileID: 0}
    m_DisabledSprite: {fileID: 0}
  m_AnimationTriggers:
    m_NormalTrigger: Normal
    m_HighlightedTrigger: Highlighted
    m_PressedTrigger: Pressed
    m_DisabledTrigger: Disabled
  m_Interactable: 1
  m_TargetGraphic: {fileID: 783240285}
  m_OnClick:
    m_PersistentCalls:
      m_Calls: []
    m_TypeName: UnityEngine.UI.Button+ButtonClickedEvent, UnityEngine.UI, Version=1.0.0.0,
      Culture=neutral, PublicKeyToken=null
--- !u!114 &783240285
MonoBehaviour:
  m_ObjectHideFlags: 0
  m_PrefabParentObject: {fileID: 11489580, guid: f3f92d89d8706c749b0c3fc0b25cc0c5,
    type: 2}
  m_PrefabInternal: {fileID: 1286491458}
  m_GameObject: {fileID: 783240282}
  m_Enabled: 1
  m_EditorHideFlags: 0
  m_Script: {fileID: -765806418, guid: f5f67c52d1564df4a8936ccd202a3bd8, type: 3}
  m_Name: 
  m_EditorClassIdentifier: 
  m_Material: {fileID: 0}
  m_Color: {r: 0.99607843, g: 0.79607844, b: 0, a: 1}
  m_RaycastTarget: 1
  m_OnCullStateChanged:
    m_PersistentCalls:
      m_Calls: []
    m_TypeName: UnityEngine.UI.MaskableGraphic+CullStateChangedEvent, UnityEngine.UI,
      Version=1.0.0.0, Culture=neutral, PublicKeyToken=null
  m_Sprite: {fileID: 21300000, guid: 291502478103f274da140dc9d17c64dc, type: 3}
  m_Type: 0
  m_PreserveAspect: 0
  m_FillCenter: 1
  m_FillMethod: 4
  m_FillAmount: 1
  m_FillClockwise: 1
  m_FillOrigin: 0
--- !u!222 &783240286
CanvasRenderer:
  m_ObjectHideFlags: 0
  m_PrefabParentObject: {fileID: 22289544, guid: f3f92d89d8706c749b0c3fc0b25cc0c5,
    type: 2}
  m_PrefabInternal: {fileID: 1286491458}
  m_GameObject: {fileID: 783240282}
--- !u!1 &794456316
GameObject:
  m_ObjectHideFlags: 0
  m_PrefabParentObject: {fileID: 189540, guid: f3f92d89d8706c749b0c3fc0b25cc0c5, type: 2}
  m_PrefabInternal: {fileID: 1286491458}
  serializedVersion: 4
  m_Component:
  - 224: {fileID: 794456317}
  - 222: {fileID: 794456320}
  - 114: {fileID: 794456319}
  - 114: {fileID: 794456318}
  m_Layer: 5
  m_Name: Button
  m_TagString: Untagged
  m_Icon: {fileID: 0}
  m_NavMeshLayer: 0
  m_StaticEditorFlags: 0
  m_IsActive: 1
--- !u!224 &794456317
RectTransform:
  m_ObjectHideFlags: 0
  m_PrefabParentObject: {fileID: 22489540, guid: f3f92d89d8706c749b0c3fc0b25cc0c5,
    type: 2}
  m_PrefabInternal: {fileID: 1286491458}
  m_GameObject: {fileID: 794456316}
  m_LocalRotation: {x: 0, y: 0, z: 0, w: 1}
  m_LocalPosition: {x: 0, y: 0, z: 0}
  m_LocalScale: {x: 0.6, y: 0.6, z: 1}
  m_Children: []
  m_Father: {fileID: 386445062}
  m_RootOrder: 13
  m_AnchorMin: {x: 0.5, y: 0.5}
  m_AnchorMax: {x: 0.5, y: 0.5}
  m_AnchoredPosition: {x: 180, y: -458}
  m_SizeDelta: {x: 136, y: 136}
  m_Pivot: {x: 0.5, y: 0.5}
--- !u!114 &794456318
MonoBehaviour:
  m_ObjectHideFlags: 0
  m_PrefabParentObject: {fileID: 11489514, guid: f3f92d89d8706c749b0c3fc0b25cc0c5,
    type: 2}
  m_PrefabInternal: {fileID: 1286491458}
  m_GameObject: {fileID: 794456316}
  m_Enabled: 1
  m_EditorHideFlags: 0
  m_Script: {fileID: 1392445389, guid: f5f67c52d1564df4a8936ccd202a3bd8, type: 3}
  m_Name: 
  m_EditorClassIdentifier: 
  m_Navigation:
    m_Mode: 3
    m_SelectOnUp: {fileID: 0}
    m_SelectOnDown: {fileID: 0}
    m_SelectOnLeft: {fileID: 0}
    m_SelectOnRight: {fileID: 0}
  m_Transition: 1
  m_Colors:
    m_NormalColor: {r: 1, g: 1, b: 1, a: 1}
    m_HighlightedColor: {r: 0.9607843, g: 0.9607843, b: 0.9607843, a: 1}
    m_PressedColor: {r: 0.78431374, g: 0.78431374, b: 0.78431374, a: 1}
    m_DisabledColor: {r: 0.78431374, g: 0.78431374, b: 0.78431374, a: 0.5019608}
    m_ColorMultiplier: 1
    m_FadeDuration: 0.1
  m_SpriteState:
    m_HighlightedSprite: {fileID: 0}
    m_PressedSprite: {fileID: 0}
    m_DisabledSprite: {fileID: 0}
  m_AnimationTriggers:
    m_NormalTrigger: Normal
    m_HighlightedTrigger: Highlighted
    m_PressedTrigger: Pressed
    m_DisabledTrigger: Disabled
  m_Interactable: 1
  m_TargetGraphic: {fileID: 794456319}
  m_OnClick:
    m_PersistentCalls:
      m_Calls: []
    m_TypeName: UnityEngine.UI.Button+ButtonClickedEvent, UnityEngine.UI, Version=1.0.0.0,
      Culture=neutral, PublicKeyToken=null
--- !u!114 &794456319
MonoBehaviour:
  m_ObjectHideFlags: 0
  m_PrefabParentObject: {fileID: 11489574, guid: f3f92d89d8706c749b0c3fc0b25cc0c5,
    type: 2}
  m_PrefabInternal: {fileID: 1286491458}
  m_GameObject: {fileID: 794456316}
  m_Enabled: 1
  m_EditorHideFlags: 0
  m_Script: {fileID: -765806418, guid: f5f67c52d1564df4a8936ccd202a3bd8, type: 3}
  m_Name: 
  m_EditorClassIdentifier: 
  m_Material: {fileID: 0}
  m_Color: {r: 0.6544118, g: 0.6544118, b: 0.6544118, a: 1}
  m_RaycastTarget: 1
  m_OnCullStateChanged:
    m_PersistentCalls:
      m_Calls: []
    m_TypeName: UnityEngine.UI.MaskableGraphic+CullStateChangedEvent, UnityEngine.UI,
      Version=1.0.0.0, Culture=neutral, PublicKeyToken=null
  m_Sprite: {fileID: 21300000, guid: 291502478103f274da140dc9d17c64dc, type: 3}
  m_Type: 0
  m_PreserveAspect: 0
  m_FillCenter: 1
  m_FillMethod: 4
  m_FillAmount: 1
  m_FillClockwise: 1
  m_FillOrigin: 0
--- !u!222 &794456320
CanvasRenderer:
  m_ObjectHideFlags: 0
  m_PrefabParentObject: {fileID: 22289538, guid: f3f92d89d8706c749b0c3fc0b25cc0c5,
    type: 2}
  m_PrefabInternal: {fileID: 1286491458}
  m_GameObject: {fileID: 794456316}
--- !u!1 &864878329
GameObject:
  m_ObjectHideFlags: 0
  m_PrefabParentObject: {fileID: 189506, guid: f3f92d89d8706c749b0c3fc0b25cc0c5, type: 2}
  m_PrefabInternal: {fileID: 1286491458}
  serializedVersion: 4
  m_Component:
  - 224: {fileID: 864878330}
  - 222: {fileID: 864878332}
  - 114: {fileID: 864878331}
  m_Layer: 5
  m_Name: Panel
  m_TagString: Untagged
  m_Icon: {fileID: 0}
  m_NavMeshLayer: 0
  m_StaticEditorFlags: 0
  m_IsActive: 1
--- !u!224 &864878330
RectTransform:
  m_ObjectHideFlags: 0
  m_PrefabParentObject: {fileID: 22489506, guid: f3f92d89d8706c749b0c3fc0b25cc0c5,
    type: 2}
  m_PrefabInternal: {fileID: 1286491458}
  m_GameObject: {fileID: 864878329}
  m_LocalRotation: {x: 0, y: 0, z: 0, w: 1}
  m_LocalPosition: {x: 0, y: 0, z: 0}
  m_LocalScale: {x: 1, y: 1, z: 1}
  m_Children: []
  m_Father: {fileID: 1843966535}
  m_RootOrder: 0
  m_AnchorMin: {x: 0.5, y: 0.5}
  m_AnchorMax: {x: 0.5, y: 0.5}
  m_AnchoredPosition: {x: -0.100097656, y: -0.000076293945}
  m_SizeDelta: {x: 136, y: 136}
  m_Pivot: {x: 0.5, y: 0.5}
--- !u!114 &864878331
MonoBehaviour:
  m_ObjectHideFlags: 0
  m_PrefabParentObject: {fileID: 11489536, guid: f3f92d89d8706c749b0c3fc0b25cc0c5,
    type: 2}
  m_PrefabInternal: {fileID: 1286491458}
  m_GameObject: {fileID: 864878329}
  m_Enabled: 1
  m_EditorHideFlags: 0
  m_Script: {fileID: -765806418, guid: f5f67c52d1564df4a8936ccd202a3bd8, type: 3}
  m_Name: 
  m_EditorClassIdentifier: 
  m_Material: {fileID: 0}
  m_Color: {r: 0.12156863, g: 0.84705883, b: 0.59607846, a: 1}
  m_RaycastTarget: 1
  m_OnCullStateChanged:
    m_PersistentCalls:
      m_Calls: []
    m_TypeName: UnityEngine.UI.MaskableGraphic+CullStateChangedEvent, UnityEngine.UI,
      Version=1.0.0.0, Culture=neutral, PublicKeyToken=null
  m_Sprite: {fileID: 21300000, guid: 291502478103f274da140dc9d17c64dc, type: 3}
  m_Type: 3
  m_PreserveAspect: 0
  m_FillCenter: 1
  m_FillMethod: 1
  m_FillAmount: 0.5
  m_FillClockwise: 1
  m_FillOrigin: 0
--- !u!222 &864878332
CanvasRenderer:
  m_ObjectHideFlags: 0
  m_PrefabParentObject: {fileID: 22289506, guid: f3f92d89d8706c749b0c3fc0b25cc0c5,
    type: 2}
  m_PrefabInternal: {fileID: 1286491458}
  m_GameObject: {fileID: 864878329}
--- !u!1 &1004494709
GameObject:
  m_ObjectHideFlags: 0
  m_PrefabParentObject: {fileID: 189550, guid: f3f92d89d8706c749b0c3fc0b25cc0c5, type: 2}
  m_PrefabInternal: {fileID: 1286491458}
  serializedVersion: 4
  m_Component:
  - 224: {fileID: 1004494710}
  - 222: {fileID: 1004494713}
  - 114: {fileID: 1004494712}
  - 114: {fileID: 1004494711}
  m_Layer: 5
  m_Name: Button
  m_TagString: Untagged
  m_Icon: {fileID: 0}
  m_NavMeshLayer: 0
  m_StaticEditorFlags: 0
  m_IsActive: 1
--- !u!224 &1004494710
RectTransform:
  m_ObjectHideFlags: 0
  m_PrefabParentObject: {fileID: 22489550, guid: f3f92d89d8706c749b0c3fc0b25cc0c5,
    type: 2}
  m_PrefabInternal: {fileID: 1286491458}
  m_GameObject: {fileID: 1004494709}
  m_LocalRotation: {x: 0, y: 0, z: 0, w: 1}
  m_LocalPosition: {x: 0, y: 0, z: 0}
  m_LocalScale: {x: 1, y: 1, z: 1}
  m_Children:
  - {fileID: 1016276981}
  m_Father: {fileID: 386445062}
  m_RootOrder: 1
  m_AnchorMin: {x: 0.5, y: 0.5}
  m_AnchorMax: {x: 0.5, y: 0.5}
  m_AnchoredPosition: {x: 0, y: 266}
  m_SizeDelta: {x: 136, y: 136}
  m_Pivot: {x: 0.5, y: 0.5}
--- !u!114 &1004494711
MonoBehaviour:
  m_ObjectHideFlags: 0
  m_PrefabParentObject: {fileID: 11489508, guid: f3f92d89d8706c749b0c3fc0b25cc0c5,
    type: 2}
  m_PrefabInternal: {fileID: 1286491458}
  m_GameObject: {fileID: 1004494709}
  m_Enabled: 1
  m_EditorHideFlags: 0
  m_Script: {fileID: 1392445389, guid: f5f67c52d1564df4a8936ccd202a3bd8, type: 3}
  m_Name: 
  m_EditorClassIdentifier: 
  m_Navigation:
    m_Mode: 3
    m_SelectOnUp: {fileID: 0}
    m_SelectOnDown: {fileID: 0}
    m_SelectOnLeft: {fileID: 0}
    m_SelectOnRight: {fileID: 0}
  m_Transition: 1
  m_Colors:
    m_NormalColor: {r: 1, g: 1, b: 1, a: 1}
    m_HighlightedColor: {r: 0.9607843, g: 0.9607843, b: 0.9607843, a: 1}
    m_PressedColor: {r: 0.78431374, g: 0.78431374, b: 0.78431374, a: 1}
    m_DisabledColor: {r: 0.78431374, g: 0.78431374, b: 0.78431374, a: 0.5019608}
    m_ColorMultiplier: 1
    m_FadeDuration: 0.1
  m_SpriteState:
    m_HighlightedSprite: {fileID: 0}
    m_PressedSprite: {fileID: 0}
    m_DisabledSprite: {fileID: 0}
  m_AnimationTriggers:
    m_NormalTrigger: Normal
    m_HighlightedTrigger: Highlighted
    m_PressedTrigger: Pressed
    m_DisabledTrigger: Disabled
  m_Interactable: 1
  m_TargetGraphic: {fileID: 1004494712}
  m_OnClick:
    m_PersistentCalls:
      m_Calls: []
    m_TypeName: UnityEngine.UI.Button+ButtonClickedEvent, UnityEngine.UI, Version=1.0.0.0,
      Culture=neutral, PublicKeyToken=null
--- !u!114 &1004494712
MonoBehaviour:
  m_ObjectHideFlags: 0
  m_PrefabParentObject: {fileID: 11489584, guid: f3f92d89d8706c749b0c3fc0b25cc0c5,
    type: 2}
  m_PrefabInternal: {fileID: 1286491458}
  m_GameObject: {fileID: 1004494709}
  m_Enabled: 1
  m_EditorHideFlags: 0
  m_Script: {fileID: -765806418, guid: f5f67c52d1564df4a8936ccd202a3bd8, type: 3}
  m_Name: 
  m_EditorClassIdentifier: 
  m_Material: {fileID: 0}
  m_Color: {r: 0.12156863, g: 0.84705883, b: 0.59607846, a: 1}
  m_RaycastTarget: 1
  m_OnCullStateChanged:
    m_PersistentCalls:
      m_Calls: []
    m_TypeName: UnityEngine.UI.MaskableGraphic+CullStateChangedEvent, UnityEngine.UI,
      Version=1.0.0.0, Culture=neutral, PublicKeyToken=null
  m_Sprite: {fileID: 21300000, guid: 5edfdb1318310614985b8de7ab9b784c, type: 3}
  m_Type: 0
  m_PreserveAspect: 0
  m_FillCenter: 1
  m_FillMethod: 4
  m_FillAmount: 1
  m_FillClockwise: 1
  m_FillOrigin: 0
--- !u!222 &1004494713
CanvasRenderer:
  m_ObjectHideFlags: 0
  m_PrefabParentObject: {fileID: 22289548, guid: f3f92d89d8706c749b0c3fc0b25cc0c5,
    type: 2}
  m_PrefabInternal: {fileID: 1286491458}
  m_GameObject: {fileID: 1004494709}
--- !u!1 &1016276980
GameObject:
  m_ObjectHideFlags: 0
  m_PrefabParentObject: {fileID: 189552, guid: f3f92d89d8706c749b0c3fc0b25cc0c5, type: 2}
  m_PrefabInternal: {fileID: 1286491458}
  serializedVersion: 4
  m_Component:
  - 224: {fileID: 1016276981}
  - 222: {fileID: 1016276983}
  - 114: {fileID: 1016276982}
  m_Layer: 5
  m_Name: Panel
  m_TagString: Untagged
  m_Icon: {fileID: 0}
  m_NavMeshLayer: 0
  m_StaticEditorFlags: 0
  m_IsActive: 1
--- !u!224 &1016276981
RectTransform:
  m_ObjectHideFlags: 0
  m_PrefabParentObject: {fileID: 22489552, guid: f3f92d89d8706c749b0c3fc0b25cc0c5,
    type: 2}
  m_PrefabInternal: {fileID: 1286491458}
  m_GameObject: {fileID: 1016276980}
  m_LocalRotation: {x: 0, y: 0, z: 0, w: 1}
  m_LocalPosition: {x: 0, y: 0, z: 0}
  m_LocalScale: {x: 1, y: 1, z: 1}
  m_Children: []
  m_Father: {fileID: 1004494710}
  m_RootOrder: 0
  m_AnchorMin: {x: 0.5, y: 0.5}
  m_AnchorMax: {x: 0.5, y: 0.5}
  m_AnchoredPosition: {x: -0.100097656, y: -0.000076293945}
  m_SizeDelta: {x: 136, y: 136}
  m_Pivot: {x: 0.5, y: 0.5}
--- !u!114 &1016276982
MonoBehaviour:
  m_ObjectHideFlags: 0
  m_PrefabParentObject: {fileID: 11489586, guid: f3f92d89d8706c749b0c3fc0b25cc0c5,
    type: 2}
  m_PrefabInternal: {fileID: 1286491458}
  m_GameObject: {fileID: 1016276980}
  m_Enabled: 1
  m_EditorHideFlags: 0
  m_Script: {fileID: -765806418, guid: f5f67c52d1564df4a8936ccd202a3bd8, type: 3}
  m_Name: 
  m_EditorClassIdentifier: 
  m_Material: {fileID: 0}
  m_Color: {r: 0.12156863, g: 0.84705883, b: 0.59607846, a: 1}
  m_RaycastTarget: 1
  m_OnCullStateChanged:
    m_PersistentCalls:
      m_Calls: []
    m_TypeName: UnityEngine.UI.MaskableGraphic+CullStateChangedEvent, UnityEngine.UI,
      Version=1.0.0.0, Culture=neutral, PublicKeyToken=null
  m_Sprite: {fileID: 21300000, guid: 291502478103f274da140dc9d17c64dc, type: 3}
  m_Type: 3
  m_PreserveAspect: 0
  m_FillCenter: 1
  m_FillMethod: 1
  m_FillAmount: 0.5
  m_FillClockwise: 1
  m_FillOrigin: 0
--- !u!222 &1016276983
CanvasRenderer:
  m_ObjectHideFlags: 0
  m_PrefabParentObject: {fileID: 22289550, guid: f3f92d89d8706c749b0c3fc0b25cc0c5,
    type: 2}
  m_PrefabInternal: {fileID: 1286491458}
  m_GameObject: {fileID: 1016276980}
--- !u!1001 &1286491458
Prefab:
  m_ObjectHideFlags: 0
  serializedVersion: 2
  m_Modification:
    m_TransformParent: {fileID: 0}
    m_Modifications:
    - target: {fileID: 22489530, guid: f3f92d89d8706c749b0c3fc0b25cc0c5, type: 2}
      propertyPath: m_LocalPosition.x
      value: 0
      objectReference: {fileID: 0}
    - target: {fileID: 22489530, guid: f3f92d89d8706c749b0c3fc0b25cc0c5, type: 2}
      propertyPath: m_LocalPosition.y
      value: 0
      objectReference: {fileID: 0}
    - target: {fileID: 22489530, guid: f3f92d89d8706c749b0c3fc0b25cc0c5, type: 2}
      propertyPath: m_LocalPosition.z
      value: 0
      objectReference: {fileID: 0}
    - target: {fileID: 22489530, guid: f3f92d89d8706c749b0c3fc0b25cc0c5, type: 2}
      propertyPath: m_LocalRotation.x
      value: 0
      objectReference: {fileID: 0}
    - target: {fileID: 22489530, guid: f3f92d89d8706c749b0c3fc0b25cc0c5, type: 2}
      propertyPath: m_LocalRotation.y
      value: 0
      objectReference: {fileID: 0}
    - target: {fileID: 22489530, guid: f3f92d89d8706c749b0c3fc0b25cc0c5, type: 2}
      propertyPath: m_LocalRotation.z
      value: 0
      objectReference: {fileID: 0}
    - target: {fileID: 22489530, guid: f3f92d89d8706c749b0c3fc0b25cc0c5, type: 2}
      propertyPath: m_LocalRotation.w
      value: 1
      objectReference: {fileID: 0}
    - target: {fileID: 22489530, guid: f3f92d89d8706c749b0c3fc0b25cc0c5, type: 2}
      propertyPath: m_RootOrder
      value: 0
      objectReference: {fileID: 0}
    - target: {fileID: 22489530, guid: f3f92d89d8706c749b0c3fc0b25cc0c5, type: 2}
      propertyPath: m_AnchoredPosition.x
      value: 0
      objectReference: {fileID: 0}
    - target: {fileID: 22489530, guid: f3f92d89d8706c749b0c3fc0b25cc0c5, type: 2}
      propertyPath: m_AnchoredPosition.y
      value: 0
      objectReference: {fileID: 0}
    - target: {fileID: 22489530, guid: f3f92d89d8706c749b0c3fc0b25cc0c5, type: 2}
      propertyPath: m_SizeDelta.x
      value: 0
      objectReference: {fileID: 0}
    - target: {fileID: 22489530, guid: f3f92d89d8706c749b0c3fc0b25cc0c5, type: 2}
      propertyPath: m_SizeDelta.y
      value: 0
      objectReference: {fileID: 0}
    - target: {fileID: 22489530, guid: f3f92d89d8706c749b0c3fc0b25cc0c5, type: 2}
      propertyPath: m_AnchorMin.x
      value: 0
      objectReference: {fileID: 0}
    - target: {fileID: 22489530, guid: f3f92d89d8706c749b0c3fc0b25cc0c5, type: 2}
      propertyPath: m_AnchorMin.y
      value: 0
      objectReference: {fileID: 0}
    - target: {fileID: 22489530, guid: f3f92d89d8706c749b0c3fc0b25cc0c5, type: 2}
      propertyPath: m_AnchorMax.x
      value: 0
      objectReference: {fileID: 0}
    - target: {fileID: 22489530, guid: f3f92d89d8706c749b0c3fc0b25cc0c5, type: 2}
      propertyPath: m_AnchorMax.y
      value: 0
      objectReference: {fileID: 0}
    - target: {fileID: 22489530, guid: f3f92d89d8706c749b0c3fc0b25cc0c5, type: 2}
      propertyPath: m_Pivot.x
      value: 0
      objectReference: {fileID: 0}
    - target: {fileID: 22489530, guid: f3f92d89d8706c749b0c3fc0b25cc0c5, type: 2}
      propertyPath: m_Pivot.y
      value: 0
      objectReference: {fileID: 0}
    m_RemovedComponents: []
  m_ParentPrefab: {fileID: 100100000, guid: f3f92d89d8706c749b0c3fc0b25cc0c5, type: 2}
  m_RootGameObject: {fileID: 494648900}
  m_IsPrefabParent: 0
--- !u!1 &1326924275
GameObject:
  m_ObjectHideFlags: 0
  m_PrefabParentObject: {fileID: 189532, guid: f3f92d89d8706c749b0c3fc0b25cc0c5, type: 2}
  m_PrefabInternal: {fileID: 1286491458}
  serializedVersion: 4
  m_Component:
  - 224: {fileID: 1326924276}
  - 222: {fileID: 1326924279}
  - 114: {fileID: 1326924278}
  - 114: {fileID: 1326924277}
  m_Layer: 5
  m_Name: Button
  m_TagString: Untagged
  m_Icon: {fileID: 0}
  m_NavMeshLayer: 0
  m_StaticEditorFlags: 0
  m_IsActive: 1
--- !u!224 &1326924276
RectTransform:
  m_ObjectHideFlags: 0
  m_PrefabParentObject: {fileID: 22489532, guid: f3f92d89d8706c749b0c3fc0b25cc0c5,
    type: 2}
  m_PrefabInternal: {fileID: 1286491458}
  m_GameObject: {fileID: 1326924275}
  m_LocalRotation: {x: 0, y: 0, z: 0, w: 1}
  m_LocalPosition: {x: 0, y: 0, z: 0}
  m_LocalScale: {x: 1, y: 1, z: 1}
  m_Children: []
  m_Father: {fileID: 386445062}
  m_RootOrder: 8
  m_AnchorMin: {x: 0.5, y: 0.5}
  m_AnchorMax: {x: 0.5, y: 0.5}
  m_AnchoredPosition: {x: -180, y: -94}
  m_SizeDelta: {x: 136, y: 136}
  m_Pivot: {x: 0.5, y: 0.5}
--- !u!114 &1326924277
MonoBehaviour:
  m_ObjectHideFlags: 0
  m_PrefabParentObject: {fileID: 11489518, guid: f3f92d89d8706c749b0c3fc0b25cc0c5,
    type: 2}
  m_PrefabInternal: {fileID: 1286491458}
  m_GameObject: {fileID: 1326924275}
  m_Enabled: 1
  m_EditorHideFlags: 0
  m_Script: {fileID: 1392445389, guid: f5f67c52d1564df4a8936ccd202a3bd8, type: 3}
  m_Name: 
  m_EditorClassIdentifier: 
  m_Navigation:
    m_Mode: 3
    m_SelectOnUp: {fileID: 0}
    m_SelectOnDown: {fileID: 0}
    m_SelectOnLeft: {fileID: 0}
    m_SelectOnRight: {fileID: 0}
  m_Transition: 1
  m_Colors:
    m_NormalColor: {r: 1, g: 1, b: 1, a: 1}
    m_HighlightedColor: {r: 0.9607843, g: 0.9607843, b: 0.9607843, a: 1}
    m_PressedColor: {r: 0.78431374, g: 0.78431374, b: 0.78431374, a: 1}
    m_DisabledColor: {r: 0.78431374, g: 0.78431374, b: 0.78431374, a: 0.5019608}
    m_ColorMultiplier: 1
    m_FadeDuration: 0.1
  m_SpriteState:
    m_HighlightedSprite: {fileID: 0}
    m_PressedSprite: {fileID: 0}
    m_DisabledSprite: {fileID: 0}
  m_AnimationTriggers:
    m_NormalTrigger: Normal
    m_HighlightedTrigger: Highlighted
    m_PressedTrigger: Pressed
    m_DisabledTrigger: Disabled
  m_Interactable: 1
  m_TargetGraphic: {fileID: 1326924278}
  m_OnClick:
    m_PersistentCalls:
      m_Calls: []
    m_TypeName: UnityEngine.UI.Button+ButtonClickedEvent, UnityEngine.UI, Version=1.0.0.0,
      Culture=neutral, PublicKeyToken=null
--- !u!114 &1326924278
MonoBehaviour:
  m_ObjectHideFlags: 0
  m_PrefabParentObject: {fileID: 11489564, guid: f3f92d89d8706c749b0c3fc0b25cc0c5,
    type: 2}
  m_PrefabInternal: {fileID: 1286491458}
  m_GameObject: {fileID: 1326924275}
  m_Enabled: 1
  m_EditorHideFlags: 0
  m_Script: {fileID: -765806418, guid: f5f67c52d1564df4a8936ccd202a3bd8, type: 3}
  m_Name: 
  m_EditorClassIdentifier: 
  m_Material: {fileID: 0}
  m_Color: {r: 0.64705884, g: 0.64705884, b: 0.64705884, a: 1}
  m_RaycastTarget: 1
  m_OnCullStateChanged:
    m_PersistentCalls:
      m_Calls: []
    m_TypeName: UnityEngine.UI.MaskableGraphic+CullStateChangedEvent, UnityEngine.UI,
      Version=1.0.0.0, Culture=neutral, PublicKeyToken=null
  m_Sprite: {fileID: 21300000, guid: 291502478103f274da140dc9d17c64dc, type: 3}
  m_Type: 0
  m_PreserveAspect: 0
  m_FillCenter: 1
  m_FillMethod: 4
  m_FillAmount: 1
  m_FillClockwise: 1
  m_FillOrigin: 0
--- !u!222 &1326924279
CanvasRenderer:
  m_ObjectHideFlags: 0
  m_PrefabParentObject: {fileID: 22289530, guid: f3f92d89d8706c749b0c3fc0b25cc0c5,
    type: 2}
  m_PrefabInternal: {fileID: 1286491458}
  m_GameObject: {fileID: 1326924275}
--- !u!1 &1500371475
GameObject:
  m_ObjectHideFlags: 0
  m_PrefabParentObject: {fileID: 0}
  m_PrefabInternal: {fileID: 0}
  serializedVersion: 4
  m_Component:
  - 4: {fileID: 1500371479}
  - 114: {fileID: 1500371478}
  - 114: {fileID: 1500371477}
  - 114: {fileID: 1500371476}
  m_Layer: 0
  m_Name: EventSystem
  m_TagString: Untagged
  m_Icon: {fileID: 0}
  m_NavMeshLayer: 0
  m_StaticEditorFlags: 0
  m_IsActive: 1
--- !u!114 &1500371476
MonoBehaviour:
  m_ObjectHideFlags: 0
  m_PrefabParentObject: {fileID: 0}
  m_PrefabInternal: {fileID: 0}
  m_GameObject: {fileID: 1500371475}
  m_Enabled: 1
  m_EditorHideFlags: 0
  m_Script: {fileID: 1997211142, guid: f5f67c52d1564df4a8936ccd202a3bd8, type: 3}
  m_Name: 
  m_EditorClassIdentifier: 
  m_ForceModuleActive: 0
--- !u!114 &1500371477
MonoBehaviour:
  m_ObjectHideFlags: 0
  m_PrefabParentObject: {fileID: 0}
  m_PrefabInternal: {fileID: 0}
  m_GameObject: {fileID: 1500371475}
  m_Enabled: 1
  m_EditorHideFlags: 0
  m_Script: {fileID: 1077351063, guid: f5f67c52d1564df4a8936ccd202a3bd8, type: 3}
  m_Name: 
  m_EditorClassIdentifier: 
  m_HorizontalAxis: Horizontal
  m_VerticalAxis: Vertical
  m_SubmitButton: Submit
  m_CancelButton: Cancel
  m_InputActionsPerSecond: 10
  m_RepeatDelay: 0.5
  m_ForceModuleActive: 0
--- !u!114 &1500371478
MonoBehaviour:
  m_ObjectHideFlags: 0
  m_PrefabParentObject: {fileID: 0}
  m_PrefabInternal: {fileID: 0}
  m_GameObject: {fileID: 1500371475}
  m_Enabled: 1
  m_EditorHideFlags: 0
  m_Script: {fileID: -619905303, guid: f5f67c52d1564df4a8936ccd202a3bd8, type: 3}
  m_Name: 
  m_EditorClassIdentifier: 
  m_FirstSelected: {fileID: 0}
  m_sendNavigationEvents: 1
  m_DragThreshold: 5
--- !u!4 &1500371479
Transform:
  m_ObjectHideFlags: 0
  m_PrefabParentObject: {fileID: 0}
  m_PrefabInternal: {fileID: 0}
  m_GameObject: {fileID: 1500371475}
  m_LocalRotation: {x: 0, y: 0, z: 0, w: 1}
  m_LocalPosition: {x: 0, y: 0, z: 0}
  m_LocalScale: {x: 1, y: 1, z: 1}
  m_Children: []
  m_Father: {fileID: 0}
  m_RootOrder: 1
--- !u!1 &1511305452
GameObject:
  m_ObjectHideFlags: 0
  m_PrefabParentObject: {fileID: 0}
  m_PrefabInternal: {fileID: 0}
  serializedVersion: 4
  m_Component:
  - 4: {fileID: 1511305453}
  m_Layer: 0
  m_Name: __SET_YOUR_GAMESCREEN_TO_640x1136
  m_TagString: Untagged
  m_Icon: {fileID: 0}
  m_NavMeshLayer: 0
  m_StaticEditorFlags: 0
  m_IsActive: 1
--- !u!4 &1511305453
Transform:
  m_ObjectHideFlags: 0
  m_PrefabParentObject: {fileID: 0}
  m_PrefabInternal: {fileID: 0}
  m_GameObject: {fileID: 1511305452}
  m_LocalRotation: {x: 0, y: 0, z: 0, w: 1}
  m_LocalPosition: {x: 494.995, y: 627.74, z: 0}
  m_LocalScale: {x: 1, y: 1, z: 1}
  m_Children: []
  m_Father: {fileID: 0}
  m_RootOrder: 2
--- !u!1 &1520326289
GameObject:
  m_ObjectHideFlags: 0
  m_PrefabParentObject: {fileID: 189558, guid: f3f92d89d8706c749b0c3fc0b25cc0c5, type: 2}
  m_PrefabInternal: {fileID: 1286491458}
  serializedVersion: 4
  m_Component:
  - 224: {fileID: 1520326290}
  - 222: {fileID: 1520326293}
  - 114: {fileID: 1520326292}
  - 114: {fileID: 1520326291}
  m_Layer: 5
  m_Name: Button
  m_TagString: Untagged
  m_Icon: {fileID: 0}
  m_NavMeshLayer: 0
  m_StaticEditorFlags: 0
  m_IsActive: 1
--- !u!224 &1520326290
RectTransform:
  m_ObjectHideFlags: 0
  m_PrefabParentObject: {fileID: 22489558, guid: f3f92d89d8706c749b0c3fc0b25cc0c5,
    type: 2}
  m_PrefabInternal: {fileID: 1286491458}
  m_GameObject: {fileID: 1520326289}
  m_LocalRotation: {x: 0, y: 0, z: 0, w: 1}
  m_LocalPosition: {x: 0, y: 0, z: 0}
  m_LocalScale: {x: 0.6, y: 0.6, z: 1}
  m_Children: []
  m_Father: {fileID: 386445062}
  m_RootOrder: 10
  m_AnchorMin: {x: 0.5, y: 0.5}
  m_AnchorMax: {x: 0.5, y: 0.5}
  m_AnchoredPosition: {x: 180, y: -274}
  m_SizeDelta: {x: 136, y: 136}
  m_Pivot: {x: 0.5, y: 0.5}
--- !u!114 &1520326291
MonoBehaviour:
  m_ObjectHideFlags: 0
  m_PrefabParentObject: {fileID: 11489506, guid: f3f92d89d8706c749b0c3fc0b25cc0c5,
    type: 2}
  m_PrefabInternal: {fileID: 1286491458}
  m_GameObject: {fileID: 1520326289}
  m_Enabled: 1
  m_EditorHideFlags: 0
  m_Script: {fileID: 1392445389, guid: f5f67c52d1564df4a8936ccd202a3bd8, type: 3}
  m_Name: 
  m_EditorClassIdentifier: 
  m_Navigation:
    m_Mode: 3
    m_SelectOnUp: {fileID: 0}
    m_SelectOnDown: {fileID: 0}
    m_SelectOnLeft: {fileID: 0}
    m_SelectOnRight: {fileID: 0}
  m_Transition: 1
  m_Colors:
    m_NormalColor: {r: 1, g: 1, b: 1, a: 1}
    m_HighlightedColor: {r: 0.9607843, g: 0.9607843, b: 0.9607843, a: 1}
    m_PressedColor: {r: 0.78431374, g: 0.78431374, b: 0.78431374, a: 1}
    m_DisabledColor: {r: 0.78431374, g: 0.78431374, b: 0.78431374, a: 0.5019608}
    m_ColorMultiplier: 1
    m_FadeDuration: 0.1
  m_SpriteState:
    m_HighlightedSprite: {fileID: 0}
    m_PressedSprite: {fileID: 0}
    m_DisabledSprite: {fileID: 0}
  m_AnimationTriggers:
    m_NormalTrigger: Normal
    m_HighlightedTrigger: Highlighted
    m_PressedTrigger: Pressed
    m_DisabledTrigger: Disabled
  m_Interactable: 1
  m_TargetGraphic: {fileID: 1520326292}
  m_OnClick:
    m_PersistentCalls:
      m_Calls: []
    m_TypeName: UnityEngine.UI.Button+ButtonClickedEvent, UnityEngine.UI, Version=1.0.0.0,
      Culture=neutral, PublicKeyToken=null
--- !u!114 &1520326292
MonoBehaviour:
  m_ObjectHideFlags: 0
  m_PrefabParentObject: {fileID: 11489592, guid: f3f92d89d8706c749b0c3fc0b25cc0c5,
    type: 2}
  m_PrefabInternal: {fileID: 1286491458}
  m_GameObject: {fileID: 1520326289}
  m_Enabled: 1
  m_EditorHideFlags: 0
  m_Script: {fileID: -765806418, guid: f5f67c52d1564df4a8936ccd202a3bd8, type: 3}
  m_Name: 
  m_EditorClassIdentifier: 
  m_Material: {fileID: 0}
  m_Color: {r: 0.6544118, g: 0.6544118, b: 0.6544118, a: 1}
  m_RaycastTarget: 1
  m_OnCullStateChanged:
    m_PersistentCalls:
      m_Calls: []
    m_TypeName: UnityEngine.UI.MaskableGraphic+CullStateChangedEvent, UnityEngine.UI,
      Version=1.0.0.0, Culture=neutral, PublicKeyToken=null
  m_Sprite: {fileID: 21300000, guid: 291502478103f274da140dc9d17c64dc, type: 3}
  m_Type: 0
  m_PreserveAspect: 0
  m_FillCenter: 1
  m_FillMethod: 4
  m_FillAmount: 1
  m_FillClockwise: 1
  m_FillOrigin: 0
--- !u!222 &1520326293
CanvasRenderer:
  m_ObjectHideFlags: 0
  m_PrefabParentObject: {fileID: 22289556, guid: f3f92d89d8706c749b0c3fc0b25cc0c5,
    type: 2}
  m_PrefabInternal: {fileID: 1286491458}
  m_GameObject: {fileID: 1520326289}
--- !u!1 &1623153127
GameObject:
  m_ObjectHideFlags: 0
  m_PrefabParentObject: {fileID: 189554, guid: f3f92d89d8706c749b0c3fc0b25cc0c5, type: 2}
  m_PrefabInternal: {fileID: 1286491458}
  serializedVersion: 4
  m_Component:
  - 224: {fileID: 1623153128}
  - 222: {fileID: 1623153130}
  - 114: {fileID: 1623153129}
  m_Layer: 5
  m_Name: Panel
  m_TagString: Untagged
  m_Icon: {fileID: 0}
  m_NavMeshLayer: 0
  m_StaticEditorFlags: 0
  m_IsActive: 1
--- !u!224 &1623153128
RectTransform:
  m_ObjectHideFlags: 0
  m_PrefabParentObject: {fileID: 22489554, guid: f3f92d89d8706c749b0c3fc0b25cc0c5,
    type: 2}
  m_PrefabInternal: {fileID: 1286491458}
  m_GameObject: {fileID: 1623153127}
  m_LocalRotation: {x: 0, y: 0, z: 0, w: 1}
  m_LocalPosition: {x: 0, y: 0, z: 0}
  m_LocalScale: {x: 1, y: 1, z: 1}
  m_Children: []
  m_Father: {fileID: 242208115}
  m_RootOrder: 0
  m_AnchorMin: {x: 0.5, y: 0.5}
  m_AnchorMax: {x: 0.5, y: 0.5}
  m_AnchoredPosition: {x: 224.7, y: -17.4}
  m_SizeDelta: {x: 10, y: 174}
  m_Pivot: {x: 0.5, y: 0.5}
--- !u!114 &1623153129
MonoBehaviour:
  m_ObjectHideFlags: 0
  m_PrefabParentObject: {fileID: 11489588, guid: f3f92d89d8706c749b0c3fc0b25cc0c5,
    type: 2}
  m_PrefabInternal: {fileID: 1286491458}
  m_GameObject: {fileID: 1623153127}
  m_Enabled: 1
  m_EditorHideFlags: 0
  m_Script: {fileID: -765806418, guid: f5f67c52d1564df4a8936ccd202a3bd8, type: 3}
  m_Name: 
  m_EditorClassIdentifier: 
  m_Material: {fileID: 0}
  m_Color: {r: 0.9882353, g: 0.7882353, b: 0, a: 1}
  m_RaycastTarget: 1
  m_OnCullStateChanged:
    m_PersistentCalls:
      m_Calls: []
    m_TypeName: UnityEngine.UI.MaskableGraphic+CullStateChangedEvent, UnityEngine.UI,
      Version=1.0.0.0, Culture=neutral, PublicKeyToken=null
  m_Sprite: {fileID: 21300000, guid: 7ed1238760b863f4aafde32ab3a6f28c, type: 3}
  m_Type: 1
  m_PreserveAspect: 0
  m_FillCenter: 1
  m_FillMethod: 0
  m_FillAmount: 0.664
  m_FillClockwise: 1
  m_FillOrigin: 0
--- !u!222 &1623153130
CanvasRenderer:
  m_ObjectHideFlags: 0
  m_PrefabParentObject: {fileID: 22289552, guid: f3f92d89d8706c749b0c3fc0b25cc0c5,
    type: 2}
  m_PrefabInternal: {fileID: 1286491458}
  m_GameObject: {fileID: 1623153127}
--- !u!1 &1649765316
GameObject:
  m_ObjectHideFlags: 0
  m_PrefabParentObject: {fileID: 189542, guid: f3f92d89d8706c749b0c3fc0b25cc0c5, type: 2}
  m_PrefabInternal: {fileID: 1286491458}
  serializedVersion: 4
  m_Component:
  - 224: {fileID: 1649765317}
  - 222: {fileID: 1649765319}
  - 114: {fileID: 1649765318}
  m_Layer: 5
  m_Name: AppTitle
  m_TagString: Untagged
  m_Icon: {fileID: 0}
  m_NavMeshLayer: 0
  m_StaticEditorFlags: 0
  m_IsActive: 1
--- !u!224 &1649765317
RectTransform:
  m_ObjectHideFlags: 0
  m_PrefabParentObject: {fileID: 22489542, guid: f3f92d89d8706c749b0c3fc0b25cc0c5,
    type: 2}
  m_PrefabInternal: {fileID: 1286491458}
  m_GameObject: {fileID: 1649765316}
  m_LocalRotation: {x: 0, y: 0, z: 0, w: 1}
  m_LocalPosition: {x: 0, y: 0, z: 0}
  m_LocalScale: {x: 1, y: 1, z: 1}
  m_Children: []
  m_Father: {fileID: 2025813513}
  m_RootOrder: 0
  m_AnchorMin: {x: 0.5, y: 0.5}
  m_AnchorMax: {x: 0.5, y: 0.5}
  m_AnchoredPosition: {x: 295, y: -68}
  m_SizeDelta: {x: 695, y: 109}
  m_Pivot: {x: 0.5, y: 0.5}
--- !u!114 &1649765318
MonoBehaviour:
  m_ObjectHideFlags: 0
  m_PrefabParentObject: {fileID: 11489576, guid: f3f92d89d8706c749b0c3fc0b25cc0c5,
    type: 2}
  m_PrefabInternal: {fileID: 1286491458}
  m_GameObject: {fileID: 1649765316}
  m_Enabled: 1
  m_EditorHideFlags: 0
  m_Script: {fileID: 708705254, guid: f5f67c52d1564df4a8936ccd202a3bd8, type: 3}
  m_Name: 
  m_EditorClassIdentifier: 
  m_Material: {fileID: 0}
  m_Color: {r: 0.85490197, g: 0.85490197, b: 0.85490197, a: 1}
  m_RaycastTarget: 1
  m_OnCullStateChanged:
    m_PersistentCalls:
      m_Calls: []
    m_TypeName: UnityEngine.UI.MaskableGraphic+CullStateChangedEvent, UnityEngine.UI,
      Version=1.0.0.0, Culture=neutral, PublicKeyToken=null
  m_FontData:
    m_Font: {fileID: 12800000, guid: 218956a5c2a6e42d6a60afccf80b002b, type: 3}
    m_FontSize: 40
    m_FontStyle: 0
    m_BestFit: 0
    m_MinSize: 10
    m_MaxSize: 40
    m_Alignment: 0
    m_AlignByGeometry: 0
    m_RichText: 1
    m_HorizontalOverflow: 0
    m_VerticalOverflow: 1
    m_LineSpacing: 1
  m_Text: EXAMPLE
--- !u!222 &1649765319
CanvasRenderer:
  m_ObjectHideFlags: 0
  m_PrefabParentObject: {fileID: 22289540, guid: f3f92d89d8706c749b0c3fc0b25cc0c5,
    type: 2}
  m_PrefabInternal: {fileID: 1286491458}
  m_GameObject: {fileID: 1649765316}
--- !u!1 &1717695502
GameObject:
  m_ObjectHideFlags: 0
  m_PrefabParentObject: {fileID: 189518, guid: f3f92d89d8706c749b0c3fc0b25cc0c5, type: 2}
  m_PrefabInternal: {fileID: 1286491458}
  serializedVersion: 4
  m_Component:
  - 224: {fileID: 1717695503}
  - 222: {fileID: 1717695506}
  - 114: {fileID: 1717695505}
  - 114: {fileID: 1717695504}
  m_Layer: 5
  m_Name: Button
  m_TagString: Untagged
  m_Icon: {fileID: 0}
  m_NavMeshLayer: 0
  m_StaticEditorFlags: 0
  m_IsActive: 1
--- !u!224 &1717695503
RectTransform:
  m_ObjectHideFlags: 0
  m_PrefabParentObject: {fileID: 22489518, guid: f3f92d89d8706c749b0c3fc0b25cc0c5,
    type: 2}
  m_PrefabInternal: {fileID: 1286491458}
  m_GameObject: {fileID: 1717695502}
  m_LocalRotation: {x: 0, y: 0, z: 0, w: 1}
  m_LocalPosition: {x: 0, y: 0, z: 0}
  m_LocalScale: {x: 1, y: 1, z: 1}
  m_Children: []
  m_Father: {fileID: 386445062}
  m_RootOrder: 12
  m_AnchorMin: {x: 0.5, y: 0.5}
  m_AnchorMax: {x: 0.5, y: 0.5}
  m_AnchoredPosition: {x: 0, y: -458}
  m_SizeDelta: {x: 136, y: 136}
  m_Pivot: {x: 0.5, y: 0.5}
--- !u!114 &1717695504
MonoBehaviour:
  m_ObjectHideFlags: 0
  m_PrefabParentObject: {fileID: 11489530, guid: f3f92d89d8706c749b0c3fc0b25cc0c5,
    type: 2}
  m_PrefabInternal: {fileID: 1286491458}
  m_GameObject: {fileID: 1717695502}
  m_Enabled: 1
  m_EditorHideFlags: 0
  m_Script: {fileID: 1392445389, guid: f5f67c52d1564df4a8936ccd202a3bd8, type: 3}
  m_Name: 
  m_EditorClassIdentifier: 
  m_Navigation:
    m_Mode: 3
    m_SelectOnUp: {fileID: 0}
    m_SelectOnDown: {fileID: 0}
    m_SelectOnLeft: {fileID: 0}
    m_SelectOnRight: {fileID: 0}
  m_Transition: 1
  m_Colors:
    m_NormalColor: {r: 1, g: 1, b: 1, a: 1}
    m_HighlightedColor: {r: 0.9607843, g: 0.9607843, b: 0.9607843, a: 1}
    m_PressedColor: {r: 0.78431374, g: 0.78431374, b: 0.78431374, a: 1}
    m_DisabledColor: {r: 0.78431374, g: 0.78431374, b: 0.78431374, a: 0.5019608}
    m_ColorMultiplier: 1
    m_FadeDuration: 0.1
  m_SpriteState:
    m_HighlightedSprite: {fileID: 0}
    m_PressedSprite: {fileID: 0}
    m_DisabledSprite: {fileID: 0}
  m_AnimationTriggers:
    m_NormalTrigger: Normal
    m_HighlightedTrigger: Highlighted
    m_PressedTrigger: Pressed
    m_DisabledTrigger: Disabled
  m_Interactable: 1
  m_TargetGraphic: {fileID: 1717695505}
  m_OnClick:
    m_PersistentCalls:
      m_Calls: []
    m_TypeName: UnityEngine.UI.Button+ButtonClickedEvent, UnityEngine.UI, Version=1.0.0.0,
      Culture=neutral, PublicKeyToken=null
--- !u!114 &1717695505
MonoBehaviour:
  m_ObjectHideFlags: 0
  m_PrefabParentObject: {fileID: 11489548, guid: f3f92d89d8706c749b0c3fc0b25cc0c5,
    type: 2}
  m_PrefabInternal: {fileID: 1286491458}
  m_GameObject: {fileID: 1717695502}
  m_Enabled: 1
  m_EditorHideFlags: 0
  m_Script: {fileID: -765806418, guid: f5f67c52d1564df4a8936ccd202a3bd8, type: 3}
  m_Name: 
  m_EditorClassIdentifier: 
  m_Material: {fileID: 0}
  m_Color: {r: 0.15686275, g: 0.65882355, b: 0.8784314, a: 1}
  m_RaycastTarget: 1
  m_OnCullStateChanged:
    m_PersistentCalls:
      m_Calls: []
    m_TypeName: UnityEngine.UI.MaskableGraphic+CullStateChangedEvent, UnityEngine.UI,
      Version=1.0.0.0, Culture=neutral, PublicKeyToken=null
  m_Sprite: {fileID: 21300000, guid: 5edfdb1318310614985b8de7ab9b784c, type: 3}
  m_Type: 0
  m_PreserveAspect: 0
  m_FillCenter: 1
  m_FillMethod: 4
  m_FillAmount: 1
  m_FillClockwise: 1
  m_FillOrigin: 0
--- !u!222 &1717695506
CanvasRenderer:
  m_ObjectHideFlags: 0
  m_PrefabParentObject: {fileID: 22289518, guid: f3f92d89d8706c749b0c3fc0b25cc0c5,
    type: 2}
  m_PrefabInternal: {fileID: 1286491458}
  m_GameObject: {fileID: 1717695502}
--- !u!1 &1843966534
GameObject:
  m_ObjectHideFlags: 0
  m_PrefabParentObject: {fileID: 189548, guid: f3f92d89d8706c749b0c3fc0b25cc0c5, type: 2}
  m_PrefabInternal: {fileID: 1286491458}
  serializedVersion: 4
  m_Component:
  - 224: {fileID: 1843966535}
  - 222: {fileID: 1843966538}
  - 114: {fileID: 1843966537}
  - 114: {fileID: 1843966536}
  m_Layer: 5
  m_Name: Button
  m_TagString: Untagged
  m_Icon: {fileID: 0}
  m_NavMeshLayer: 0
  m_StaticEditorFlags: 0
  m_IsActive: 1
--- !u!224 &1843966535
RectTransform:
  m_ObjectHideFlags: 0
  m_PrefabParentObject: {fileID: 22489548, guid: f3f92d89d8706c749b0c3fc0b25cc0c5,
    type: 2}
  m_PrefabInternal: {fileID: 1286491458}
  m_GameObject: {fileID: 1843966534}
  m_LocalRotation: {x: 0, y: 0, z: 0, w: 1}
  m_LocalPosition: {x: 0, y: 0, z: 0}
  m_LocalScale: {x: 0.6, y: 0.6, z: 1}
  m_Children:
  - {fileID: 864878330}
  m_Father: {fileID: 386445062}
  m_RootOrder: 6
  m_AnchorMin: {x: 0.5, y: 0.5}
  m_AnchorMax: {x: 0.5, y: 0.5}
  m_AnchoredPosition: {x: 180, y: 86}
  m_SizeDelta: {x: 136, y: 136}
  m_Pivot: {x: 0.5, y: 0.5}
--- !u!114 &1843966536
MonoBehaviour:
  m_ObjectHideFlags: 0
  m_PrefabParentObject: {fileID: 11489510, guid: f3f92d89d8706c749b0c3fc0b25cc0c5,
    type: 2}
  m_PrefabInternal: {fileID: 1286491458}
  m_GameObject: {fileID: 1843966534}
  m_Enabled: 1
  m_EditorHideFlags: 0
  m_Script: {fileID: 1392445389, guid: f5f67c52d1564df4a8936ccd202a3bd8, type: 3}
  m_Name: 
  m_EditorClassIdentifier: 
  m_Navigation:
    m_Mode: 3
    m_SelectOnUp: {fileID: 0}
    m_SelectOnDown: {fileID: 0}
    m_SelectOnLeft: {fileID: 0}
    m_SelectOnRight: {fileID: 0}
  m_Transition: 1
  m_Colors:
    m_NormalColor: {r: 1, g: 1, b: 1, a: 1}
    m_HighlightedColor: {r: 0.9607843, g: 0.9607843, b: 0.9607843, a: 1}
    m_PressedColor: {r: 0.78431374, g: 0.78431374, b: 0.78431374, a: 1}
    m_DisabledColor: {r: 0.78431374, g: 0.78431374, b: 0.78431374, a: 0.5019608}
    m_ColorMultiplier: 1
    m_FadeDuration: 0.1
  m_SpriteState:
    m_HighlightedSprite: {fileID: 0}
    m_PressedSprite: {fileID: 0}
    m_DisabledSprite: {fileID: 0}
  m_AnimationTriggers:
    m_NormalTrigger: Normal
    m_HighlightedTrigger: Highlighted
    m_PressedTrigger: Pressed
    m_DisabledTrigger: Disabled
  m_Interactable: 1
  m_TargetGraphic: {fileID: 1843966537}
  m_OnClick:
    m_PersistentCalls:
      m_Calls: []
    m_TypeName: UnityEngine.UI.Button+ButtonClickedEvent, UnityEngine.UI, Version=1.0.0.0,
      Culture=neutral, PublicKeyToken=null
--- !u!114 &1843966537
MonoBehaviour:
  m_ObjectHideFlags: 0
  m_PrefabParentObject: {fileID: 11489582, guid: f3f92d89d8706c749b0c3fc0b25cc0c5,
    type: 2}
  m_PrefabInternal: {fileID: 1286491458}
  m_GameObject: {fileID: 1843966534}
  m_Enabled: 1
  m_EditorHideFlags: 0
  m_Script: {fileID: -765806418, guid: f5f67c52d1564df4a8936ccd202a3bd8, type: 3}
  m_Name: 
  m_EditorClassIdentifier: 
  m_Material: {fileID: 0}
  m_Color: {r: 0.12156863, g: 0.84705883, b: 0.59607846, a: 1}
  m_RaycastTarget: 1
  m_OnCullStateChanged:
    m_PersistentCalls:
      m_Calls: []
    m_TypeName: UnityEngine.UI.MaskableGraphic+CullStateChangedEvent, UnityEngine.UI,
      Version=1.0.0.0, Culture=neutral, PublicKeyToken=null
  m_Sprite: {fileID: 21300000, guid: 5edfdb1318310614985b8de7ab9b784c, type: 3}
  m_Type: 0
  m_PreserveAspect: 0
  m_FillCenter: 1
  m_FillMethod: 4
  m_FillAmount: 1
  m_FillClockwise: 1
  m_FillOrigin: 0
--- !u!222 &1843966538
CanvasRenderer:
  m_ObjectHideFlags: 0
  m_PrefabParentObject: {fileID: 22289546, guid: f3f92d89d8706c749b0c3fc0b25cc0c5,
    type: 2}
  m_PrefabInternal: {fileID: 1286491458}
  m_GameObject: {fileID: 1843966534}
--- !u!1 &1871932116
GameObject:
  m_ObjectHideFlags: 0
  m_PrefabParentObject: {fileID: 189514, guid: f3f92d89d8706c749b0c3fc0b25cc0c5, type: 2}
  m_PrefabInternal: {fileID: 1286491458}
  serializedVersion: 4
  m_Component:
  - 224: {fileID: 1871932117}
  - 222: {fileID: 1871932120}
  - 114: {fileID: 1871932119}
  - 114: {fileID: 1871932118}
  m_Layer: 5
  m_Name: Button
  m_TagString: Untagged
  m_Icon: {fileID: 0}
  m_NavMeshLayer: 0
  m_StaticEditorFlags: 0
  m_IsActive: 1
--- !u!224 &1871932117
RectTransform:
  m_ObjectHideFlags: 0
  m_PrefabParentObject: {fileID: 22489514, guid: f3f92d89d8706c749b0c3fc0b25cc0c5,
    type: 2}
  m_PrefabInternal: {fileID: 1286491458}
  m_GameObject: {fileID: 1871932116}
  m_LocalRotation: {x: 0, y: 0, z: 0, w: 1}
  m_LocalPosition: {x: 0, y: 0, z: 0}
  m_LocalScale: {x: 1, y: 1, z: 1}
  m_Children: []
  m_Father: {fileID: 386445062}
  m_RootOrder: 14
  m_AnchorMin: {x: 0.5, y: 0.5}
  m_AnchorMax: {x: 0.5, y: 0.5}
  m_AnchoredPosition: {x: -180, y: -458}
  m_SizeDelta: {x: 136, y: 136}
  m_Pivot: {x: 0.5, y: 0.5}
--- !u!114 &1871932118
MonoBehaviour:
  m_ObjectHideFlags: 0
  m_PrefabParentObject: {fileID: 11489532, guid: f3f92d89d8706c749b0c3fc0b25cc0c5,
    type: 2}
  m_PrefabInternal: {fileID: 1286491458}
  m_GameObject: {fileID: 1871932116}
  m_Enabled: 1
  m_EditorHideFlags: 0
  m_Script: {fileID: 1392445389, guid: f5f67c52d1564df4a8936ccd202a3bd8, type: 3}
  m_Name: 
  m_EditorClassIdentifier: 
  m_Navigation:
    m_Mode: 3
    m_SelectOnUp: {fileID: 0}
    m_SelectOnDown: {fileID: 0}
    m_SelectOnLeft: {fileID: 0}
    m_SelectOnRight: {fileID: 0}
  m_Transition: 1
  m_Colors:
    m_NormalColor: {r: 1, g: 1, b: 1, a: 1}
    m_HighlightedColor: {r: 0.9607843, g: 0.9607843, b: 0.9607843, a: 1}
    m_PressedColor: {r: 0.78431374, g: 0.78431374, b: 0.78431374, a: 1}
    m_DisabledColor: {r: 0.78431374, g: 0.78431374, b: 0.78431374, a: 0.5019608}
    m_ColorMultiplier: 1
    m_FadeDuration: 0.1
  m_SpriteState:
    m_HighlightedSprite: {fileID: 0}
    m_PressedSprite: {fileID: 0}
    m_DisabledSprite: {fileID: 0}
  m_AnimationTriggers:
    m_NormalTrigger: Normal
    m_HighlightedTrigger: Highlighted
    m_PressedTrigger: Pressed
    m_DisabledTrigger: Disabled
  m_Interactable: 1
  m_TargetGraphic: {fileID: 1871932119}
  m_OnClick:
    m_PersistentCalls:
      m_Calls: []
    m_TypeName: UnityEngine.UI.Button+ButtonClickedEvent, UnityEngine.UI, Version=1.0.0.0,
      Culture=neutral, PublicKeyToken=null
--- !u!114 &1871932119
MonoBehaviour:
  m_ObjectHideFlags: 0
  m_PrefabParentObject: {fileID: 11489544, guid: f3f92d89d8706c749b0c3fc0b25cc0c5,
    type: 2}
  m_PrefabInternal: {fileID: 1286491458}
  m_GameObject: {fileID: 1871932116}
  m_Enabled: 1
  m_EditorHideFlags: 0
  m_Script: {fileID: -765806418, guid: f5f67c52d1564df4a8936ccd202a3bd8, type: 3}
  m_Name: 
  m_EditorClassIdentifier: 
  m_Material: {fileID: 0}
  m_Color: {r: 0.12156863, g: 0.8392157, b: 0.5882353, a: 1}
  m_RaycastTarget: 1
  m_OnCullStateChanged:
    m_PersistentCalls:
      m_Calls: []
    m_TypeName: UnityEngine.UI.MaskableGraphic+CullStateChangedEvent, UnityEngine.UI,
      Version=1.0.0.0, Culture=neutral, PublicKeyToken=null
  m_Sprite: {fileID: 21300000, guid: 291502478103f274da140dc9d17c64dc, type: 3}
  m_Type: 0
  m_PreserveAspect: 0
  m_FillCenter: 1
  m_FillMethod: 4
  m_FillAmount: 1
  m_FillClockwise: 1
  m_FillOrigin: 0
--- !u!222 &1871932120
CanvasRenderer:
  m_ObjectHideFlags: 0
  m_PrefabParentObject: {fileID: 22289514, guid: f3f92d89d8706c749b0c3fc0b25cc0c5,
    type: 2}
  m_PrefabInternal: {fileID: 1286491458}
  m_GameObject: {fileID: 1871932116}
--- !u!1 &1940819111
GameObject:
  m_ObjectHideFlags: 0
  m_PrefabParentObject: {fileID: 189520, guid: f3f92d89d8706c749b0c3fc0b25cc0c5, type: 2}
  m_PrefabInternal: {fileID: 1286491458}
  serializedVersion: 4
  m_Component:
  - 224: {fileID: 1940819112}
  - 222: {fileID: 1940819115}
  - 114: {fileID: 1940819114}
  - 114: {fileID: 1940819113}
  m_Layer: 5
  m_Name: Button
  m_TagString: Untagged
  m_Icon: {fileID: 0}
  m_NavMeshLayer: 0
  m_StaticEditorFlags: 0
  m_IsActive: 1
--- !u!224 &1940819112
RectTransform:
  m_ObjectHideFlags: 0
  m_PrefabParentObject: {fileID: 22489520, guid: f3f92d89d8706c749b0c3fc0b25cc0c5,
    type: 2}
  m_PrefabInternal: {fileID: 1286491458}
  m_GameObject: {fileID: 1940819111}
  m_LocalRotation: {x: 0, y: 0, z: 0, w: 1}
  m_LocalPosition: {x: 0, y: 0, z: 0}
  m_LocalScale: {x: 0.6, y: 0.6, z: 1}
  m_Children: []
  m_Father: {fileID: 386445062}
  m_RootOrder: 4
  m_AnchorMin: {x: 0.5, y: 0.5}
  m_AnchorMax: {x: 0.5, y: 0.5}
  m_AnchoredPosition: {x: -180, y: 86}
  m_SizeDelta: {x: 136, y: 136}
  m_Pivot: {x: 0.5, y: 0.5}
--- !u!114 &1940819113
MonoBehaviour:
  m_ObjectHideFlags: 0
  m_PrefabParentObject: {fileID: 11489528, guid: f3f92d89d8706c749b0c3fc0b25cc0c5,
    type: 2}
  m_PrefabInternal: {fileID: 1286491458}
  m_GameObject: {fileID: 1940819111}
  m_Enabled: 1
  m_EditorHideFlags: 0
  m_Script: {fileID: 1392445389, guid: f5f67c52d1564df4a8936ccd202a3bd8, type: 3}
  m_Name: 
  m_EditorClassIdentifier: 
  m_Navigation:
    m_Mode: 3
    m_SelectOnUp: {fileID: 0}
    m_SelectOnDown: {fileID: 0}
    m_SelectOnLeft: {fileID: 0}
    m_SelectOnRight: {fileID: 0}
  m_Transition: 1
  m_Colors:
    m_NormalColor: {r: 1, g: 1, b: 1, a: 1}
    m_HighlightedColor: {r: 0.9607843, g: 0.9607843, b: 0.9607843, a: 1}
    m_PressedColor: {r: 0.78431374, g: 0.78431374, b: 0.78431374, a: 1}
    m_DisabledColor: {r: 0.78431374, g: 0.78431374, b: 0.78431374, a: 0.5019608}
    m_ColorMultiplier: 1
    m_FadeDuration: 0.1
  m_SpriteState:
    m_HighlightedSprite: {fileID: 0}
    m_PressedSprite: {fileID: 0}
    m_DisabledSprite: {fileID: 0}
  m_AnimationTriggers:
    m_NormalTrigger: Normal
    m_HighlightedTrigger: Highlighted
    m_PressedTrigger: Pressed
    m_DisabledTrigger: Disabled
  m_Interactable: 1
  m_TargetGraphic: {fileID: 1940819114}
  m_OnClick:
    m_PersistentCalls:
      m_Calls: []
    m_TypeName: UnityEngine.UI.Button+ButtonClickedEvent, UnityEngine.UI, Version=1.0.0.0,
      Culture=neutral, PublicKeyToken=null
--- !u!114 &1940819114
MonoBehaviour:
  m_ObjectHideFlags: 0
  m_PrefabParentObject: {fileID: 11489550, guid: f3f92d89d8706c749b0c3fc0b25cc0c5,
    type: 2}
  m_PrefabInternal: {fileID: 1286491458}
  m_GameObject: {fileID: 1940819111}
  m_Enabled: 1
  m_EditorHideFlags: 0
  m_Script: {fileID: -765806418, guid: f5f67c52d1564df4a8936ccd202a3bd8, type: 3}
  m_Name: 
  m_EditorClassIdentifier: 
  m_Material: {fileID: 0}
  m_Color: {r: 0.99607843, g: 0.79607844, b: 0, a: 1}
  m_RaycastTarget: 1
  m_OnCullStateChanged:
    m_PersistentCalls:
      m_Calls: []
    m_TypeName: UnityEngine.UI.MaskableGraphic+CullStateChangedEvent, UnityEngine.UI,
      Version=1.0.0.0, Culture=neutral, PublicKeyToken=null
  m_Sprite: {fileID: 21300000, guid: 291502478103f274da140dc9d17c64dc, type: 3}
  m_Type: 0
  m_PreserveAspect: 0
  m_FillCenter: 1
  m_FillMethod: 4
  m_FillAmount: 1
  m_FillClockwise: 1
  m_FillOrigin: 0
--- !u!222 &1940819115
CanvasRenderer:
  m_ObjectHideFlags: 0
  m_PrefabParentObject: {fileID: 22289520, guid: f3f92d89d8706c749b0c3fc0b25cc0c5,
    type: 2}
  m_PrefabInternal: {fileID: 1286491458}
  m_GameObject: {fileID: 1940819111}
--- !u!1 &1998053930
GameObject:
  m_ObjectHideFlags: 0
  m_PrefabParentObject: {fileID: 189528, guid: f3f92d89d8706c749b0c3fc0b25cc0c5, type: 2}
  m_PrefabInternal: {fileID: 1286491458}
  serializedVersion: 4
  m_Component:
  - 224: {fileID: 1998053931}
  - 222: {fileID: 1998053934}
  - 114: {fileID: 1998053933}
  - 114: {fileID: 1998053932}
  m_Layer: 5
  m_Name: Button
  m_TagString: Untagged
  m_Icon: {fileID: 0}
  m_NavMeshLayer: 0
  m_StaticEditorFlags: 0
  m_IsActive: 1
--- !u!224 &1998053931
RectTransform:
  m_ObjectHideFlags: 0
  m_PrefabParentObject: {fileID: 22489528, guid: f3f92d89d8706c749b0c3fc0b25cc0c5,
    type: 2}
  m_PrefabInternal: {fileID: 1286491458}
  m_GameObject: {fileID: 1998053930}
  m_LocalRotation: {x: 0, y: 0, z: 0, w: 1}
  m_LocalPosition: {x: 0, y: 0, z: 0}
  m_LocalScale: {x: 0.6, y: 0.6, z: 1}
  m_Children:
  - {fileID: 611165163}
  m_Father: {fileID: 386445062}
  m_RootOrder: 15
  m_AnchorMin: {x: 0.5, y: 0.5}
  m_AnchorMax: {x: 0.5, y: 0.5}
  m_AnchoredPosition: {x: 0, y: -94}
  m_SizeDelta: {x: 136, y: 136}
  m_Pivot: {x: 0.5, y: 0.5}
--- !u!114 &1998053932
MonoBehaviour:
  m_ObjectHideFlags: 0
  m_PrefabParentObject: {fileID: 11489520, guid: f3f92d89d8706c749b0c3fc0b25cc0c5,
    type: 2}
  m_PrefabInternal: {fileID: 1286491458}
  m_GameObject: {fileID: 1998053930}
  m_Enabled: 1
  m_EditorHideFlags: 0
  m_Script: {fileID: 1392445389, guid: f5f67c52d1564df4a8936ccd202a3bd8, type: 3}
  m_Name: 
  m_EditorClassIdentifier: 
  m_Navigation:
    m_Mode: 3
    m_SelectOnUp: {fileID: 0}
    m_SelectOnDown: {fileID: 0}
    m_SelectOnLeft: {fileID: 0}
    m_SelectOnRight: {fileID: 0}
  m_Transition: 1
  m_Colors:
    m_NormalColor: {r: 1, g: 1, b: 1, a: 1}
    m_HighlightedColor: {r: 0.9607843, g: 0.9607843, b: 0.9607843, a: 1}
    m_PressedColor: {r: 0.78431374, g: 0.78431374, b: 0.78431374, a: 1}
    m_DisabledColor: {r: 0.78431374, g: 0.78431374, b: 0.78431374, a: 0.5019608}
    m_ColorMultiplier: 1
    m_FadeDuration: 0.1
  m_SpriteState:
    m_HighlightedSprite: {fileID: 0}
    m_PressedSprite: {fileID: 0}
    m_DisabledSprite: {fileID: 0}
  m_AnimationTriggers:
    m_NormalTrigger: Normal
    m_HighlightedTrigger: Highlighted
    m_PressedTrigger: Pressed
    m_DisabledTrigger: Disabled
  m_Interactable: 1
  m_TargetGraphic: {fileID: 1998053933}
  m_OnClick:
    m_PersistentCalls:
      m_Calls: []
    m_TypeName: UnityEngine.UI.Button+ButtonClickedEvent, UnityEngine.UI, Version=1.0.0.0,
      Culture=neutral, PublicKeyToken=null
--- !u!114 &1998053933
MonoBehaviour:
  m_ObjectHideFlags: 0
  m_PrefabParentObject: {fileID: 11489558, guid: f3f92d89d8706c749b0c3fc0b25cc0c5,
    type: 2}
  m_PrefabInternal: {fileID: 1286491458}
  m_GameObject: {fileID: 1998053930}
  m_Enabled: 1
  m_EditorHideFlags: 0
  m_Script: {fileID: -765806418, guid: f5f67c52d1564df4a8936ccd202a3bd8, type: 3}
  m_Name: 
  m_EditorClassIdentifier: 
  m_Material: {fileID: 0}
  m_Color: {r: 0.84705883, g: 0.2, b: 0.2509804, a: 1}
  m_RaycastTarget: 1
  m_OnCullStateChanged:
    m_PersistentCalls:
      m_Calls: []
    m_TypeName: UnityEngine.UI.MaskableGraphic+CullStateChangedEvent, UnityEngine.UI,
      Version=1.0.0.0, Culture=neutral, PublicKeyToken=null
  m_Sprite: {fileID: 21300000, guid: 5edfdb1318310614985b8de7ab9b784c, type: 3}
  m_Type: 0
  m_PreserveAspect: 0
  m_FillCenter: 1
  m_FillMethod: 4
  m_FillAmount: 1
  m_FillClockwise: 1
  m_FillOrigin: 0
--- !u!222 &1998053934
CanvasRenderer:
  m_ObjectHideFlags: 0
  m_PrefabParentObject: {fileID: 22289528, guid: f3f92d89d8706c749b0c3fc0b25cc0c5,
    type: 2}
  m_PrefabInternal: {fileID: 1286491458}
  m_GameObject: {fileID: 1998053930}
--- !u!1 &2025813512
GameObject:
  m_ObjectHideFlags: 0
  m_PrefabParentObject: {fileID: 189556, guid: f3f92d89d8706c749b0c3fc0b25cc0c5, type: 2}
  m_PrefabInternal: {fileID: 1286491458}
  serializedVersion: 4
  m_Component:
  - 224: {fileID: 2025813513}
  - 222: {fileID: 2025813515}
  - 114: {fileID: 2025813514}
  m_Layer: 5
  m_Name: AppTitle
  m_TagString: Untagged
  m_Icon: {fileID: 0}
  m_NavMeshLayer: 0
  m_StaticEditorFlags: 0
  m_IsActive: 1
--- !u!224 &2025813513
RectTransform:
  m_ObjectHideFlags: 0
  m_PrefabParentObject: {fileID: 22489556, guid: f3f92d89d8706c749b0c3fc0b25cc0c5,
    type: 2}
  m_PrefabInternal: {fileID: 1286491458}
  m_GameObject: {fileID: 2025813512}
  m_LocalRotation: {x: 0, y: 0, z: 0, w: 1}
  m_LocalPosition: {x: 0, y: 0, z: 0}
  m_LocalScale: {x: 1, y: 1, z: 1}
  m_Children:
  - {fileID: 1649765317}
  m_Father: {fileID: 494648904}
  m_RootOrder: 0
  m_AnchorMin: {x: 0.5, y: 0.5}
  m_AnchorMax: {x: 0.5, y: 0.5}
  m_AnchoredPosition: {x: 27.495, y: 633}
  m_SizeDelta: {x: 695, y: 109}
  m_Pivot: {x: 0.5, y: 0.5}
--- !u!114 &2025813514
MonoBehaviour:
  m_ObjectHideFlags: 0
  m_PrefabParentObject: {fileID: 11489590, guid: f3f92d89d8706c749b0c3fc0b25cc0c5,
    type: 2}
  m_PrefabInternal: {fileID: 1286491458}
  m_GameObject: {fileID: 2025813512}
  m_Enabled: 1
  m_EditorHideFlags: 0
  m_Script: {fileID: 708705254, guid: f5f67c52d1564df4a8936ccd202a3bd8, type: 3}
  m_Name: 
  m_EditorClassIdentifier: 
  m_Material: {fileID: 0}
  m_Color: {r: 0.85490197, g: 0.85490197, b: 0.85490197, a: 1}
  m_RaycastTarget: 1
  m_OnCullStateChanged:
    m_PersistentCalls:
      m_Calls: []
    m_TypeName: UnityEngine.UI.MaskableGraphic+CullStateChangedEvent, UnityEngine.UI,
      Version=1.0.0.0, Culture=neutral, PublicKeyToken=null
  m_FontData:
    m_Font: {fileID: 12800000, guid: 218956a5c2a6e42d6a60afccf80b002b, type: 3}
    m_FontSize: 102
    m_FontStyle: 0
    m_BestFit: 0
    m_MinSize: 10
    m_MaxSize: 102
    m_Alignment: 0
    m_AlignByGeometry: 0
    m_RichText: 1
    m_HorizontalOverflow: 0
    m_VerticalOverflow: 1
    m_LineSpacing: 1
  m_Text: GAME
--- !u!222 &2025813515
CanvasRenderer:
  m_ObjectHideFlags: 0
  m_PrefabParentObject: {fileID: 22289554, guid: f3f92d89d8706c749b0c3fc0b25cc0c5,
    type: 2}
  m_PrefabInternal: {fileID: 1286491458}
  m_GameObject: {fileID: 2025813512}
